## k		5						10						15						20						50						100					
##	lch			wup			lch			wup			lch			wup			lch			wup			lch			wup			lch			wup		
## min triple counts	verb freq	mean	stdev	stdev/sqrt(N)	mean	stdev	stdev/sqrt(N)	mean	stdev	stdev/sqrt(N)	mean	stdev	stdev/sqrt(N)	mean	stdev	stdev/sqrt(N)	mean	stdev	stdev/sqrt(N)	mean	stdev	stdev/sqrt(N)	mean	stdev	stdev/sqrt(N)	mean	stdev	stdev/sqrt(N)	mean	stdev	stdev/sqrt(N)	mean	stdev	stdev/sqrt(N)	mean	stdev	stdev/sqrt(N)
4	500	1975	0.303358546706	0.343726494889	0.00773445041255	0.105685617254	0.118600806716	0.00266872665352	0.300582369348	0.282119053191	0.00634817466732	0.104673161606	0.0972958525497	0.00218932773028	0.297642039765	0.260939588897	0.00587159948681	0.103619964043	0.0899496216333	0.00202402461985	0.296129777619	0.250566102588	0.00563817780809	0.103037311747	0.0862825311205	0.0019415086365	0.290699919481	0.224419658874	0.00504983685859	0.101220556044	0.0773758231709	0.00174109204948	0.288530632962	0.214929836015	0.00483629916097	0.100432627574	0.0741335404165	0.00166813498751	
4	2000	623	0.362327939388	0.358409845624	0.014359387254	0.127184885347	0.124813896879	0.00500056318726	0.387819903505	0.322865160221	0.0129353195038	0.135629022908	0.111697334144	0.00447505919772	0.384525363874	0.295386237553	0.011834399714	0.134558097911	0.102209293735	0.00409492888552	0.393137638275	0.290629725743	0.0116438340923	0.137358447012	0.100395665661	0.00402226741104	0.393687761267	0.263681865083	0.0105641908525	0.13748145906	0.0913185891365	0.00365860201921	0.389086093294	0.249792900738	0.010007741246	0.135643978802	0.0861934437902	0.00345326740673	
4	bigger	429	0.502225693806	0.430108373551	0.0207658279565	0.17636837972	0.148841523801	0.00718613648582	0.497958753078	0.375783836616	0.0181430145979	0.17505769023	0.13081148794	0.00631563815153	0.495482538112	0.35600080699	0.0171878809271	0.173916839173	0.123733308494	0.00597390042759	0.49276319173	0.337972454443	0.0163174638639	0.172862634959	0.117577991413	0.00567671891854	0.500025747127	0.319771273484	0.0154387025665	0.175579839257	0.111126698054	0.00536524754009	0.503627852633	0.318031616062	0.0153547111147	0.176986547675	0.110448514081	0.00533250450935	
