nohup: ignorando entrada

list of k to be studied:  5,10,15,20,50,100
   fields used to compute mean:  2,4,6,8,10,12,14,16,18,20,22,24
============================

min frequency: 50
Tue Oct 15 22:19:44 BRT 2013

..... lin

filter triples min 1
INFO: MAIN(compare_k_first_in_wordnet.py)  --	: ======== compare_k_first_in_wordnet.py ========
INFO: MAIN(compare_k_first_in_wordnet.py)  --	:  input file: /home/muntsa/MWE/data/filter_triples_by_counts/filter_triples_min_freq_50/shelves/thesaurus_lin.min1_nois0.min_freq_50.shelf
INFO: MAIN(compute_average.py)  --	: ======== compute_average_per_verbs.py ========
INFO: MAIN(compute_average.py)  --	:     file: min_freq_50/eval.lin.filter_triples_min1.min_freq_50.average_wordnet_path.csv
INFO: MAIN(compute_average.py)  --	:     verb freq: /home/muntsa/MWE/data/verb-counts/verb_counts.aprox.min_freq_50.csv
INFO: MAIN(compute_average.py)  --	:     fields: 2,4,6,8,10,12,14,16,18,20,22,24
INFO: MAIN(compute_average.py)  --	: ======== compute_average_per_verbs.py ========
INFO: MAIN(compute_average.py)  --	:     file: min_freq_50/eval.lin.filter_triples_min1.min_freq_50.average_wordnet_path.csv
INFO: MAIN(compute_average.py)  --	:     verb freq: /home/muntsa/MWE/data/verb-counts/verb_counts.aprox.min_freq_50.csv
INFO: MAIN(compute_average.py)  --	:     fields: 2,4,6,8,10,12,14,16,18,20,22,24
WARNING: MAIN(compute_average.py)  --	: There was no instance for the frequency range bigger. Skipping it

filter triples min 2
INFO: MAIN(compare_k_first_in_wordnet.py)  --	: ======== compare_k_first_in_wordnet.py ========
INFO: MAIN(compare_k_first_in_wordnet.py)  --	:  input file: /home/muntsa/MWE/data/filter_triples_by_counts/filter_triples_min_freq_50/shelves/thesaurus_lin.min2_nois0.min_freq_50.shelf
INFO: MAIN(compute_average.py)  --	: ======== compute_average_per_verbs.py ========
INFO: MAIN(compute_average.py)  --	:     file: min_freq_50/eval.lin.filter_triples_min2.min_freq_50.average_wordnet_path.csv
INFO: MAIN(compute_average.py)  --	:     verb freq: /home/muntsa/MWE/data/verb-counts/verb_counts.aprox.min_freq_50.csv
INFO: MAIN(compute_average.py)  --	:     fields: 2,4,6,8,10,12,14,16,18,20,22,24
INFO: MAIN(compute_average.py)  --	: ======== compute_average_per_verbs.py ========
INFO: MAIN(compute_average.py)  --	:     file: min_freq_50/eval.lin.filter_triples_min2.min_freq_50.average_wordnet_path.csv
INFO: MAIN(compute_average.py)  --	:     verb freq: /home/muntsa/MWE/data/verb-counts/verb_counts.aprox.min_freq_50.csv
INFO: MAIN(compute_average.py)  --	:     fields: 2,4,6,8,10,12,14,16,18,20,22,24
WARNING: MAIN(compute_average.py)  --	: There was no instance for the frequency range bigger. Skipping it

filter triples min 3
INFO: MAIN(compare_k_first_in_wordnet.py)  --	: ======== compare_k_first_in_wordnet.py ========
INFO: MAIN(compare_k_first_in_wordnet.py)  --	:  input file: /home/muntsa/MWE/data/filter_triples_by_counts/filter_triples_min_freq_50/shelves/thesaurus_lin.min3_nois0.min_freq_50.shelf
/usr/lib/python2.7/dist-packages/scipy/stats/stats.py:358: RuntimeWarning: invalid value encountered in double_scalars
  m2c = m2 / (n - 1.)
INFO: MAIN(compute_average.py)  --	: ======== compute_average_per_verbs.py ========
INFO: MAIN(compute_average.py)  --	:     file: min_freq_50/eval.lin.filter_triples_min3.min_freq_50.average_wordnet_path.csv
INFO: MAIN(compute_average.py)  --	:     verb freq: /home/muntsa/MWE/data/verb-counts/verb_counts.aprox.min_freq_50.csv
INFO: MAIN(compute_average.py)  --	:     fields: 2,4,6,8,10,12,14,16,18,20,22,24
INFO: MAIN(compute_average.py)  --	: ======== compute_average_per_verbs.py ========
INFO: MAIN(compute_average.py)  --	:     file: min_freq_50/eval.lin.filter_triples_min3.min_freq_50.average_wordnet_path.csv
INFO: MAIN(compute_average.py)  --	:     verb freq: /home/muntsa/MWE/data/verb-counts/verb_counts.aprox.min_freq_50.csv
INFO: MAIN(compute_average.py)  --	:     fields: 2,4,6,8,10,12,14,16,18,20,22,24
WARNING: MAIN(compute_average.py)  --	: There was no instance for the frequency range bigger. Skipping it

filter triples min 4
INFO: MAIN(compare_k_first_in_wordnet.py)  --	: ======== compare_k_first_in_wordnet.py ========
INFO: MAIN(compare_k_first_in_wordnet.py)  --	:  input file: /home/muntsa/MWE/data/filter_triples_by_counts/filter_triples_min_freq_50/shelves/thesaurus_lin.min4_nois0.min_freq_50.shelf
/usr/lib/python2.7/dist-packages/scipy/stats/stats.py:358: RuntimeWarning: invalid value encountered in double_scalars
  m2c = m2 / (n - 1.)
INFO: MAIN(compute_average.py)  --	: ======== compute_average_per_verbs.py ========
INFO: MAIN(compute_average.py)  --	:     file: min_freq_50/eval.lin.filter_triples_min4.min_freq_50.average_wordnet_path.csv
INFO: MAIN(compute_average.py)  --	:     verb freq: /home/muntsa/MWE/data/verb-counts/verb_counts.aprox.min_freq_50.csv
INFO: MAIN(compute_average.py)  --	:     fields: 2,4,6,8,10,12,14,16,18,20,22,24
INFO: MAIN(compute_average.py)  --	: ======== compute_average_per_verbs.py ========
INFO: MAIN(compute_average.py)  --	:     file: min_freq_50/eval.lin.filter_triples_min4.min_freq_50.average_wordnet_path.csv
INFO: MAIN(compute_average.py)  --	:     verb freq: /home/muntsa/MWE/data/verb-counts/verb_counts.aprox.min_freq_50.csv
INFO: MAIN(compute_average.py)  --	:     fields: 2,4,6,8,10,12,14,16,18,20,22,24
WARNING: MAIN(compute_average.py)  --	: There was no instance for the frequency range bigger. Skipping it

filter triples min 5
INFO: MAIN(compare_k_first_in_wordnet.py)  --	: ======== compare_k_first_in_wordnet.py ========
INFO: MAIN(compare_k_first_in_wordnet.py)  --	:  input file: /home/muntsa/MWE/data/filter_triples_by_counts/filter_triples_min_freq_50/shelves/thesaurus_lin.min5_nois0.min_freq_50.shelf
/usr/lib/python2.7/dist-packages/scipy/stats/stats.py:358: RuntimeWarning: invalid value encountered in double_scalars
  m2c = m2 / (n - 1.)
INFO: MAIN(compute_average.py)  --	: ======== compute_average_per_verbs.py ========
INFO: MAIN(compute_average.py)  --	:     file: min_freq_50/eval.lin.filter_triples_min5.min_freq_50.average_wordnet_path.csv
INFO: MAIN(compute_average.py)  --	:     verb freq: /home/muntsa/MWE/data/verb-counts/verb_counts.aprox.min_freq_50.csv
INFO: MAIN(compute_average.py)  --	:     fields: 2,4,6,8,10,12,14,16,18,20,22,24
INFO: MAIN(compute_average.py)  --	: ======== compute_average_per_verbs.py ========
INFO: MAIN(compute_average.py)  --	:     file: min_freq_50/eval.lin.filter_triples_min5.min_freq_50.average_wordnet_path.csv
INFO: MAIN(compute_average.py)  --	:     verb freq: /home/muntsa/MWE/data/verb-counts/verb_counts.aprox.min_freq_50.csv
INFO: MAIN(compute_average.py)  --	:     fields: 2,4,6,8,10,12,14,16,18,20,22,24
WARNING: MAIN(compute_average.py)  --	: There was no instance for the frequency range bigger. Skipping it

filter triples min 6
INFO: MAIN(compare_k_first_in_wordnet.py)  --	: ======== compare_k_first_in_wordnet.py ========
INFO: MAIN(compare_k_first_in_wordnet.py)  --	:  input file: /home/muntsa/MWE/data/filter_triples_by_counts/filter_triples_min_freq_50/shelves/thesaurus_lin.min6_nois0.min_freq_50.shelf
/usr/lib/python2.7/dist-packages/scipy/stats/stats.py:358: RuntimeWarning: invalid value encountered in double_scalars
  m2c = m2 / (n - 1.)
INFO: MAIN(compute_average.py)  --	: ======== compute_average_per_verbs.py ========
INFO: MAIN(compute_average.py)  --	:     file: min_freq_50/eval.lin.filter_triples_min6.min_freq_50.average_wordnet_path.csv
INFO: MAIN(compute_average.py)  --	:     verb freq: /home/muntsa/MWE/data/verb-counts/verb_counts.aprox.min_freq_50.csv
INFO: MAIN(compute_average.py)  --	:     fields: 2,4,6,8,10,12,14,16,18,20,22,24
INFO: MAIN(compute_average.py)  --	: ======== compute_average_per_verbs.py ========
INFO: MAIN(compute_average.py)  --	:     file: min_freq_50/eval.lin.filter_triples_min6.min_freq_50.average_wordnet_path.csv
INFO: MAIN(compute_average.py)  --	:     verb freq: /home/muntsa/MWE/data/verb-counts/verb_counts.aprox.min_freq_50.csv
INFO: MAIN(compute_average.py)  --	:     fields: 2,4,6,8,10,12,14,16,18,20,22,24
WARNING: MAIN(compute_average.py)  --	: There was no instance for the frequency range bigger. Skipping it

filter triples min 7
INFO: MAIN(compare_k_first_in_wordnet.py)  --	: ======== compare_k_first_in_wordnet.py ========
INFO: MAIN(compare_k_first_in_wordnet.py)  --	:  input file: /home/muntsa/MWE/data/filter_triples_by_counts/filter_triples_min_freq_50/shelves/thesaurus_lin.min7_nois0.min_freq_50.shelf
/usr/lib/python2.7/dist-packages/scipy/stats/stats.py:358: RuntimeWarning: invalid value encountered in double_scalars
  m2c = m2 / (n - 1.)
INFO: MAIN(compute_average.py)  --	: ======== compute_average_per_verbs.py ========
INFO: MAIN(compute_average.py)  --	:     file: min_freq_50/eval.lin.filter_triples_min7.min_freq_50.average_wordnet_path.csv
INFO: MAIN(compute_average.py)  --	:     verb freq: /home/muntsa/MWE/data/verb-counts/verb_counts.aprox.min_freq_50.csv
INFO: MAIN(compute_average.py)  --	:     fields: 2,4,6,8,10,12,14,16,18,20,22,24
INFO: MAIN(compute_average.py)  --	: ======== compute_average_per_verbs.py ========
INFO: MAIN(compute_average.py)  --	:     file: min_freq_50/eval.lin.filter_triples_min7.min_freq_50.average_wordnet_path.csv
INFO: MAIN(compute_average.py)  --	:     verb freq: /home/muntsa/MWE/data/verb-counts/verb_counts.aprox.min_freq_50.csv
INFO: MAIN(compute_average.py)  --	:     fields: 2,4,6,8,10,12,14,16,18,20,22,24
WARNING: MAIN(compute_average.py)  --	: There was no instance for the frequency range bigger. Skipping it

filter triples min 8
INFO: MAIN(compare_k_first_in_wordnet.py)  --	: ======== compare_k_first_in_wordnet.py ========
INFO: MAIN(compare_k_first_in_wordnet.py)  --	:  input file: /home/muntsa/MWE/data/filter_triples_by_counts/filter_triples_min_freq_50/shelves/thesaurus_lin.min8_nois0.min_freq_50.shelf
/usr/lib/python2.7/dist-packages/scipy/stats/stats.py:358: RuntimeWarning: invalid value encountered in double_scalars
  m2c = m2 / (n - 1.)
INFO: MAIN(compute_average.py)  --	: ======== compute_average_per_verbs.py ========
INFO: MAIN(compute_average.py)  --	:     file: min_freq_50/eval.lin.filter_triples_min8.min_freq_50.average_wordnet_path.csv
INFO: MAIN(compute_average.py)  --	:     verb freq: /home/muntsa/MWE/data/verb-counts/verb_counts.aprox.min_freq_50.csv
INFO: MAIN(compute_average.py)  --	:     fields: 2,4,6,8,10,12,14,16,18,20,22,24
INFO: MAIN(compute_average.py)  --	: ======== compute_average_per_verbs.py ========
INFO: MAIN(compute_average.py)  --	:     file: min_freq_50/eval.lin.filter_triples_min8.min_freq_50.average_wordnet_path.csv
INFO: MAIN(compute_average.py)  --	:     verb freq: /home/muntsa/MWE/data/verb-counts/verb_counts.aprox.min_freq_50.csv
INFO: MAIN(compute_average.py)  --	:     fields: 2,4,6,8,10,12,14,16,18,20,22,24
WARNING: MAIN(compute_average.py)  --	: There was no instance for the frequency range bigger. Skipping it

filter triples min 9
INFO: MAIN(compare_k_first_in_wordnet.py)  --	: ======== compare_k_first_in_wordnet.py ========
INFO: MAIN(compare_k_first_in_wordnet.py)  --	:  input file: /home/muntsa/MWE/data/filter_triples_by_counts/filter_triples_min_freq_50/shelves/thesaurus_lin.min9_nois0.min_freq_50.shelf
/usr/lib/python2.7/dist-packages/scipy/stats/stats.py:358: RuntimeWarning: invalid value encountered in double_scalars
  m2c = m2 / (n - 1.)
INFO: MAIN(compute_average.py)  --	: ======== compute_average_per_verbs.py ========
INFO: MAIN(compute_average.py)  --	:     file: min_freq_50/eval.lin.filter_triples_min9.min_freq_50.average_wordnet_path.csv
INFO: MAIN(compute_average.py)  --	:     verb freq: /home/muntsa/MWE/data/verb-counts/verb_counts.aprox.min_freq_50.csv
INFO: MAIN(compute_average.py)  --	:     fields: 2,4,6,8,10,12,14,16,18,20,22,24
INFO: MAIN(compute_average.py)  --	: ======== compute_average_per_verbs.py ========
INFO: MAIN(compute_average.py)  --	:     file: min_freq_50/eval.lin.filter_triples_min9.min_freq_50.average_wordnet_path.csv
INFO: MAIN(compute_average.py)  --	:     verb freq: /home/muntsa/MWE/data/verb-counts/verb_counts.aprox.min_freq_50.csv
INFO: MAIN(compute_average.py)  --	:     fields: 2,4,6,8,10,12,14,16,18,20,22,24
WARNING: MAIN(compute_average.py)  --	: There was no instance for the frequency range bigger. Skipping it

filter triples min 10
INFO: MAIN(compare_k_first_in_wordnet.py)  --	: ======== compare_k_first_in_wordnet.py ========
INFO: MAIN(compare_k_first_in_wordnet.py)  --	:  input file: /home/muntsa/MWE/data/filter_triples_by_counts/filter_triples_min_freq_50/shelves/thesaurus_lin.min10_nois0.min_freq_50.shelf
/usr/lib/python2.7/dist-packages/scipy/stats/stats.py:358: RuntimeWarning: invalid value encountered in double_scalars
  m2c = m2 / (n - 1.)
INFO: MAIN(compute_average.py)  --	: ======== compute_average_per_verbs.py ========
INFO: MAIN(compute_average.py)  --	:     file: min_freq_50/eval.lin.filter_triples_min10.min_freq_50.average_wordnet_path.csv
INFO: MAIN(compute_average.py)  --	:     verb freq: /home/muntsa/MWE/data/verb-counts/verb_counts.aprox.min_freq_50.csv
INFO: MAIN(compute_average.py)  --	:     fields: 2,4,6,8,10,12,14,16,18,20,22,24
INFO: MAIN(compute_average.py)  --	: ======== compute_average_per_verbs.py ========
INFO: MAIN(compute_average.py)  --	:     file: min_freq_50/eval.lin.filter_triples_min10.min_freq_50.average_wordnet_path.csv
INFO: MAIN(compute_average.py)  --	:     verb freq: /home/muntsa/MWE/data/verb-counts/verb_counts.aprox.min_freq_50.csv
INFO: MAIN(compute_average.py)  --	:     fields: 2,4,6,8,10,12,14,16,18,20,22,24
WARNING: MAIN(compute_average.py)  --	: There was no instance for the frequency range bigger. Skipping it

filter triples min 20
INFO: MAIN(compare_k_first_in_wordnet.py)  --	: ======== compare_k_first_in_wordnet.py ========
INFO: MAIN(compare_k_first_in_wordnet.py)  --	:  input file: /home/muntsa/MWE/data/filter_triples_by_counts/filter_triples_min_freq_50/shelves/thesaurus_lin.min20_nois0.min_freq_50.shelf
/usr/lib/python2.7/dist-packages/scipy/stats/stats.py:358: RuntimeWarning: invalid value encountered in double_scalars
  m2c = m2 / (n - 1.)
INFO: MAIN(compute_average.py)  --	: ======== compute_average_per_verbs.py ========
INFO: MAIN(compute_average.py)  --	:     file: min_freq_50/eval.lin.filter_triples_min20.min_freq_50.average_wordnet_path.csv
INFO: MAIN(compute_average.py)  --	:     verb freq: /home/muntsa/MWE/data/verb-counts/verb_counts.aprox.min_freq_50.csv
INFO: MAIN(compute_average.py)  --	:     fields: 2,4,6,8,10,12,14,16,18,20,22,24
INFO: MAIN(compute_average.py)  --	: ======== compute_average_per_verbs.py ========
INFO: MAIN(compute_average.py)  --	:     file: min_freq_50/eval.lin.filter_triples_min20.min_freq_50.average_wordnet_path.csv
INFO: MAIN(compute_average.py)  --	:     verb freq: /home/muntsa/MWE/data/verb-counts/verb_counts.aprox.min_freq_50.csv
INFO: MAIN(compute_average.py)  --	:     fields: 2,4,6,8,10,12,14,16,18,20,22,24
WARNING: MAIN(compute_average.py)  --	: There was no instance for the frequency range bigger. Skipping it

filter triples min 30
INFO: MAIN(compare_k_first_in_wordnet.py)  --	: ======== compare_k_first_in_wordnet.py ========
INFO: MAIN(compare_k_first_in_wordnet.py)  --	:  input file: /home/muntsa/MWE/data/filter_triples_by_counts/filter_triples_min_freq_50/shelves/thesaurus_lin.min30_nois0.min_freq_50.shelf
/usr/lib/python2.7/dist-packages/scipy/stats/stats.py:358: RuntimeWarning: invalid value encountered in double_scalars
  m2c = m2 / (n - 1.)
INFO: MAIN(compute_average.py)  --	: ======== compute_average_per_verbs.py ========
INFO: MAIN(compute_average.py)  --	:     file: min_freq_50/eval.lin.filter_triples_min30.min_freq_50.average_wordnet_path.csv
INFO: MAIN(compute_average.py)  --	:     verb freq: /home/muntsa/MWE/data/verb-counts/verb_counts.aprox.min_freq_50.csv
INFO: MAIN(compute_average.py)  --	:     fields: 2,4,6,8,10,12,14,16,18,20,22,24
INFO: MAIN(compute_average.py)  --	: ======== compute_average_per_verbs.py ========
INFO: MAIN(compute_average.py)  --	:     file: min_freq_50/eval.lin.filter_triples_min30.min_freq_50.average_wordnet_path.csv
INFO: MAIN(compute_average.py)  --	:     verb freq: /home/muntsa/MWE/data/verb-counts/verb_counts.aprox.min_freq_50.csv
INFO: MAIN(compute_average.py)  --	:     fields: 2,4,6,8,10,12,14,16,18,20,22,24
WARNING: MAIN(compute_average.py)  --	: There was no instance for the frequency range bigger. Skipping it

filter triples min 50
INFO: MAIN(compare_k_first_in_wordnet.py)  --	: ======== compare_k_first_in_wordnet.py ========
INFO: MAIN(compare_k_first_in_wordnet.py)  --	:  input file: /home/muntsa/MWE/data/filter_triples_by_counts/filter_triples_min_freq_50/shelves/thesaurus_lin.min50_nois0.min_freq_50.shelf
/usr/lib/python2.7/dist-packages/scipy/stats/stats.py:358: RuntimeWarning: invalid value encountered in double_scalars
  m2c = m2 / (n - 1.)
INFO: MAIN(compute_average.py)  --	: ======== compute_average_per_verbs.py ========
INFO: MAIN(compute_average.py)  --	:     file: min_freq_50/eval.lin.filter_triples_min50.min_freq_50.average_wordnet_path.csv
INFO: MAIN(compute_average.py)  --	:     verb freq: /home/muntsa/MWE/data/verb-counts/verb_counts.aprox.min_freq_50.csv
INFO: MAIN(compute_average.py)  --	:     fields: 2,4,6,8,10,12,14,16,18,20,22,24
INFO: MAIN(compute_average.py)  --	: ======== compute_average_per_verbs.py ========
INFO: MAIN(compute_average.py)  --	:     file: min_freq_50/eval.lin.filter_triples_min50.min_freq_50.average_wordnet_path.csv
INFO: MAIN(compute_average.py)  --	:     verb freq: /home/muntsa/MWE/data/verb-counts/verb_counts.aprox.min_freq_50.csv
INFO: MAIN(compute_average.py)  --	:     fields: 2,4,6,8,10,12,14,16,18,20,22,24
WARNING: MAIN(compute_average.py)  --	: There was no instance for the frequency range bigger. Skipping it

..... cosine

filter triples min 1
INFO: MAIN(compare_k_first_in_wordnet.py)  --	: ======== compare_k_first_in_wordnet.py ========
INFO: MAIN(compare_k_first_in_wordnet.py)  --	:  input file: /home/muntsa/MWE/data/filter_triples_by_counts/filter_triples_min_freq_50/shelves/thesaurus_cosine.min1_nois0.min_freq_50.shelf
INFO: MAIN(compute_average.py)  --	: ======== compute_average_per_verbs.py ========
INFO: MAIN(compute_average.py)  --	:     file: min_freq_50/eval.cosine.filter_triples_min1.min_freq_50.average_wordnet_path.csv
INFO: MAIN(compute_average.py)  --	:     verb freq: /home/muntsa/MWE/data/verb-counts/verb_counts.aprox.min_freq_50.csv
INFO: MAIN(compute_average.py)  --	:     fields: 2,4,6,8,10,12,14,16,18,20,22,24
WARNING: MAIN(compute_average.py)  --	: There was no instance for the frequency range 150. Skipping it
WARNING: MAIN(compute_average.py)  --	: There was no instance for the frequency range 500. Skipping it
WARNING: MAIN(compute_average.py)  --	: There was no instance for the frequency range bigger. Skipping it
INFO: MAIN(compute_average.py)  --	: ======== compute_average_per_verbs.py ========
INFO: MAIN(compute_average.py)  --	:     file: min_freq_50/eval.cosine.filter_triples_min1.min_freq_50.average_wordnet_path.csv
INFO: MAIN(compute_average.py)  --	:     verb freq: /home/muntsa/MWE/data/verb-counts/verb_counts.aprox.min_freq_50.csv
INFO: MAIN(compute_average.py)  --	:     fields: 2,4,6,8,10,12,14,16,18,20,22,24
WARNING: MAIN(compute_average.py)  --	: There was no instance for the frequency range 1000000. Skipping it
WARNING: MAIN(compute_average.py)  --	: There was no instance for the frequency range bigger. Skipping it

filter triples min 2
INFO: MAIN(compare_k_first_in_wordnet.py)  --	: ======== compare_k_first_in_wordnet.py ========
INFO: MAIN(compare_k_first_in_wordnet.py)  --	:  input file: /home/muntsa/MWE/data/filter_triples_by_counts/filter_triples_min_freq_50/shelves/thesaurus_cosine.min2_nois0.min_freq_50.shelf
INFO: MAIN(compute_average.py)  --	: ======== compute_average_per_verbs.py ========
INFO: MAIN(compute_average.py)  --	:     file: min_freq_50/eval.cosine.filter_triples_min2.min_freq_50.average_wordnet_path.csv
INFO: MAIN(compute_average.py)  --	:     verb freq: /home/muntsa/MWE/data/verb-counts/verb_counts.aprox.min_freq_50.csv
INFO: MAIN(compute_average.py)  --	:     fields: 2,4,6,8,10,12,14,16,18,20,22,24
INFO: MAIN(compute_average.py)  --	: ======== compute_average_per_verbs.py ========
INFO: MAIN(compute_average.py)  --	:     file: min_freq_50/eval.cosine.filter_triples_min2.min_freq_50.average_wordnet_path.csv
INFO: MAIN(compute_average.py)  --	:     verb freq: /home/muntsa/MWE/data/verb-counts/verb_counts.aprox.min_freq_50.csv
INFO: MAIN(compute_average.py)  --	:     fields: 2,4,6,8,10,12,14,16,18,20,22,24
WARNING: MAIN(compute_average.py)  --	: There was no instance for the frequency range bigger. Skipping it

filter triples min 3
INFO: MAIN(compare_k_first_in_wordnet.py)  --	: ======== compare_k_first_in_wordnet.py ========
INFO: MAIN(compare_k_first_in_wordnet.py)  --	:  input file: /home/muntsa/MWE/data/filter_triples_by_counts/filter_triples_min_freq_50/shelves/thesaurus_cosine.min3_nois0.min_freq_50.shelf
/usr/lib/python2.7/dist-packages/scipy/stats/stats.py:358: RuntimeWarning: invalid value encountered in double_scalars
  m2c = m2 / (n - 1.)
INFO: MAIN(compute_average.py)  --	: ======== compute_average_per_verbs.py ========
INFO: MAIN(compute_average.py)  --	:     file: min_freq_50/eval.cosine.filter_triples_min3.min_freq_50.average_wordnet_path.csv
INFO: MAIN(compute_average.py)  --	:     verb freq: /home/muntsa/MWE/data/verb-counts/verb_counts.aprox.min_freq_50.csv
INFO: MAIN(compute_average.py)  --	:     fields: 2,4,6,8,10,12,14,16,18,20,22,24
INFO: MAIN(compute_average.py)  --	: ======== compute_average_per_verbs.py ========
INFO: MAIN(compute_average.py)  --	:     file: min_freq_50/eval.cosine.filter_triples_min3.min_freq_50.average_wordnet_path.csv
INFO: MAIN(compute_average.py)  --	:     verb freq: /home/muntsa/MWE/data/verb-counts/verb_counts.aprox.min_freq_50.csv
INFO: MAIN(compute_average.py)  --	:     fields: 2,4,6,8,10,12,14,16,18,20,22,24
WARNING: MAIN(compute_average.py)  --	: There was no instance for the frequency range bigger. Skipping it

filter triples min 4
INFO: MAIN(compare_k_first_in_wordnet.py)  --	: ======== compare_k_first_in_wordnet.py ========
INFO: MAIN(compare_k_first_in_wordnet.py)  --	:  input file: /home/muntsa/MWE/data/filter_triples_by_counts/filter_triples_min_freq_50/shelves/thesaurus_cosine.min4_nois0.min_freq_50.shelf
/usr/lib/python2.7/dist-packages/scipy/stats/stats.py:358: RuntimeWarning: invalid value encountered in double_scalars
  m2c = m2 / (n - 1.)
INFO: MAIN(compute_average.py)  --	: ======== compute_average_per_verbs.py ========
INFO: MAIN(compute_average.py)  --	:     file: min_freq_50/eval.cosine.filter_triples_min4.min_freq_50.average_wordnet_path.csv
INFO: MAIN(compute_average.py)  --	:     verb freq: /home/muntsa/MWE/data/verb-counts/verb_counts.aprox.min_freq_50.csv
INFO: MAIN(compute_average.py)  --	:     fields: 2,4,6,8,10,12,14,16,18,20,22,24
INFO: MAIN(compute_average.py)  --	: ======== compute_average_per_verbs.py ========
INFO: MAIN(compute_average.py)  --	:     file: min_freq_50/eval.cosine.filter_triples_min4.min_freq_50.average_wordnet_path.csv
INFO: MAIN(compute_average.py)  --	:     verb freq: /home/muntsa/MWE/data/verb-counts/verb_counts.aprox.min_freq_50.csv
INFO: MAIN(compute_average.py)  --	:     fields: 2,4,6,8,10,12,14,16,18,20,22,24
WARNING: MAIN(compute_average.py)  --	: There was no instance for the frequency range bigger. Skipping it

filter triples min 5
INFO: MAIN(compare_k_first_in_wordnet.py)  --	: ======== compare_k_first_in_wordnet.py ========
INFO: MAIN(compare_k_first_in_wordnet.py)  --	:  input file: /home/muntsa/MWE/data/filter_triples_by_counts/filter_triples_min_freq_50/shelves/thesaurus_cosine.min5_nois0.min_freq_50.shelf
/usr/lib/python2.7/dist-packages/scipy/stats/stats.py:358: RuntimeWarning: invalid value encountered in double_scalars
  m2c = m2 / (n - 1.)
INFO: MAIN(compute_average.py)  --	: ======== compute_average_per_verbs.py ========
INFO: MAIN(compute_average.py)  --	:     file: min_freq_50/eval.cosine.filter_triples_min5.min_freq_50.average_wordnet_path.csv
INFO: MAIN(compute_average.py)  --	:     verb freq: /home/muntsa/MWE/data/verb-counts/verb_counts.aprox.min_freq_50.csv
INFO: MAIN(compute_average.py)  --	:     fields: 2,4,6,8,10,12,14,16,18,20,22,24
INFO: MAIN(compute_average.py)  --	: ======== compute_average_per_verbs.py ========
INFO: MAIN(compute_average.py)  --	:     file: min_freq_50/eval.cosine.filter_triples_min5.min_freq_50.average_wordnet_path.csv
INFO: MAIN(compute_average.py)  --	:     verb freq: /home/muntsa/MWE/data/verb-counts/verb_counts.aprox.min_freq_50.csv
INFO: MAIN(compute_average.py)  --	:     fields: 2,4,6,8,10,12,14,16,18,20,22,24
WARNING: MAIN(compute_average.py)  --	: There was no instance for the frequency range bigger. Skipping it

filter triples min 6
INFO: MAIN(compare_k_first_in_wordnet.py)  --	: ======== compare_k_first_in_wordnet.py ========
INFO: MAIN(compare_k_first_in_wordnet.py)  --	:  input file: /home/muntsa/MWE/data/filter_triples_by_counts/filter_triples_min_freq_50/shelves/thesaurus_cosine.min6_nois0.min_freq_50.shelf
/usr/lib/python2.7/dist-packages/scipy/stats/stats.py:358: RuntimeWarning: invalid value encountered in double_scalars
  m2c = m2 / (n - 1.)
INFO: MAIN(compute_average.py)  --	: ======== compute_average_per_verbs.py ========
INFO: MAIN(compute_average.py)  --	:     file: min_freq_50/eval.cosine.filter_triples_min6.min_freq_50.average_wordnet_path.csv
INFO: MAIN(compute_average.py)  --	:     verb freq: /home/muntsa/MWE/data/verb-counts/verb_counts.aprox.min_freq_50.csv
INFO: MAIN(compute_average.py)  --	:     fields: 2,4,6,8,10,12,14,16,18,20,22,24
INFO: MAIN(compute_average.py)  --	: ======== compute_average_per_verbs.py ========
INFO: MAIN(compute_average.py)  --	:     file: min_freq_50/eval.cosine.filter_triples_min6.min_freq_50.average_wordnet_path.csv
INFO: MAIN(compute_average.py)  --	:     verb freq: /home/muntsa/MWE/data/verb-counts/verb_counts.aprox.min_freq_50.csv
INFO: MAIN(compute_average.py)  --	:     fields: 2,4,6,8,10,12,14,16,18,20,22,24
WARNING: MAIN(compute_average.py)  --	: There was no instance for the frequency range bigger. Skipping it

filter triples min 7
INFO: MAIN(compare_k_first_in_wordnet.py)  --	: ======== compare_k_first_in_wordnet.py ========
INFO: MAIN(compare_k_first_in_wordnet.py)  --	:  input file: /home/muntsa/MWE/data/filter_triples_by_counts/filter_triples_min_freq_50/shelves/thesaurus_cosine.min7_nois0.min_freq_50.shelf
/usr/lib/python2.7/dist-packages/scipy/stats/stats.py:358: RuntimeWarning: invalid value encountered in double_scalars
  m2c = m2 / (n - 1.)
INFO: MAIN(compute_average.py)  --	: ======== compute_average_per_verbs.py ========
INFO: MAIN(compute_average.py)  --	:     file: min_freq_50/eval.cosine.filter_triples_min7.min_freq_50.average_wordnet_path.csv
INFO: MAIN(compute_average.py)  --	:     verb freq: /home/muntsa/MWE/data/verb-counts/verb_counts.aprox.min_freq_50.csv
INFO: MAIN(compute_average.py)  --	:     fields: 2,4,6,8,10,12,14,16,18,20,22,24
INFO: MAIN(compute_average.py)  --	: ======== compute_average_per_verbs.py ========
INFO: MAIN(compute_average.py)  --	:     file: min_freq_50/eval.cosine.filter_triples_min7.min_freq_50.average_wordnet_path.csv
INFO: MAIN(compute_average.py)  --	:     verb freq: /home/muntsa/MWE/data/verb-counts/verb_counts.aprox.min_freq_50.csv
INFO: MAIN(compute_average.py)  --	:     fields: 2,4,6,8,10,12,14,16,18,20,22,24
WARNING: MAIN(compute_average.py)  --	: There was no instance for the frequency range bigger. Skipping it

filter triples min 8
INFO: MAIN(compare_k_first_in_wordnet.py)  --	: ======== compare_k_first_in_wordnet.py ========
INFO: MAIN(compare_k_first_in_wordnet.py)  --	:  input file: /home/muntsa/MWE/data/filter_triples_by_counts/filter_triples_min_freq_50/shelves/thesaurus_cosine.min8_nois0.min_freq_50.shelf
/usr/lib/python2.7/dist-packages/scipy/stats/stats.py:358: RuntimeWarning: invalid value encountered in double_scalars
  m2c = m2 / (n - 1.)
INFO: MAIN(compute_average.py)  --	: ======== compute_average_per_verbs.py ========
INFO: MAIN(compute_average.py)  --	:     file: min_freq_50/eval.cosine.filter_triples_min8.min_freq_50.average_wordnet_path.csv
INFO: MAIN(compute_average.py)  --	:     verb freq: /home/muntsa/MWE/data/verb-counts/verb_counts.aprox.min_freq_50.csv
INFO: MAIN(compute_average.py)  --	:     fields: 2,4,6,8,10,12,14,16,18,20,22,24
INFO: MAIN(compute_average.py)  --	: ======== compute_average_per_verbs.py ========
INFO: MAIN(compute_average.py)  --	:     file: min_freq_50/eval.cosine.filter_triples_min8.min_freq_50.average_wordnet_path.csv
INFO: MAIN(compute_average.py)  --	:     verb freq: /home/muntsa/MWE/data/verb-counts/verb_counts.aprox.min_freq_50.csv
INFO: MAIN(compute_average.py)  --	:     fields: 2,4,6,8,10,12,14,16,18,20,22,24
WARNING: MAIN(compute_average.py)  --	: There was no instance for the frequency range bigger. Skipping it

filter triples min 9
INFO: MAIN(compare_k_first_in_wordnet.py)  --	: ======== compare_k_first_in_wordnet.py ========
INFO: MAIN(compare_k_first_in_wordnet.py)  --	:  input file: /home/muntsa/MWE/data/filter_triples_by_counts/filter_triples_min_freq_50/shelves/thesaurus_cosine.min9_nois0.min_freq_50.shelf
/usr/lib/python2.7/dist-packages/scipy/stats/stats.py:358: RuntimeWarning: invalid value encountered in double_scalars
  m2c = m2 / (n - 1.)
INFO: MAIN(compute_average.py)  --	: ======== compute_average_per_verbs.py ========
INFO: MAIN(compute_average.py)  --	:     file: min_freq_50/eval.cosine.filter_triples_min9.min_freq_50.average_wordnet_path.csv
INFO: MAIN(compute_average.py)  --	:     verb freq: /home/muntsa/MWE/data/verb-counts/verb_counts.aprox.min_freq_50.csv
INFO: MAIN(compute_average.py)  --	:     fields: 2,4,6,8,10,12,14,16,18,20,22,24
INFO: MAIN(compute_average.py)  --	: ======== compute_average_per_verbs.py ========
INFO: MAIN(compute_average.py)  --	:     file: min_freq_50/eval.cosine.filter_triples_min9.min_freq_50.average_wordnet_path.csv
INFO: MAIN(compute_average.py)  --	:     verb freq: /home/muntsa/MWE/data/verb-counts/verb_counts.aprox.min_freq_50.csv
INFO: MAIN(compute_average.py)  --	:     fields: 2,4,6,8,10,12,14,16,18,20,22,24
WARNING: MAIN(compute_average.py)  --	: There was no instance for the frequency range bigger. Skipping it

filter triples min 10
INFO: MAIN(compare_k_first_in_wordnet.py)  --	: ======== compare_k_first_in_wordnet.py ========
INFO: MAIN(compare_k_first_in_wordnet.py)  --	:  input file: /home/muntsa/MWE/data/filter_triples_by_counts/filter_triples_min_freq_50/shelves/thesaurus_cosine.min10_nois0.min_freq_50.shelf
/usr/lib/python2.7/dist-packages/scipy/stats/stats.py:358: RuntimeWarning: invalid value encountered in double_scalars
  m2c = m2 / (n - 1.)
INFO: MAIN(compute_average.py)  --	: ======== compute_average_per_verbs.py ========
INFO: MAIN(compute_average.py)  --	:     file: min_freq_50/eval.cosine.filter_triples_min10.min_freq_50.average_wordnet_path.csv
INFO: MAIN(compute_average.py)  --	:     verb freq: /home/muntsa/MWE/data/verb-counts/verb_counts.aprox.min_freq_50.csv
INFO: MAIN(compute_average.py)  --	:     fields: 2,4,6,8,10,12,14,16,18,20,22,24
INFO: MAIN(compute_average.py)  --	: ======== compute_average_per_verbs.py ========
INFO: MAIN(compute_average.py)  --	:     file: min_freq_50/eval.cosine.filter_triples_min10.min_freq_50.average_wordnet_path.csv
INFO: MAIN(compute_average.py)  --	:     verb freq: /home/muntsa/MWE/data/verb-counts/verb_counts.aprox.min_freq_50.csv
INFO: MAIN(compute_average.py)  --	:     fields: 2,4,6,8,10,12,14,16,18,20,22,24
WARNING: MAIN(compute_average.py)  --	: There was no instance for the frequency range bigger. Skipping it

filter triples min 20
INFO: MAIN(compare_k_first_in_wordnet.py)  --	: ======== compare_k_first_in_wordnet.py ========
INFO: MAIN(compare_k_first_in_wordnet.py)  --	:  input file: /home/muntsa/MWE/data/filter_triples_by_counts/filter_triples_min_freq_50/shelves/thesaurus_cosine.min20_nois0.min_freq_50.shelf
/usr/lib/python2.7/dist-packages/scipy/stats/stats.py:358: RuntimeWarning: invalid value encountered in double_scalars
  m2c = m2 / (n - 1.)
INFO: MAIN(compute_average.py)  --	: ======== compute_average_per_verbs.py ========
INFO: MAIN(compute_average.py)  --	:     file: min_freq_50/eval.cosine.filter_triples_min20.min_freq_50.average_wordnet_path.csv
INFO: MAIN(compute_average.py)  --	:     verb freq: /home/muntsa/MWE/data/verb-counts/verb_counts.aprox.min_freq_50.csv
INFO: MAIN(compute_average.py)  --	:     fields: 2,4,6,8,10,12,14,16,18,20,22,24
INFO: MAIN(compute_average.py)  --	: ======== compute_average_per_verbs.py ========
INFO: MAIN(compute_average.py)  --	:     file: min_freq_50/eval.cosine.filter_triples_min20.min_freq_50.average_wordnet_path.csv
INFO: MAIN(compute_average.py)  --	:     verb freq: /home/muntsa/MWE/data/verb-counts/verb_counts.aprox.min_freq_50.csv
INFO: MAIN(compute_average.py)  --	:     fields: 2,4,6,8,10,12,14,16,18,20,22,24
WARNING: MAIN(compute_average.py)  --	: There was no instance for the frequency range bigger. Skipping it

filter triples min 30
INFO: MAIN(compare_k_first_in_wordnet.py)  --	: ======== compare_k_first_in_wordnet.py ========
INFO: MAIN(compare_k_first_in_wordnet.py)  --	:  input file: /home/muntsa/MWE/data/filter_triples_by_counts/filter_triples_min_freq_50/shelves/thesaurus_cosine.min30_nois0.min_freq_50.shelf
/usr/lib/python2.7/dist-packages/scipy/stats/stats.py:358: RuntimeWarning: invalid value encountered in double_scalars
  m2c = m2 / (n - 1.)
INFO: MAIN(compute_average.py)  --	: ======== compute_average_per_verbs.py ========
INFO: MAIN(compute_average.py)  --	:     file: min_freq_50/eval.cosine.filter_triples_min30.min_freq_50.average_wordnet_path.csv
INFO: MAIN(compute_average.py)  --	:     verb freq: /home/muntsa/MWE/data/verb-counts/verb_counts.aprox.min_freq_50.csv
INFO: MAIN(compute_average.py)  --	:     fields: 2,4,6,8,10,12,14,16,18,20,22,24
INFO: MAIN(compute_average.py)  --	: ======== compute_average_per_verbs.py ========
INFO: MAIN(compute_average.py)  --	:     file: min_freq_50/eval.cosine.filter_triples_min30.min_freq_50.average_wordnet_path.csv
INFO: MAIN(compute_average.py)  --	:     verb freq: /home/muntsa/MWE/data/verb-counts/verb_counts.aprox.min_freq_50.csv
INFO: MAIN(compute_average.py)  --	:     fields: 2,4,6,8,10,12,14,16,18,20,22,24
WARNING: MAIN(compute_average.py)  --	: There was no instance for the frequency range bigger. Skipping it

filter triples min 50
INFO: MAIN(compare_k_first_in_wordnet.py)  --	: ======== compare_k_first_in_wordnet.py ========
INFO: MAIN(compare_k_first_in_wordnet.py)  --	:  input file: /home/muntsa/MWE/data/filter_triples_by_counts/filter_triples_min_freq_50/shelves/thesaurus_cosine.min50_nois0.min_freq_50.shelf
/usr/lib/python2.7/dist-packages/scipy/stats/stats.py:358: RuntimeWarning: invalid value encountered in double_scalars
  m2c = m2 / (n - 1.)
INFO: MAIN(compute_average.py)  --	: ======== compute_average_per_verbs.py ========
INFO: MAIN(compute_average.py)  --	:     file: min_freq_50/eval.cosine.filter_triples_min50.min_freq_50.average_wordnet_path.csv
INFO: MAIN(compute_average.py)  --	:     verb freq: /home/muntsa/MWE/data/verb-counts/verb_counts.aprox.min_freq_50.csv
INFO: MAIN(compute_average.py)  --	:     fields: 2,4,6,8,10,12,14,16,18,20,22,24
INFO: MAIN(compute_average.py)  --	: ======== compute_average_per_verbs.py ========
INFO: MAIN(compute_average.py)  --	:     file: min_freq_50/eval.cosine.filter_triples_min50.min_freq_50.average_wordnet_path.csv
INFO: MAIN(compute_average.py)  --	:     verb freq: /home/muntsa/MWE/data/verb-counts/verb_counts.aprox.min_freq_50.csv
INFO: MAIN(compute_average.py)  --	:     fields: 2,4,6,8,10,12,14,16,18,20,22,24
WARNING: MAIN(compute_average.py)  --	: There was no instance for the frequency range bigger. Skipping it
