nohup: ignorando entrada
mkdir: é impossível criar o diretório “verbs_in_DM”: Arquivo existe

list of k to be studied:  5,10,15,20,50,100
   fields used to compute mean:  2,4,6,8,10,12,14,16,18,20,22,24
============================

min frequency: 50
Thu Mar  6 14:03:28 BRT 2014

..... lin

filter triples min 1
file min_freq_50/eval.lin.filter_triples_min1.min_freq_50.average_wordnet_path.csv already exist, computing means directly
INFO: MAIN(compute_average.py)  --	: ======== compute_average_per_verbs.py ========
INFO: MAIN(compute_average.py)  --	:     file: min_freq_50/eval.lin.filter_triples_min1.min_freq_50.average_wordnet_path.csv
INFO: MAIN(compute_average.py)  --	:     verb freq: /home/muntsa/MWE/data/verb-counts/verb_counts.aprox.min_freq_50.csv
INFO: MAIN(compute_average.py)  --	:     fields: 2,4,6,8,10,12,14,16,18,20,22,24
INFO: MAIN(compute_average.py)  --	:     label: 1
INFO: MAIN(compute_average.py)  --	:        will compute average for lemmas in: /home/muntsa/MWE/data/utils/verbs_in_DM_and_BNC
INFO: MAIN(compute_average.py)  --	: ======== compute_average_per_verbs.py ========
INFO: MAIN(compute_average.py)  --	:     file: min_freq_50/eval.lin.filter_triples_min1.min_freq_50.average_wordnet_path.csv
INFO: MAIN(compute_average.py)  --	:     verb freq: /home/muntsa/MWE/data/verb-counts/verb_counts.aprox.min_freq_50.csv
INFO: MAIN(compute_average.py)  --	:     fields: 2,4,6,8,10,12,14,16,18,20,22,24
INFO: MAIN(compute_average.py)  --	:     label: 1
INFO: MAIN(compute_average.py)  --	:        will compute average for lemmas in: /home/muntsa/MWE/data/utils/verbs_in_DM_and_BNC
WARNING: MAIN(compute_average.py)  --	: There was no instance for the frequency range bigger. Skipping it

filter triples min 2
file min_freq_50/eval.lin.filter_triples_min2.min_freq_50.average_wordnet_path.csv already exist, computing means directly
INFO: MAIN(compute_average.py)  --	: ======== compute_average_per_verbs.py ========
INFO: MAIN(compute_average.py)  --	:     file: min_freq_50/eval.lin.filter_triples_min2.min_freq_50.average_wordnet_path.csv
INFO: MAIN(compute_average.py)  --	:     verb freq: /home/muntsa/MWE/data/verb-counts/verb_counts.aprox.min_freq_50.csv
INFO: MAIN(compute_average.py)  --	:     fields: 2,4,6,8,10,12,14,16,18,20,22,24
INFO: MAIN(compute_average.py)  --	:     label: 2
INFO: MAIN(compute_average.py)  --	:        will compute average for lemmas in: /home/muntsa/MWE/data/utils/verbs_in_DM_and_BNC
INFO: MAIN(compute_average.py)  --	: ======== compute_average_per_verbs.py ========
INFO: MAIN(compute_average.py)  --	:     file: min_freq_50/eval.lin.filter_triples_min2.min_freq_50.average_wordnet_path.csv
INFO: MAIN(compute_average.py)  --	:     verb freq: /home/muntsa/MWE/data/verb-counts/verb_counts.aprox.min_freq_50.csv
INFO: MAIN(compute_average.py)  --	:     fields: 2,4,6,8,10,12,14,16,18,20,22,24
INFO: MAIN(compute_average.py)  --	:     label: 2
INFO: MAIN(compute_average.py)  --	:        will compute average for lemmas in: /home/muntsa/MWE/data/utils/verbs_in_DM_and_BNC
WARNING: MAIN(compute_average.py)  --	: There was no instance for the frequency range bigger. Skipping it

filter triples min 3
file min_freq_50/eval.lin.filter_triples_min3.min_freq_50.average_wordnet_path.csv already exist, computing means directly
INFO: MAIN(compute_average.py)  --	: ======== compute_average_per_verbs.py ========
INFO: MAIN(compute_average.py)  --	:     file: min_freq_50/eval.lin.filter_triples_min3.min_freq_50.average_wordnet_path.csv
INFO: MAIN(compute_average.py)  --	:     verb freq: /home/muntsa/MWE/data/verb-counts/verb_counts.aprox.min_freq_50.csv
INFO: MAIN(compute_average.py)  --	:     fields: 2,4,6,8,10,12,14,16,18,20,22,24
INFO: MAIN(compute_average.py)  --	:     label: 3
INFO: MAIN(compute_average.py)  --	:        will compute average for lemmas in: /home/muntsa/MWE/data/utils/verbs_in_DM_and_BNC
INFO: MAIN(compute_average.py)  --	: ======== compute_average_per_verbs.py ========
INFO: MAIN(compute_average.py)  --	:     file: min_freq_50/eval.lin.filter_triples_min3.min_freq_50.average_wordnet_path.csv
INFO: MAIN(compute_average.py)  --	:     verb freq: /home/muntsa/MWE/data/verb-counts/verb_counts.aprox.min_freq_50.csv
INFO: MAIN(compute_average.py)  --	:     fields: 2,4,6,8,10,12,14,16,18,20,22,24
INFO: MAIN(compute_average.py)  --	:     label: 3
INFO: MAIN(compute_average.py)  --	:        will compute average for lemmas in: /home/muntsa/MWE/data/utils/verbs_in_DM_and_BNC
WARNING: MAIN(compute_average.py)  --	: There was no instance for the frequency range bigger. Skipping it

filter triples min 4
file min_freq_50/eval.lin.filter_triples_min4.min_freq_50.average_wordnet_path.csv already exist, computing means directly
INFO: MAIN(compute_average.py)  --	: ======== compute_average_per_verbs.py ========
INFO: MAIN(compute_average.py)  --	:     file: min_freq_50/eval.lin.filter_triples_min4.min_freq_50.average_wordnet_path.csv
INFO: MAIN(compute_average.py)  --	:     verb freq: /home/muntsa/MWE/data/verb-counts/verb_counts.aprox.min_freq_50.csv
INFO: MAIN(compute_average.py)  --	:     fields: 2,4,6,8,10,12,14,16,18,20,22,24
INFO: MAIN(compute_average.py)  --	:     label: 4
INFO: MAIN(compute_average.py)  --	:        will compute average for lemmas in: /home/muntsa/MWE/data/utils/verbs_in_DM_and_BNC
INFO: MAIN(compute_average.py)  --	: ======== compute_average_per_verbs.py ========
INFO: MAIN(compute_average.py)  --	:     file: min_freq_50/eval.lin.filter_triples_min4.min_freq_50.average_wordnet_path.csv
INFO: MAIN(compute_average.py)  --	:     verb freq: /home/muntsa/MWE/data/verb-counts/verb_counts.aprox.min_freq_50.csv
INFO: MAIN(compute_average.py)  --	:     fields: 2,4,6,8,10,12,14,16,18,20,22,24
INFO: MAIN(compute_average.py)  --	:     label: 4
INFO: MAIN(compute_average.py)  --	:        will compute average for lemmas in: /home/muntsa/MWE/data/utils/verbs_in_DM_and_BNC
WARNING: MAIN(compute_average.py)  --	: There was no instance for the frequency range bigger. Skipping it

filter triples min 5
file min_freq_50/eval.lin.filter_triples_min5.min_freq_50.average_wordnet_path.csv already exist, computing means directly
INFO: MAIN(compute_average.py)  --	: ======== compute_average_per_verbs.py ========
INFO: MAIN(compute_average.py)  --	:     file: min_freq_50/eval.lin.filter_triples_min5.min_freq_50.average_wordnet_path.csv
INFO: MAIN(compute_average.py)  --	:     verb freq: /home/muntsa/MWE/data/verb-counts/verb_counts.aprox.min_freq_50.csv
INFO: MAIN(compute_average.py)  --	:     fields: 2,4,6,8,10,12,14,16,18,20,22,24
INFO: MAIN(compute_average.py)  --	:     label: 5
INFO: MAIN(compute_average.py)  --	:        will compute average for lemmas in: /home/muntsa/MWE/data/utils/verbs_in_DM_and_BNC
INFO: MAIN(compute_average.py)  --	: ======== compute_average_per_verbs.py ========
INFO: MAIN(compute_average.py)  --	:     file: min_freq_50/eval.lin.filter_triples_min5.min_freq_50.average_wordnet_path.csv
INFO: MAIN(compute_average.py)  --	:     verb freq: /home/muntsa/MWE/data/verb-counts/verb_counts.aprox.min_freq_50.csv
INFO: MAIN(compute_average.py)  --	:     fields: 2,4,6,8,10,12,14,16,18,20,22,24
INFO: MAIN(compute_average.py)  --	:     label: 5
INFO: MAIN(compute_average.py)  --	:        will compute average for lemmas in: /home/muntsa/MWE/data/utils/verbs_in_DM_and_BNC
WARNING: MAIN(compute_average.py)  --	: There was no instance for the frequency range bigger. Skipping it

filter triples min 6
file min_freq_50/eval.lin.filter_triples_min6.min_freq_50.average_wordnet_path.csv already exist, computing means directly
INFO: MAIN(compute_average.py)  --	: ======== compute_average_per_verbs.py ========
INFO: MAIN(compute_average.py)  --	:     file: min_freq_50/eval.lin.filter_triples_min6.min_freq_50.average_wordnet_path.csv
INFO: MAIN(compute_average.py)  --	:     verb freq: /home/muntsa/MWE/data/verb-counts/verb_counts.aprox.min_freq_50.csv
INFO: MAIN(compute_average.py)  --	:     fields: 2,4,6,8,10,12,14,16,18,20,22,24
INFO: MAIN(compute_average.py)  --	:     label: 6
INFO: MAIN(compute_average.py)  --	:        will compute average for lemmas in: /home/muntsa/MWE/data/utils/verbs_in_DM_and_BNC
INFO: MAIN(compute_average.py)  --	: ======== compute_average_per_verbs.py ========
INFO: MAIN(compute_average.py)  --	:     file: min_freq_50/eval.lin.filter_triples_min6.min_freq_50.average_wordnet_path.csv
INFO: MAIN(compute_average.py)  --	:     verb freq: /home/muntsa/MWE/data/verb-counts/verb_counts.aprox.min_freq_50.csv
INFO: MAIN(compute_average.py)  --	:     fields: 2,4,6,8,10,12,14,16,18,20,22,24
INFO: MAIN(compute_average.py)  --	:     label: 6
INFO: MAIN(compute_average.py)  --	:        will compute average for lemmas in: /home/muntsa/MWE/data/utils/verbs_in_DM_and_BNC
WARNING: MAIN(compute_average.py)  --	: There was no instance for the frequency range bigger. Skipping it

filter triples min 7
file min_freq_50/eval.lin.filter_triples_min7.min_freq_50.average_wordnet_path.csv already exist, computing means directly
INFO: MAIN(compute_average.py)  --	: ======== compute_average_per_verbs.py ========
INFO: MAIN(compute_average.py)  --	:     file: min_freq_50/eval.lin.filter_triples_min7.min_freq_50.average_wordnet_path.csv
INFO: MAIN(compute_average.py)  --	:     verb freq: /home/muntsa/MWE/data/verb-counts/verb_counts.aprox.min_freq_50.csv
INFO: MAIN(compute_average.py)  --	:     fields: 2,4,6,8,10,12,14,16,18,20,22,24
INFO: MAIN(compute_average.py)  --	:     label: 7
INFO: MAIN(compute_average.py)  --	:        will compute average for lemmas in: /home/muntsa/MWE/data/utils/verbs_in_DM_and_BNC
INFO: MAIN(compute_average.py)  --	: ======== compute_average_per_verbs.py ========
INFO: MAIN(compute_average.py)  --	:     file: min_freq_50/eval.lin.filter_triples_min7.min_freq_50.average_wordnet_path.csv
INFO: MAIN(compute_average.py)  --	:     verb freq: /home/muntsa/MWE/data/verb-counts/verb_counts.aprox.min_freq_50.csv
INFO: MAIN(compute_average.py)  --	:     fields: 2,4,6,8,10,12,14,16,18,20,22,24
INFO: MAIN(compute_average.py)  --	:     label: 7
INFO: MAIN(compute_average.py)  --	:        will compute average for lemmas in: /home/muntsa/MWE/data/utils/verbs_in_DM_and_BNC
WARNING: MAIN(compute_average.py)  --	: There was no instance for the frequency range bigger. Skipping it

filter triples min 8
file min_freq_50/eval.lin.filter_triples_min8.min_freq_50.average_wordnet_path.csv already exist, computing means directly
INFO: MAIN(compute_average.py)  --	: ======== compute_average_per_verbs.py ========
INFO: MAIN(compute_average.py)  --	:     file: min_freq_50/eval.lin.filter_triples_min8.min_freq_50.average_wordnet_path.csv
INFO: MAIN(compute_average.py)  --	:     verb freq: /home/muntsa/MWE/data/verb-counts/verb_counts.aprox.min_freq_50.csv
INFO: MAIN(compute_average.py)  --	:     fields: 2,4,6,8,10,12,14,16,18,20,22,24
INFO: MAIN(compute_average.py)  --	:     label: 8
INFO: MAIN(compute_average.py)  --	:        will compute average for lemmas in: /home/muntsa/MWE/data/utils/verbs_in_DM_and_BNC
INFO: MAIN(compute_average.py)  --	: ======== compute_average_per_verbs.py ========
INFO: MAIN(compute_average.py)  --	:     file: min_freq_50/eval.lin.filter_triples_min8.min_freq_50.average_wordnet_path.csv
INFO: MAIN(compute_average.py)  --	:     verb freq: /home/muntsa/MWE/data/verb-counts/verb_counts.aprox.min_freq_50.csv
INFO: MAIN(compute_average.py)  --	:     fields: 2,4,6,8,10,12,14,16,18,20,22,24
INFO: MAIN(compute_average.py)  --	:     label: 8
INFO: MAIN(compute_average.py)  --	:        will compute average for lemmas in: /home/muntsa/MWE/data/utils/verbs_in_DM_and_BNC
WARNING: MAIN(compute_average.py)  --	: There was no instance for the frequency range bigger. Skipping it

filter triples min 9
file min_freq_50/eval.lin.filter_triples_min9.min_freq_50.average_wordnet_path.csv already exist, computing means directly
INFO: MAIN(compute_average.py)  --	: ======== compute_average_per_verbs.py ========
INFO: MAIN(compute_average.py)  --	:     file: min_freq_50/eval.lin.filter_triples_min9.min_freq_50.average_wordnet_path.csv
INFO: MAIN(compute_average.py)  --	:     verb freq: /home/muntsa/MWE/data/verb-counts/verb_counts.aprox.min_freq_50.csv
INFO: MAIN(compute_average.py)  --	:     fields: 2,4,6,8,10,12,14,16,18,20,22,24
INFO: MAIN(compute_average.py)  --	:     label: 9
INFO: MAIN(compute_average.py)  --	:        will compute average for lemmas in: /home/muntsa/MWE/data/utils/verbs_in_DM_and_BNC
INFO: MAIN(compute_average.py)  --	: ======== compute_average_per_verbs.py ========
INFO: MAIN(compute_average.py)  --	:     file: min_freq_50/eval.lin.filter_triples_min9.min_freq_50.average_wordnet_path.csv
INFO: MAIN(compute_average.py)  --	:     verb freq: /home/muntsa/MWE/data/verb-counts/verb_counts.aprox.min_freq_50.csv
INFO: MAIN(compute_average.py)  --	:     fields: 2,4,6,8,10,12,14,16,18,20,22,24
INFO: MAIN(compute_average.py)  --	:     label: 9
INFO: MAIN(compute_average.py)  --	:        will compute average for lemmas in: /home/muntsa/MWE/data/utils/verbs_in_DM_and_BNC
WARNING: MAIN(compute_average.py)  --	: There was no instance for the frequency range bigger. Skipping it

filter triples min 10
file min_freq_50/eval.lin.filter_triples_min10.min_freq_50.average_wordnet_path.csv already exist, computing means directly
INFO: MAIN(compute_average.py)  --	: ======== compute_average_per_verbs.py ========
INFO: MAIN(compute_average.py)  --	:     file: min_freq_50/eval.lin.filter_triples_min10.min_freq_50.average_wordnet_path.csv
INFO: MAIN(compute_average.py)  --	:     verb freq: /home/muntsa/MWE/data/verb-counts/verb_counts.aprox.min_freq_50.csv
INFO: MAIN(compute_average.py)  --	:     fields: 2,4,6,8,10,12,14,16,18,20,22,24
INFO: MAIN(compute_average.py)  --	:     label: 10
INFO: MAIN(compute_average.py)  --	:        will compute average for lemmas in: /home/muntsa/MWE/data/utils/verbs_in_DM_and_BNC
INFO: MAIN(compute_average.py)  --	: ======== compute_average_per_verbs.py ========
INFO: MAIN(compute_average.py)  --	:     file: min_freq_50/eval.lin.filter_triples_min10.min_freq_50.average_wordnet_path.csv
INFO: MAIN(compute_average.py)  --	:     verb freq: /home/muntsa/MWE/data/verb-counts/verb_counts.aprox.min_freq_50.csv
INFO: MAIN(compute_average.py)  --	:     fields: 2,4,6,8,10,12,14,16,18,20,22,24
INFO: MAIN(compute_average.py)  --	:     label: 10
INFO: MAIN(compute_average.py)  --	:        will compute average for lemmas in: /home/muntsa/MWE/data/utils/verbs_in_DM_and_BNC
WARNING: MAIN(compute_average.py)  --	: There was no instance for the frequency range bigger. Skipping it

filter triples min 20
file min_freq_50/eval.lin.filter_triples_min20.min_freq_50.average_wordnet_path.csv already exist, computing means directly
INFO: MAIN(compute_average.py)  --	: ======== compute_average_per_verbs.py ========
INFO: MAIN(compute_average.py)  --	:     file: min_freq_50/eval.lin.filter_triples_min20.min_freq_50.average_wordnet_path.csv
INFO: MAIN(compute_average.py)  --	:     verb freq: /home/muntsa/MWE/data/verb-counts/verb_counts.aprox.min_freq_50.csv
INFO: MAIN(compute_average.py)  --	:     fields: 2,4,6,8,10,12,14,16,18,20,22,24
INFO: MAIN(compute_average.py)  --	:     label: 20
INFO: MAIN(compute_average.py)  --	:        will compute average for lemmas in: /home/muntsa/MWE/data/utils/verbs_in_DM_and_BNC
INFO: MAIN(compute_average.py)  --	: ======== compute_average_per_verbs.py ========
INFO: MAIN(compute_average.py)  --	:     file: min_freq_50/eval.lin.filter_triples_min20.min_freq_50.average_wordnet_path.csv
INFO: MAIN(compute_average.py)  --	:     verb freq: /home/muntsa/MWE/data/verb-counts/verb_counts.aprox.min_freq_50.csv
INFO: MAIN(compute_average.py)  --	:     fields: 2,4,6,8,10,12,14,16,18,20,22,24
INFO: MAIN(compute_average.py)  --	:     label: 20
INFO: MAIN(compute_average.py)  --	:        will compute average for lemmas in: /home/muntsa/MWE/data/utils/verbs_in_DM_and_BNC
WARNING: MAIN(compute_average.py)  --	: There was no instance for the frequency range bigger. Skipping it

filter triples min 30
file min_freq_50/eval.lin.filter_triples_min30.min_freq_50.average_wordnet_path.csv already exist, computing means directly
INFO: MAIN(compute_average.py)  --	: ======== compute_average_per_verbs.py ========
INFO: MAIN(compute_average.py)  --	:     file: min_freq_50/eval.lin.filter_triples_min30.min_freq_50.average_wordnet_path.csv
INFO: MAIN(compute_average.py)  --	:     verb freq: /home/muntsa/MWE/data/verb-counts/verb_counts.aprox.min_freq_50.csv
INFO: MAIN(compute_average.py)  --	:     fields: 2,4,6,8,10,12,14,16,18,20,22,24
INFO: MAIN(compute_average.py)  --	:     label: 30
INFO: MAIN(compute_average.py)  --	:        will compute average for lemmas in: /home/muntsa/MWE/data/utils/verbs_in_DM_and_BNC
INFO: MAIN(compute_average.py)  --	: ======== compute_average_per_verbs.py ========
INFO: MAIN(compute_average.py)  --	:     file: min_freq_50/eval.lin.filter_triples_min30.min_freq_50.average_wordnet_path.csv
INFO: MAIN(compute_average.py)  --	:     verb freq: /home/muntsa/MWE/data/verb-counts/verb_counts.aprox.min_freq_50.csv
INFO: MAIN(compute_average.py)  --	:     fields: 2,4,6,8,10,12,14,16,18,20,22,24
INFO: MAIN(compute_average.py)  --	:     label: 30
INFO: MAIN(compute_average.py)  --	:        will compute average for lemmas in: /home/muntsa/MWE/data/utils/verbs_in_DM_and_BNC
WARNING: MAIN(compute_average.py)  --	: There was no instance for the frequency range bigger. Skipping it

filter triples min 50
file min_freq_50/eval.lin.filter_triples_min50.min_freq_50.average_wordnet_path.csv already exist, computing means directly
INFO: MAIN(compute_average.py)  --	: ======== compute_average_per_verbs.py ========
INFO: MAIN(compute_average.py)  --	:     file: min_freq_50/eval.lin.filter_triples_min50.min_freq_50.average_wordnet_path.csv
INFO: MAIN(compute_average.py)  --	:     verb freq: /home/muntsa/MWE/data/verb-counts/verb_counts.aprox.min_freq_50.csv
INFO: MAIN(compute_average.py)  --	:     fields: 2,4,6,8,10,12,14,16,18,20,22,24
INFO: MAIN(compute_average.py)  --	:     label: 50
INFO: MAIN(compute_average.py)  --	:        will compute average for lemmas in: /home/muntsa/MWE/data/utils/verbs_in_DM_and_BNC
INFO: MAIN(compute_average.py)  --	: ======== compute_average_per_verbs.py ========
INFO: MAIN(compute_average.py)  --	:     file: min_freq_50/eval.lin.filter_triples_min50.min_freq_50.average_wordnet_path.csv
INFO: MAIN(compute_average.py)  --	:     verb freq: /home/muntsa/MWE/data/verb-counts/verb_counts.aprox.min_freq_50.csv
INFO: MAIN(compute_average.py)  --	:     fields: 2,4,6,8,10,12,14,16,18,20,22,24
INFO: MAIN(compute_average.py)  --	:     label: 50
INFO: MAIN(compute_average.py)  --	:        will compute average for lemmas in: /home/muntsa/MWE/data/utils/verbs_in_DM_and_BNC
WARNING: MAIN(compute_average.py)  --	: There was no instance for the frequency range bigger. Skipping it
