##		k:	5						10						15						20						50						100					
##		wn_meas:	path			wup			path			wup			path			wup			path			wup			path			wup			path			wup		
## min triple counts	verb freq	verbs	mean	stdev	stdev/sqrt(N)	mean	stdev	stdev/sqrt(N)	mean	stdev	stdev/sqrt(N)	mean	stdev	stdev/sqrt(N)	mean	stdev	stdev/sqrt(N)	mean	stdev	stdev/sqrt(N)	mean	stdev	stdev/sqrt(N)	mean	stdev	stdev/sqrt(N)	mean	stdev	stdev/sqrt(N)	mean	stdev	stdev/sqrt(N)	mean	stdev	stdev/sqrt(N)	mean	stdev	stdev/sqrt(N)
1	bigger	1146	0.235911693988	0.160176817367	0.00473159268148	0.406711271456	0.227606151041	0.00672344235721	0.200500513158	0.117799830358	0.00347978455539	0.369206554155	0.191232271175	0.00564896487288	0.182838825337	0.103853693933	0.00306781834125	0.349042418362	0.180255470227	0.00532471226326	0.171383457838	0.0957265033147	0.00282774267808	0.33582877276	0.17327108149	0.00511839475006	0.1419748392	0.0781745315725	0.00230926077536	0.298298604039	0.155681077592	0.0045987893847	0.124618611181	0.0698300585199	0.00206276663048	0.273933891091	0.146423500352	0.00432532231601	
2	bigger	1146	0.233799874016	0.160517745787	0.00474166364209	0.400503096485	0.225421195458	0.00665889918537	0.19645249372	0.11654572184	0.00344273842859	0.361772822895	0.188655696202	0.00557285333886	0.178050727228	0.101932214548	0.00301105820611	0.33992958788	0.175892731585	0.00519583779459	0.166380894835	0.0934008784981	0.00275904416388	0.32543772079	0.16878189443	0.00498578501922	0.137845273667	0.0767595109963	0.00226746133701	0.289270494429	0.153149098306	0.00452399519877	0.121518574672	0.0692313710832	0.00204508151761	0.267466106301	0.145163696367	0.00428810794621	
3	bigger	1146	0.221793481872	0.157922642197	0.00466500477625	0.384772738182	0.228538672802	0.00675098887244	0.189819342234	0.117094688337	0.00345895479437	0.350609657782	0.193581021931	0.00571834652291	0.172124652544	0.100393882055	0.00296561615723	0.329894531639	0.176097661878	0.00520189139643	0.16073781591	0.0927012858935	0.00273837833157	0.316330796776	0.168114524211	0.00496607103002	0.134127733329	0.0764819617664	0.00225926258561	0.282564524158	0.152596298278	0.00450766559119	0.117934706279	0.0683994503182	0.00202050673664	0.260351111839	0.14382892768	0.00424867913337	
4	bigger	1146	0.210823553265	0.155487034395	0.00459305738559	0.371010285632	0.227202732907	0.00671152546234	0.180031089475	0.115424936667	0.00340963064799	0.336853443821	0.19067523388	0.00563251009726	0.164992828418	0.101409765727	0.00299562516744	0.318296224808	0.177408278638	0.00524060676592	0.155619980417	0.0933552028317	0.0027576949134	0.308218277056	0.170314914265	0.0050310701332	0.129914734408	0.0764030340875	0.00225693107701	0.275373754542	0.152945240269	0.00451797327116	0.115102271803	0.0684665335512	0.00202248836257	0.25494895501	0.143964110224	0.00425267239998	
5	bigger	1146	0.201380020019	0.155837721964	0.00460341662961	0.357890199031	0.230026297289	0.00679493301648	0.173504249895	0.117979716389	0.00348509835446	0.327217833762	0.194397163098	0.00574245517759	0.158702089876	0.100913353647	0.00298096124913	0.309869828495	0.177323237285	0.00523809466055	0.149393197819	0.0922955268693	0.00272639228727	0.298305844252	0.169596076622	0.00500983580611	0.125833746896	0.0761701198964	0.00225005083616	0.26824140267	0.153457631617	0.00453310921401	0.112763606711	0.0683456107306	0.00201891632547	0.25043768782	0.14380834781	0.00424807120793	
6	bigger	1146	0.192398940017	0.152908152201	0.00451687769672	0.3480362221	0.229443375728	0.00677771362458	0.166436576077	0.115150959842	0.00340153742477	0.317582655972	0.192997360897	0.00570110528714	0.15313423544	0.0991668398639	0.00292936956458	0.301242663115	0.175208364071	0.00517562170857	0.145432984761	0.0921836095952	0.00272308627231	0.291367008054	0.169034541265	0.0049932481586	0.123687366895	0.0768676594059	0.00227065602043	0.264630854882	0.154024029169	0.00454984048984	0.111910612229	0.0682711346185	0.00201671631531	0.248985263353	0.143728107218	0.00424570091614	
7	bigger	1146	0.188326504792	0.153118242989	0.00452308373858	0.341453859562	0.232548957659	0.0068694519234	0.161048212259	0.115700854956	0.00341778122171	0.309164392479	0.193942632696	0.00572902843606	0.148326279757	0.100964957435	0.0029824856152	0.294177348409	0.179583210882	0.00530485385022	0.140634157969	0.0927696074928	0.0027403965386	0.285328320184	0.171428512405	0.00506396561019	0.122984554334	0.0766462378291	0.00226411526922	0.263717340093	0.154079478619	0.00455147845604	0.112086715216	0.068269935375	0.00201668088988	0.250193810413	0.143786899247	0.00424743762147	
8	bigger	1145	0.186092488055	0.152995381754	0.00452142757125	0.338368788731	0.229135740624	0.00677158122906	0.162328588684	0.11597820214	0.00342746973673	0.311614945251	0.193751281167	0.00572587469367	0.149066988082	0.100485446096	0.00296961686869	0.295775829088	0.178996905432	0.005289842962	0.141601771288	0.0927366146575	0.00274061792958	0.286508091015	0.170513385679	0.00503913199496	0.122403750767	0.0772461195424	0.00228283187811	0.263229560377	0.154250255152	0.00455851247613	0.111901769055	0.0688320974926	0.00203417475628	0.250141365001	0.143802066447	0.00424974022473	
9	bigger	1144	0.181762116574	0.150173134489	0.0044399617984	0.332679205446	0.229305101194	0.00677954743998	0.159148259108	0.1150061589	0.00340022836862	0.306502285382	0.194603538977	0.00575357424501	0.147485323615	0.100690910399	0.00297698917411	0.293237442065	0.180213002408	0.00532810911211	0.139334485566	0.092874486506	0.00274589175711	0.283354865366	0.171264784498	0.00506354950352	0.121439808105	0.0763748964344	0.0022580711502	0.262360938113	0.15287313698	0.00451978904551	0.112370246949	0.0686561120137	0.00202986050471	0.251929963614	0.143405233922	0.00423986462338	
10	bigger	1141	0.174802013767	0.149914358995	0.00443813399222	0.324586476044	0.230596308469	0.00682667972539	0.155311933903	0.113919887819	0.00337253702654	0.302151150307	0.194976902301	0.00577218635761	0.144276772705	0.0991199415811	0.00293439257578	0.289328961179	0.178514655266	0.00528483038554	0.138341286555	0.092630800742	0.00274228505032	0.282431860155	0.170857430802	0.00505814237241	0.121284651215	0.0763712392228	0.00226092947397	0.262423928466	0.151948604032	0.00449835672278	0.113589200313	0.0684605774004	0.00202673858411	0.25501201211	0.142537088919	0.00421973387822	
20	bigger	1052	0.162380857683	0.138711847152	0.00427666945816	0.312676693627	0.218588894961	0.00673938434361	0.150321945941	0.109582453109	0.00337857176574	0.300760476375	0.18813981816	0.00580059908873	0.142136613623	0.096998770487	0.00299060020999	0.291149717586	0.1747046307	0.00538637451418	0.137207005822	0.0894897750697	0.0027590879634	0.286056184177	0.166406849439	0.0051305429582	0.128615754306	0.0751801086377	0.00231790204711	0.280833668808	0.15152706679	0.00467177960592	0.125093645865	0.0693244872246	0.00213736550484	0.280229567518	0.145176349712	0.0044759786104	
30	bigger	917	0.16842981446	0.145994221324	0.00482115393409	0.323786724802	0.22114841189	0.00730296395525	0.15489009675	0.112640216642	0.00371970766155	0.309529539689	0.186222104223	0.00614959566378	0.148598535424	0.100578202575	0.00332138486464	0.303645833773	0.174678393466	0.00576838875006	0.145199035832	0.094173054106	0.00310986822747	0.301343576053	0.167500423567	0.00553135130089	0.140093068599	0.0837600025893	0.00276599897134	0.302672960101	0.158032071303	0.00521867876253	0.138535316091	0.0803708049493	0.00265407780496	0.30464328557	0.155160376665	0.00512384705086	
50	bigger	679	0.172882670907	0.14127943155	0.00542180697167	0.329390240215	0.215309478035	0.00826281940883	0.164898628466	0.115256341482	0.0044231324328	0.327501917935	0.190120500365	0.00729615516588	0.161992540909	0.108539914687	0.00416537962887	0.327185630408	0.184261160145	0.00707129432587	0.159948896994	0.104771980901	0.00402077960148	0.328318134393	0.181325161123	0.00695862102454	0.157601785643	0.0983482181897	0.00377425821426	0.332626338288	0.174595700452	0.00670036802631	0.156502953027	0.0957900213465	0.00367608362984	0.333215319167	0.171917963735	0.00659760592259	
