##		k:	5						10						15						20						50						100					
##		wn_meas:	path			wup			path			wup			path			wup			path			wup			path			wup			path			wup		
## min triple counts	verb freq	verbs	mean	stdev	stdev/sqrt(N)	mean	stdev	stdev/sqrt(N)	mean	stdev	stdev/sqrt(N)	mean	stdev	stdev/sqrt(N)	mean	stdev	stdev/sqrt(N)	mean	stdev	stdev/sqrt(N)	mean	stdev	stdev/sqrt(N)	mean	stdev	stdev/sqrt(N)	mean	stdev	stdev/sqrt(N)	mean	stdev	stdev/sqrt(N)	mean	stdev	stdev/sqrt(N)	mean	stdev	stdev/sqrt(N)
2	bigger	1146	0.233397843915	0.159608687138	0.00471481022272	0.400435043082	0.224201250706	0.00662286224971	0.195778652339	0.115930750673	0.00342457229742	0.360994932955	0.188014305446	0.00555390677805	0.177634395289	0.101945064299	0.00301143778532	0.339965302835	0.176028170738	0.00519983864138	0.165976191796	0.0932523862299	0.00275465773056	0.325304861514	0.168747800887	0.00498477790244	0.137705941552	0.0768426638032	0.00226991765509	0.289304249149	0.153222908227	0.00452617552977	0.121503527958	0.0693858497426	0.00204964478779	0.267614114647	0.145390960369	0.00429482128155	
3	bigger	1146	0.221848815815	0.157276459936	0.0046459166753	0.385002008905	0.227675428995	0.00672548881477	0.189581760105	0.116862499624	0.00345209598399	0.350805077252	0.192939826958	0.00569940574553	0.171621383755	0.0998801185886	0.00295043968228	0.329566916312	0.175585291023	0.00518675605894	0.160603856646	0.092477778884	0.00273177597708	0.316594499016	0.167815023635	0.00495722384005	0.134191087514	0.0765892548093	0.00226243200167	0.283041556575	0.152679393299	0.00451012020231	0.118200662812	0.0683410844365	0.00201878261961	0.26125143053	0.143601514068	0.00424196137857	
4	bigger	1146	0.210747997155	0.155127426292	0.00458243463071	0.371668088659	0.226802195901	0.00669969367546	0.180339853089	0.115739366946	0.00341891885858	0.337253377606	0.190889426447	0.0056388373049	0.164997932227	0.1013464458	0.00299375470886	0.318655790966	0.177409138864	0.00524063217685	0.155840655127	0.0931596659186	0.00275191879022	0.308842795222	0.169853851539	0.00501745042806	0.13004465781	0.0763128302702	0.00225426647342	0.275977634618	0.152829577162	0.00451455660501	0.115618575428	0.0683049112026	0.00201771406917	0.256232910682	0.143537670858	0.00424007546232	
5	bigger	1146	0.201494358366	0.155348220105	0.00458895683792	0.358022859604	0.228967275882	0.00676364972579	0.173428445101	0.117649668138	0.00347534879199	0.327383820793	0.194251776595	0.00573816048795	0.159033010652	0.100616074039	0.00297217966612	0.310814283057	0.177170883303	0.00523359415294	0.149607995384	0.0918983418473	0.00271465951736	0.299244371255	0.168940386127	0.00499046683374	0.126591344253	0.0759976899489	0.00224495728835	0.270138504144	0.153073784451	0.00452177044182	0.11344202503	0.0682538642713	0.00201620615254	0.252030418586	0.143496335317	0.00423885441829	
6	bigger	1146	0.19335565007	0.153065727538	0.00452153244215	0.3497554315	0.228857066686	0.00676039416713	0.166737164571	0.114697632935	0.00338814623426	0.318157854368	0.19189677436	0.00566859417042	0.153208094262	0.0987072903471	0.00291579455937	0.301787190716	0.174539505293	0.00515586374764	0.145774062265	0.0919551695873	0.00271633819798	0.292282491661	0.168398015795	0.00497444531744	0.124182330628	0.0766618449471	0.00226457630051	0.26580292181	0.153693502288	0.00454007678872	0.112552904927	0.0681171817372	0.00201216857651	0.250535760508	0.143314051448	0.00423346978752	
7	bigger	1146	0.187313325127	0.152732126667	0.00451167793595	0.340700131521	0.231721885643	0.00684502037355	0.161213209904	0.114547520146	0.00338371193107	0.309965136406	0.192160845898	0.00567639479337	0.148497381198	0.100473624994	0.00296797174847	0.294753386282	0.178720051888	0.00527935629793	0.141526998888	0.0924771564297	0.00273175758989	0.287391969006	0.170866488756	0.00504736353862	0.123851600707	0.0764894595886	0.00225948406985	0.265861856857	0.153819625677	0.00454380244961	0.112553104242	0.0681564377263	0.00201332819095	0.251274935187	0.143632499428	0.0042428766802	
8	bigger	1145	0.186156244774	0.152459223179	0.00450558263441	0.339238698566	0.228259942376	0.00674569902073	0.162281593467	0.115388151471	0.00341003214264	0.312397160294	0.193110764997	0.00570694570747	0.149658125071	0.100164012709	0.00296011764224	0.297328009722	0.178474025153	0.00527439043473	0.14205623325	0.0923609581716	0.00272951626381	0.287859455854	0.169702068532	0.00501515537765	0.122871802221	0.0770446987239	0.00227687934783	0.264383287158	0.153882167312	0.00454763448434	0.112222333572	0.0687465143568	0.00203164554301	0.250907488975	0.143540558284	0.00424201195081	
9	bigger	1113	0.180725379742	0.14990791659	0.00449341971281	0.33078811714	0.229362377062	0.00687503001784	0.158590467509	0.114853044033	0.00344266629725	0.306019435004	0.194417483945	0.00582757318458	0.146909476418	0.100296422722	0.00300633837917	0.292683827837	0.179484227435	0.00537995580247	0.139322628928	0.0929086969881	0.00278489475429	0.283951065565	0.171656671308	0.00514532846722	0.121412173454	0.0765212186185	0.00229368775186	0.26254028973	0.153193496233	0.00459190342648	0.112425293341	0.0688291955454	0.00206312295652	0.252332180394	0.143747315504	0.00430875857555	
10	bigger	1141	0.175311018347	0.149706188405	0.00443197121383	0.325610700729	0.229977977929	0.00680837438224	0.155004066194	0.113385897353	0.00335672852591	0.301774507388	0.193572106004	0.00573059811856	0.144200829237	0.0986453803305	0.00292034344512	0.289310029783	0.177399949616	0.00525183012413	0.138770244344	0.0924587992242	0.00273719303787	0.283315003257	0.170338820966	0.00504278920706	0.121591914745	0.076346832386	0.00226020692269	0.263016194238	0.151888523666	0.00449657807585	0.113842984645	0.0685326246329	0.00202887150369	0.255593558958	0.142612447493	0.00422196482828	
20	bigger	1052	0.162449057333	0.138581673426	0.00427265603024	0.312831984049	0.217641815381	0.00671018462926	0.150523036833	0.109562219571	0.00337794793904	0.301235204963	0.187815011955	0.00579058488443	0.142132869655	0.096793637398	0.00298427568591	0.291167315538	0.174227087245	0.00537165121871	0.137363137049	0.0893252817246	0.0027540164163	0.286514216786	0.1661603903	0.00512294429742	0.128719744539	0.0752175592578	0.00231905669919	0.281150543198	0.151595042593	0.00467387538972	0.125208655106	0.0693726672094	0.00213885095741	0.280502609482	0.145169519351	0.00447576802134	
30	bigger	917	0.169034702726	0.146035303105	0.00482251057402	0.324772670881	0.220747027629	0.00728970907918	0.155237290451	0.112576199825	0.00371759364001	0.309972343228	0.185842253846	0.00613705189921	0.149242196359	0.100622490883	0.00332284739341	0.304751911502	0.174600608776	0.00576582007331	0.145502282053	0.0941906999929	0.00311045094599	0.301783952877	0.167391328974	0.00552774868005	0.140362309197	0.0838290759933	0.0027682799761	0.30320432115	0.158055957005	0.00521946753792	0.138756492318	0.0803984966934	0.00265499226691	0.305070082548	0.155133576406	0.00512296202835	
50	bigger	679	0.172993350606	0.141450316786	0.00542836494516	0.329536910567	0.215591548012	0.00827364426104	0.164848280148	0.11525979662	0.00442326502882	0.327309394954	0.189973996895	0.00729053287871	0.162044700948	0.10868703553	0.00417102560864	0.327188878748	0.184283519492	0.00707215239887	0.159999011542	0.104889452411	0.0040252877443	0.328355875339	0.181385380013	0.00696093201342	0.15765705483	0.0984909950074	0.00377973748563	0.33268406661	0.174702123927	0.00670445218447	0.156539299199	0.0959300008446	0.00368145554994	0.333225534976	0.171984356292	0.00660015383507	
