nohup: ignorando entrada

list of k to be studied:  5,10,15,20,50,100
   fields used to compute mean:  2,4,6,8,10,12,14,16,18,20,22,24
============================

min frequency: 50
Fri Oct 18 08:24:24 BRT 2013

..... cosine

keep 10 relevant triples
file min_freq_50/eval.cosine.max_triples_10.sorting_by_lmi.average_wordnet_path.csv already exist, computing means directly
INFO: MAIN(compute_average.py)  --	: ======== compute_average_per_verbs.py ========
INFO: MAIN(compute_average.py)  --	:     file: min_freq_50/eval.cosine.max_triples_10.sorting_by_lmi.average_wordnet_path.csv
INFO: MAIN(compute_average.py)  --	:     verb freq: /home/muntsa/MWE/data/verb-counts/verb_counts.aprox.min_freq_50.csv
INFO: MAIN(compute_average.py)  --	:     fields: 2,4,6,8,10,12,14,16,18,20,22,24
INFO: MAIN(compute_average.py)  --	: ======== compute_average_per_verbs.py ========
INFO: MAIN(compute_average.py)  --	:     file: min_freq_50/eval.cosine.max_triples_10.sorting_by_lmi.average_wordnet_path.csv
INFO: MAIN(compute_average.py)  --	:     verb freq: /home/muntsa/MWE/data/verb-counts/verb_counts.aprox.min_freq_50.csv
INFO: MAIN(compute_average.py)  --	:     fields: 2,4,6,8,10,12,14,16,18,20,22,24
WARNING: MAIN(compute_average.py)  --	: There was no instance for the frequency range bigger. Skipping it

keep 20 relevant triples
file min_freq_50/eval.cosine.max_triples_20.sorting_by_lmi.average_wordnet_path.csv not found, let's create it
INFO: MAIN(compare_k_first_in_wordnet.py)  --	: ======== compare_k_first_in_wordnet.py ========
INFO: MAIN(compare_k_first_in_wordnet.py)  --	:  input file: /home/muntsa/MWE/data/keep_only_relevant_triples/min_freq_50/shelves/thesaurus_cosine.max_triples_20.sorting_by_lmi.shelf
Traceback (most recent call last):
  File "/home/muntsa/RECERCA/Software/MWE/compare_k_first_in_wordnet.py", line 117, in <module>
    with closing(shelve.open(args[0], 'r')) as thes: 
  File "/usr/lib/python2.7/shelve.py", line 239, in open
    return DbfilenameShelf(filename, flag, protocol, writeback)
  File "/usr/lib/python2.7/shelve.py", line 223, in __init__
    Shelf.__init__(self, anydbm.open(filename, flag), protocol, writeback)
  File "/usr/lib/python2.7/anydbm.py", line 79, in open
    raise error, "need 'c' or 'n' flag to open new db"
anydbm.error: need 'c' or 'n' flag to open new db
INFO: MAIN(compute_average.py)  --	: ======== compute_average_per_verbs.py ========
INFO: MAIN(compute_average.py)  --	:     file: min_freq_50/eval.cosine.max_triples_20.sorting_by_lmi.average_wordnet_path.csv
INFO: MAIN(compute_average.py)  --	:     verb freq: /home/muntsa/MWE/data/verb-counts/verb_counts.aprox.min_freq_50.csv
INFO: MAIN(compute_average.py)  --	:     fields: 2,4,6,8,10,12,14,16,18,20,22,24
WARNING: MAIN(compute_average.py)  --	: There was no instance for the frequency range 150. Skipping it
WARNING: MAIN(compute_average.py)  --	: There was no instance for the frequency range 500. Skipping it
WARNING: MAIN(compute_average.py)  --	: There was no instance for the frequency range bigger. Skipping it
INFO: MAIN(compute_average.py)  --	: ======== compute_average_per_verbs.py ========
INFO: MAIN(compute_average.py)  --	:     file: min_freq_50/eval.cosine.max_triples_20.sorting_by_lmi.average_wordnet_path.csv
INFO: MAIN(compute_average.py)  --	:     verb freq: /home/muntsa/MWE/data/verb-counts/verb_counts.aprox.min_freq_50.csv
INFO: MAIN(compute_average.py)  --	:     fields: 2,4,6,8,10,12,14,16,18,20,22,24
WARNING: MAIN(compute_average.py)  --	: There was no instance for the frequency range 1000000. Skipping it
WARNING: MAIN(compute_average.py)  --	: There was no instance for the frequency range bigger. Skipping it

keep 30 relevant triples
file min_freq_50/eval.cosine.max_triples_30.sorting_by_lmi.average_wordnet_path.csv not found, let's create it
INFO: MAIN(compare_k_first_in_wordnet.py)  --	: ======== compare_k_first_in_wordnet.py ========
INFO: MAIN(compare_k_first_in_wordnet.py)  --	:  input file: /home/muntsa/MWE/data/keep_only_relevant_triples/min_freq_50/shelves/thesaurus_cosine.max_triples_30.sorting_by_lmi.shelf
Traceback (most recent call last):
  File "/home/muntsa/RECERCA/Software/MWE/compare_k_first_in_wordnet.py", line 117, in <module>
    with closing(shelve.open(args[0], 'r')) as thes: 
  File "/usr/lib/python2.7/shelve.py", line 239, in open
    return DbfilenameShelf(filename, flag, protocol, writeback)
  File "/usr/lib/python2.7/shelve.py", line 223, in __init__
    Shelf.__init__(self, anydbm.open(filename, flag), protocol, writeback)
  File "/usr/lib/python2.7/anydbm.py", line 79, in open
    raise error, "need 'c' or 'n' flag to open new db"
anydbm.error: need 'c' or 'n' flag to open new db
INFO: MAIN(compute_average.py)  --	: ======== compute_average_per_verbs.py ========
INFO: MAIN(compute_average.py)  --	:     file: min_freq_50/eval.cosine.max_triples_30.sorting_by_lmi.average_wordnet_path.csv
INFO: MAIN(compute_average.py)  --	:     verb freq: /home/muntsa/MWE/data/verb-counts/verb_counts.aprox.min_freq_50.csv
INFO: MAIN(compute_average.py)  --	:     fields: 2,4,6,8,10,12,14,16,18,20,22,24
WARNING: MAIN(compute_average.py)  --	: There was no instance for the frequency range 150. Skipping it
WARNING: MAIN(compute_average.py)  --	: There was no instance for the frequency range 500. Skipping it
WARNING: MAIN(compute_average.py)  --	: There was no instance for the frequency range bigger. Skipping it
INFO: MAIN(compute_average.py)  --	: ======== compute_average_per_verbs.py ========
INFO: MAIN(compute_average.py)  --	:     file: min_freq_50/eval.cosine.max_triples_30.sorting_by_lmi.average_wordnet_path.csv
INFO: MAIN(compute_average.py)  --	:     verb freq: /home/muntsa/MWE/data/verb-counts/verb_counts.aprox.min_freq_50.csv
INFO: MAIN(compute_average.py)  --	:     fields: 2,4,6,8,10,12,14,16,18,20,22,24
WARNING: MAIN(compute_average.py)  --	: There was no instance for the frequency range 1000000. Skipping it
WARNING: MAIN(compute_average.py)  --	: There was no instance for the frequency range bigger. Skipping it

keep 40 relevant triples
file min_freq_50/eval.cosine.max_triples_40.sorting_by_lmi.average_wordnet_path.csv not found, let's create it
INFO: MAIN(compare_k_first_in_wordnet.py)  --	: ======== compare_k_first_in_wordnet.py ========
INFO: MAIN(compare_k_first_in_wordnet.py)  --	:  input file: /home/muntsa/MWE/data/keep_only_relevant_triples/min_freq_50/shelves/thesaurus_cosine.max_triples_40.sorting_by_lmi.shelf
Traceback (most recent call last):
  File "/home/muntsa/RECERCA/Software/MWE/compare_k_first_in_wordnet.py", line 117, in <module>
    with closing(shelve.open(args[0], 'r')) as thes: 
  File "/usr/lib/python2.7/shelve.py", line 239, in open
    return DbfilenameShelf(filename, flag, protocol, writeback)
  File "/usr/lib/python2.7/shelve.py", line 223, in __init__
    Shelf.__init__(self, anydbm.open(filename, flag), protocol, writeback)
  File "/usr/lib/python2.7/anydbm.py", line 79, in open
    raise error, "need 'c' or 'n' flag to open new db"
anydbm.error: need 'c' or 'n' flag to open new db
INFO: MAIN(compute_average.py)  --	: ======== compute_average_per_verbs.py ========
INFO: MAIN(compute_average.py)  --	:     file: min_freq_50/eval.cosine.max_triples_40.sorting_by_lmi.average_wordnet_path.csv
INFO: MAIN(compute_average.py)  --	:     verb freq: /home/muntsa/MWE/data/verb-counts/verb_counts.aprox.min_freq_50.csv
INFO: MAIN(compute_average.py)  --	:     fields: 2,4,6,8,10,12,14,16,18,20,22,24
WARNING: MAIN(compute_average.py)  --	: There was no instance for the frequency range 150. Skipping it
WARNING: MAIN(compute_average.py)  --	: There was no instance for the frequency range 500. Skipping it
WARNING: MAIN(compute_average.py)  --	: There was no instance for the frequency range bigger. Skipping it
INFO: MAIN(compute_average.py)  --	: ======== compute_average_per_verbs.py ========
INFO: MAIN(compute_average.py)  --	:     file: min_freq_50/eval.cosine.max_triples_40.sorting_by_lmi.average_wordnet_path.csv
INFO: MAIN(compute_average.py)  --	:     verb freq: /home/muntsa/MWE/data/verb-counts/verb_counts.aprox.min_freq_50.csv
INFO: MAIN(compute_average.py)  --	:     fields: 2,4,6,8,10,12,14,16,18,20,22,24
WARNING: MAIN(compute_average.py)  --	: There was no instance for the frequency range 1000000. Skipping it
WARNING: MAIN(compute_average.py)  --	: There was no instance for the frequency range bigger. Skipping it

keep 50 relevant triples
file min_freq_50/eval.cosine.max_triples_50.sorting_by_lmi.average_wordnet_path.csv already exist, computing means directly
INFO: MAIN(compute_average.py)  --	: ======== compute_average_per_verbs.py ========
INFO: MAIN(compute_average.py)  --	:     file: min_freq_50/eval.cosine.max_triples_50.sorting_by_lmi.average_wordnet_path.csv
INFO: MAIN(compute_average.py)  --	:     verb freq: /home/muntsa/MWE/data/verb-counts/verb_counts.aprox.min_freq_50.csv
INFO: MAIN(compute_average.py)  --	:     fields: 2,4,6,8,10,12,14,16,18,20,22,24
Traceback (most recent call last):
  File "/home/muntsa/RECERCA/Software/MWE/compute_average_per_freq_select_fields.py", line 132, in <module>
    new_a=numpy.append(new_a,float(linep[field_list[i]]))
IndexError: list index out of range
INFO: MAIN(compute_average.py)  --	: ======== compute_average_per_verbs.py ========
INFO: MAIN(compute_average.py)  --	:     file: min_freq_50/eval.cosine.max_triples_50.sorting_by_lmi.average_wordnet_path.csv
INFO: MAIN(compute_average.py)  --	:     verb freq: /home/muntsa/MWE/data/verb-counts/verb_counts.aprox.min_freq_50.csv
INFO: MAIN(compute_average.py)  --	:     fields: 2,4,6,8,10,12,14,16,18,20,22,24
Traceback (most recent call last):
  File "/home/muntsa/RECERCA/Software/MWE/compute_average_per_freq_select_fields.py", line 132, in <module>
    new_a=numpy.append(new_a,float(linep[field_list[i]]))
IndexError: list index out of range

keep 100 relevant triples
file min_freq_50/eval.cosine.max_triples_100.sorting_by_lmi.average_wordnet_path.csv not found, let's create it
INFO: MAIN(compare_k_first_in_wordnet.py)  --	: ======== compare_k_first_in_wordnet.py ========
INFO: MAIN(compare_k_first_in_wordnet.py)  --	:  input file: /home/muntsa/MWE/data/keep_only_relevant_triples/min_freq_50/shelves/thesaurus_cosine.max_triples_100.sorting_by_lmi.shelf
Traceback (most recent call last):
  File "/home/muntsa/RECERCA/Software/MWE/compare_k_first_in_wordnet.py", line 117, in <module>
    with closing(shelve.open(args[0], 'r')) as thes: 
  File "/usr/lib/python2.7/shelve.py", line 239, in open
    return DbfilenameShelf(filename, flag, protocol, writeback)
  File "/usr/lib/python2.7/shelve.py", line 223, in __init__
    Shelf.__init__(self, anydbm.open(filename, flag), protocol, writeback)
  File "/usr/lib/python2.7/anydbm.py", line 79, in open
    raise error, "need 'c' or 'n' flag to open new db"
anydbm.error: need 'c' or 'n' flag to open new db
INFO: MAIN(compute_average.py)  --	: ======== compute_average_per_verbs.py ========
INFO: MAIN(compute_average.py)  --	:     file: min_freq_50/eval.cosine.max_triples_100.sorting_by_lmi.average_wordnet_path.csv
INFO: MAIN(compute_average.py)  --	:     verb freq: /home/muntsa/MWE/data/verb-counts/verb_counts.aprox.min_freq_50.csv
INFO: MAIN(compute_average.py)  --	:     fields: 2,4,6,8,10,12,14,16,18,20,22,24
WARNING: MAIN(compute_average.py)  --	: There was no instance for the frequency range 150. Skipping it
WARNING: MAIN(compute_average.py)  --	: There was no instance for the frequency range 500. Skipping it
WARNING: MAIN(compute_average.py)  --	: There was no instance for the frequency range bigger. Skipping it
INFO: MAIN(compute_average.py)  --	: ======== compute_average_per_verbs.py ========
INFO: MAIN(compute_average.py)  --	:     file: min_freq_50/eval.cosine.max_triples_100.sorting_by_lmi.average_wordnet_path.csv
INFO: MAIN(compute_average.py)  --	:     verb freq: /home/muntsa/MWE/data/verb-counts/verb_counts.aprox.min_freq_50.csv
INFO: MAIN(compute_average.py)  --	:     fields: 2,4,6,8,10,12,14,16,18,20,22,24
WARNING: MAIN(compute_average.py)  --	: There was no instance for the frequency range 1000000. Skipping it
WARNING: MAIN(compute_average.py)  --	: There was no instance for the frequency range bigger. Skipping it

keep 200 relevant triples
file min_freq_50/eval.cosine.max_triples_200.sorting_by_lmi.average_wordnet_path.csv not found, let's create it
INFO: MAIN(compare_k_first_in_wordnet.py)  --	: ======== compare_k_first_in_wordnet.py ========
INFO: MAIN(compare_k_first_in_wordnet.py)  --	:  input file: /home/muntsa/MWE/data/keep_only_relevant_triples/min_freq_50/shelves/thesaurus_cosine.max_triples_200.sorting_by_lmi.shelf
Traceback (most recent call last):
  File "/home/muntsa/RECERCA/Software/MWE/compare_k_first_in_wordnet.py", line 117, in <module>
    with closing(shelve.open(args[0], 'r')) as thes: 
  File "/usr/lib/python2.7/shelve.py", line 239, in open
    return DbfilenameShelf(filename, flag, protocol, writeback)
  File "/usr/lib/python2.7/shelve.py", line 223, in __init__
    Shelf.__init__(self, anydbm.open(filename, flag), protocol, writeback)
  File "/usr/lib/python2.7/anydbm.py", line 79, in open
    raise error, "need 'c' or 'n' flag to open new db"
anydbm.error: need 'c' or 'n' flag to open new db
INFO: MAIN(compute_average.py)  --	: ======== compute_average_per_verbs.py ========
INFO: MAIN(compute_average.py)  --	:     file: min_freq_50/eval.cosine.max_triples_200.sorting_by_lmi.average_wordnet_path.csv
INFO: MAIN(compute_average.py)  --	:     verb freq: /home/muntsa/MWE/data/verb-counts/verb_counts.aprox.min_freq_50.csv
INFO: MAIN(compute_average.py)  --	:     fields: 2,4,6,8,10,12,14,16,18,20,22,24
WARNING: MAIN(compute_average.py)  --	: There was no instance for the frequency range 150. Skipping it
WARNING: MAIN(compute_average.py)  --	: There was no instance for the frequency range 500. Skipping it
WARNING: MAIN(compute_average.py)  --	: There was no instance for the frequency range bigger. Skipping it
INFO: MAIN(compute_average.py)  --	: ======== compute_average_per_verbs.py ========
INFO: MAIN(compute_average.py)  --	:     file: min_freq_50/eval.cosine.max_triples_200.sorting_by_lmi.average_wordnet_path.csv
INFO: MAIN(compute_average.py)  --	:     verb freq: /home/muntsa/MWE/data/verb-counts/verb_counts.aprox.min_freq_50.csv
INFO: MAIN(compute_average.py)  --	:     fields: 2,4,6,8,10,12,14,16,18,20,22,24
WARNING: MAIN(compute_average.py)  --	: There was no instance for the frequency range 1000000. Skipping it
WARNING: MAIN(compute_average.py)  --	: There was no instance for the frequency range bigger. Skipping it

keep 500 relevant triples
file min_freq_50/eval.cosine.max_triples_500.sorting_by_lmi.average_wordnet_path.csv not found, let's create it
INFO: MAIN(compare_k_first_in_wordnet.py)  --	: ======== compare_k_first_in_wordnet.py ========
INFO: MAIN(compare_k_first_in_wordnet.py)  --	:  input file: /home/muntsa/MWE/data/keep_only_relevant_triples/min_freq_50/shelves/thesaurus_cosine.max_triples_500.sorting_by_lmi.shelf
Traceback (most recent call last):
  File "/home/muntsa/RECERCA/Software/MWE/compare_k_first_in_wordnet.py", line 117, in <module>
    with closing(shelve.open(args[0], 'r')) as thes: 
  File "/usr/lib/python2.7/shelve.py", line 239, in open
    return DbfilenameShelf(filename, flag, protocol, writeback)
  File "/usr/lib/python2.7/shelve.py", line 223, in __init__
    Shelf.__init__(self, anydbm.open(filename, flag), protocol, writeback)
  File "/usr/lib/python2.7/anydbm.py", line 79, in open
    raise error, "need 'c' or 'n' flag to open new db"
anydbm.error: need 'c' or 'n' flag to open new db
INFO: MAIN(compute_average.py)  --	: ======== compute_average_per_verbs.py ========
INFO: MAIN(compute_average.py)  --	:     file: min_freq_50/eval.cosine.max_triples_500.sorting_by_lmi.average_wordnet_path.csv
INFO: MAIN(compute_average.py)  --	:     verb freq: /home/muntsa/MWE/data/verb-counts/verb_counts.aprox.min_freq_50.csv
INFO: MAIN(compute_average.py)  --	:     fields: 2,4,6,8,10,12,14,16,18,20,22,24
WARNING: MAIN(compute_average.py)  --	: There was no instance for the frequency range 150. Skipping it
WARNING: MAIN(compute_average.py)  --	: There was no instance for the frequency range 500. Skipping it
WARNING: MAIN(compute_average.py)  --	: There was no instance for the frequency range bigger. Skipping it
INFO: MAIN(compute_average.py)  --	: ======== compute_average_per_verbs.py ========
INFO: MAIN(compute_average.py)  --	:     file: min_freq_50/eval.cosine.max_triples_500.sorting_by_lmi.average_wordnet_path.csv
INFO: MAIN(compute_average.py)  --	:     verb freq: /home/muntsa/MWE/data/verb-counts/verb_counts.aprox.min_freq_50.csv
INFO: MAIN(compute_average.py)  --	:     fields: 2,4,6,8,10,12,14,16,18,20,22,24
WARNING: MAIN(compute_average.py)  --	: There was no instance for the frequency range 1000000. Skipping it
WARNING: MAIN(compute_average.py)  --	: There was no instance for the frequency range bigger. Skipping it

keep 1000 relevant triples
file min_freq_50/eval.cosine.max_triples_1000.sorting_by_lmi.average_wordnet_path.csv not found, let's create it
INFO: MAIN(compare_k_first_in_wordnet.py)  --	: ======== compare_k_first_in_wordnet.py ========
INFO: MAIN(compare_k_first_in_wordnet.py)  --	:  input file: /home/muntsa/MWE/data/keep_only_relevant_triples/min_freq_50/shelves/thesaurus_cosine.max_triples_1000.sorting_by_lmi.shelf
Traceback (most recent call last):
  File "/home/muntsa/RECERCA/Software/MWE/compare_k_first_in_wordnet.py", line 117, in <module>
    with closing(shelve.open(args[0], 'r')) as thes: 
  File "/usr/lib/python2.7/shelve.py", line 239, in open
    return DbfilenameShelf(filename, flag, protocol, writeback)
  File "/usr/lib/python2.7/shelve.py", line 223, in __init__
    Shelf.__init__(self, anydbm.open(filename, flag), protocol, writeback)
  File "/usr/lib/python2.7/anydbm.py", line 79, in open
    raise error, "need 'c' or 'n' flag to open new db"
anydbm.error: need 'c' or 'n' flag to open new db
INFO: MAIN(compute_average.py)  --	: ======== compute_average_per_verbs.py ========
INFO: MAIN(compute_average.py)  --	:     file: min_freq_50/eval.cosine.max_triples_1000.sorting_by_lmi.average_wordnet_path.csv
INFO: MAIN(compute_average.py)  --	:     verb freq: /home/muntsa/MWE/data/verb-counts/verb_counts.aprox.min_freq_50.csv
INFO: MAIN(compute_average.py)  --	:     fields: 2,4,6,8,10,12,14,16,18,20,22,24
WARNING: MAIN(compute_average.py)  --	: There was no instance for the frequency range 150. Skipping it
WARNING: MAIN(compute_average.py)  --	: There was no instance for the frequency range 500. Skipping it
WARNING: MAIN(compute_average.py)  --	: There was no instance for the frequency range bigger. Skipping it
INFO: MAIN(compute_average.py)  --	: ======== compute_average_per_verbs.py ========
INFO: MAIN(compute_average.py)  --	:     file: min_freq_50/eval.cosine.max_triples_1000.sorting_by_lmi.average_wordnet_path.csv
INFO: MAIN(compute_average.py)  --	:     verb freq: /home/muntsa/MWE/data/verb-counts/verb_counts.aprox.min_freq_50.csv
INFO: MAIN(compute_average.py)  --	:     fields: 2,4,6,8,10,12,14,16,18,20,22,24
WARNING: MAIN(compute_average.py)  --	: There was no instance for the frequency range 1000000. Skipping it
WARNING: MAIN(compute_average.py)  --	: There was no instance for the frequency range bigger. Skipping it

keep 10 relevant triples
file min_freq_50/eval.cosine.max_triples_10.sorting_by_freq.average_wordnet_path.csv already exist, computing means directly
INFO: MAIN(compute_average.py)  --	: ======== compute_average_per_verbs.py ========
INFO: MAIN(compute_average.py)  --	:     file: min_freq_50/eval.cosine.max_triples_10.sorting_by_freq.average_wordnet_path.csv
INFO: MAIN(compute_average.py)  --	:     verb freq: /home/muntsa/MWE/data/verb-counts/verb_counts.aprox.min_freq_50.csv
INFO: MAIN(compute_average.py)  --	:     fields: 2,4,6,8,10,12,14,16,18,20,22,24
INFO: MAIN(compute_average.py)  --	: ======== compute_average_per_verbs.py ========
INFO: MAIN(compute_average.py)  --	:     file: min_freq_50/eval.cosine.max_triples_10.sorting_by_freq.average_wordnet_path.csv
INFO: MAIN(compute_average.py)  --	:     verb freq: /home/muntsa/MWE/data/verb-counts/verb_counts.aprox.min_freq_50.csv
INFO: MAIN(compute_average.py)  --	:     fields: 2,4,6,8,10,12,14,16,18,20,22,24
WARNING: MAIN(compute_average.py)  --	: There was no instance for the frequency range bigger. Skipping it

keep 20 relevant triples
file min_freq_50/eval.cosine.max_triples_20.sorting_by_freq.average_wordnet_path.csv not found, let's create it
INFO: MAIN(compare_k_first_in_wordnet.py)  --	: ======== compare_k_first_in_wordnet.py ========
INFO: MAIN(compare_k_first_in_wordnet.py)  --	:  input file: /home/muntsa/MWE/data/keep_only_relevant_triples/min_freq_50/shelves/thesaurus_cosine.max_triples_20.sorting_by_freq.shelf
Traceback (most recent call last):
  File "/home/muntsa/RECERCA/Software/MWE/compare_k_first_in_wordnet.py", line 117, in <module>
    with closing(shelve.open(args[0], 'r')) as thes: 
  File "/usr/lib/python2.7/shelve.py", line 239, in open
    return DbfilenameShelf(filename, flag, protocol, writeback)
  File "/usr/lib/python2.7/shelve.py", line 223, in __init__
    Shelf.__init__(self, anydbm.open(filename, flag), protocol, writeback)
  File "/usr/lib/python2.7/anydbm.py", line 79, in open
    raise error, "need 'c' or 'n' flag to open new db"
anydbm.error: need 'c' or 'n' flag to open new db
INFO: MAIN(compute_average.py)  --	: ======== compute_average_per_verbs.py ========
INFO: MAIN(compute_average.py)  --	:     file: min_freq_50/eval.cosine.max_triples_20.sorting_by_freq.average_wordnet_path.csv
INFO: MAIN(compute_average.py)  --	:     verb freq: /home/muntsa/MWE/data/verb-counts/verb_counts.aprox.min_freq_50.csv
INFO: MAIN(compute_average.py)  --	:     fields: 2,4,6,8,10,12,14,16,18,20,22,24
WARNING: MAIN(compute_average.py)  --	: There was no instance for the frequency range 150. Skipping it
WARNING: MAIN(compute_average.py)  --	: There was no instance for the frequency range 500. Skipping it
WARNING: MAIN(compute_average.py)  --	: There was no instance for the frequency range bigger. Skipping it
INFO: MAIN(compute_average.py)  --	: ======== compute_average_per_verbs.py ========
INFO: MAIN(compute_average.py)  --	:     file: min_freq_50/eval.cosine.max_triples_20.sorting_by_freq.average_wordnet_path.csv
INFO: MAIN(compute_average.py)  --	:     verb freq: /home/muntsa/MWE/data/verb-counts/verb_counts.aprox.min_freq_50.csv
INFO: MAIN(compute_average.py)  --	:     fields: 2,4,6,8,10,12,14,16,18,20,22,24
WARNING: MAIN(compute_average.py)  --	: There was no instance for the frequency range 1000000. Skipping it
WARNING: MAIN(compute_average.py)  --	: There was no instance for the frequency range bigger. Skipping it

keep 30 relevant triples
file min_freq_50/eval.cosine.max_triples_30.sorting_by_freq.average_wordnet_path.csv not found, let's create it
INFO: MAIN(compare_k_first_in_wordnet.py)  --	: ======== compare_k_first_in_wordnet.py ========
INFO: MAIN(compare_k_first_in_wordnet.py)  --	:  input file: /home/muntsa/MWE/data/keep_only_relevant_triples/min_freq_50/shelves/thesaurus_cosine.max_triples_30.sorting_by_freq.shelf
Traceback (most recent call last):
  File "/home/muntsa/RECERCA/Software/MWE/compare_k_first_in_wordnet.py", line 117, in <module>
    with closing(shelve.open(args[0], 'r')) as thes: 
  File "/usr/lib/python2.7/shelve.py", line 239, in open
    return DbfilenameShelf(filename, flag, protocol, writeback)
  File "/usr/lib/python2.7/shelve.py", line 223, in __init__
    Shelf.__init__(self, anydbm.open(filename, flag), protocol, writeback)
  File "/usr/lib/python2.7/anydbm.py", line 79, in open
    raise error, "need 'c' or 'n' flag to open new db"
anydbm.error: need 'c' or 'n' flag to open new db
INFO: MAIN(compute_average.py)  --	: ======== compute_average_per_verbs.py ========
INFO: MAIN(compute_average.py)  --	:     file: min_freq_50/eval.cosine.max_triples_30.sorting_by_freq.average_wordnet_path.csv
INFO: MAIN(compute_average.py)  --	:     verb freq: /home/muntsa/MWE/data/verb-counts/verb_counts.aprox.min_freq_50.csv
INFO: MAIN(compute_average.py)  --	:     fields: 2,4,6,8,10,12,14,16,18,20,22,24
WARNING: MAIN(compute_average.py)  --	: There was no instance for the frequency range 150. Skipping it
WARNING: MAIN(compute_average.py)  --	: There was no instance for the frequency range 500. Skipping it
WARNING: MAIN(compute_average.py)  --	: There was no instance for the frequency range bigger. Skipping it
INFO: MAIN(compute_average.py)  --	: ======== compute_average_per_verbs.py ========
INFO: MAIN(compute_average.py)  --	:     file: min_freq_50/eval.cosine.max_triples_30.sorting_by_freq.average_wordnet_path.csv
INFO: MAIN(compute_average.py)  --	:     verb freq: /home/muntsa/MWE/data/verb-counts/verb_counts.aprox.min_freq_50.csv
INFO: MAIN(compute_average.py)  --	:     fields: 2,4,6,8,10,12,14,16,18,20,22,24
WARNING: MAIN(compute_average.py)  --	: There was no instance for the frequency range 1000000. Skipping it
WARNING: MAIN(compute_average.py)  --	: There was no instance for the frequency range bigger. Skipping it

keep 40 relevant triples
file min_freq_50/eval.cosine.max_triples_40.sorting_by_freq.average_wordnet_path.csv not found, let's create it
INFO: MAIN(compare_k_first_in_wordnet.py)  --	: ======== compare_k_first_in_wordnet.py ========
INFO: MAIN(compare_k_first_in_wordnet.py)  --	:  input file: /home/muntsa/MWE/data/keep_only_relevant_triples/min_freq_50/shelves/thesaurus_cosine.max_triples_40.sorting_by_freq.shelf
Traceback (most recent call last):
  File "/home/muntsa/RECERCA/Software/MWE/compare_k_first_in_wordnet.py", line 117, in <module>
    with closing(shelve.open(args[0], 'r')) as thes: 
  File "/usr/lib/python2.7/shelve.py", line 239, in open
    return DbfilenameShelf(filename, flag, protocol, writeback)
  File "/usr/lib/python2.7/shelve.py", line 223, in __init__
    Shelf.__init__(self, anydbm.open(filename, flag), protocol, writeback)
  File "/usr/lib/python2.7/anydbm.py", line 79, in open
    raise error, "need 'c' or 'n' flag to open new db"
anydbm.error: need 'c' or 'n' flag to open new db
INFO: MAIN(compute_average.py)  --	: ======== compute_average_per_verbs.py ========
INFO: MAIN(compute_average.py)  --	:     file: min_freq_50/eval.cosine.max_triples_40.sorting_by_freq.average_wordnet_path.csv
INFO: MAIN(compute_average.py)  --	:     verb freq: /home/muntsa/MWE/data/verb-counts/verb_counts.aprox.min_freq_50.csv
INFO: MAIN(compute_average.py)  --	:     fields: 2,4,6,8,10,12,14,16,18,20,22,24
WARNING: MAIN(compute_average.py)  --	: There was no instance for the frequency range 150. Skipping it
WARNING: MAIN(compute_average.py)  --	: There was no instance for the frequency range 500. Skipping it
WARNING: MAIN(compute_average.py)  --	: There was no instance for the frequency range bigger. Skipping it
INFO: MAIN(compute_average.py)  --	: ======== compute_average_per_verbs.py ========
INFO: MAIN(compute_average.py)  --	:     file: min_freq_50/eval.cosine.max_triples_40.sorting_by_freq.average_wordnet_path.csv
INFO: MAIN(compute_average.py)  --	:     verb freq: /home/muntsa/MWE/data/verb-counts/verb_counts.aprox.min_freq_50.csv
INFO: MAIN(compute_average.py)  --	:     fields: 2,4,6,8,10,12,14,16,18,20,22,24
WARNING: MAIN(compute_average.py)  --	: There was no instance for the frequency range 1000000. Skipping it
WARNING: MAIN(compute_average.py)  --	: There was no instance for the frequency range bigger. Skipping it

keep 50 relevant triples
file min_freq_50/eval.cosine.max_triples_50.sorting_by_freq.average_wordnet_path.csv not found, let's create it
INFO: MAIN(compare_k_first_in_wordnet.py)  --	: ======== compare_k_first_in_wordnet.py ========
INFO: MAIN(compare_k_first_in_wordnet.py)  --	:  input file: /home/muntsa/MWE/data/keep_only_relevant_triples/min_freq_50/shelves/thesaurus_cosine.max_triples_50.sorting_by_freq.shelf
INFO: MAIN(compute_average.py)  --	: ======== compute_average_per_verbs.py ========
INFO: MAIN(compute_average.py)  --	:     file: min_freq_50/eval.cosine.max_triples_50.sorting_by_freq.average_wordnet_path.csv
INFO: MAIN(compute_average.py)  --	:     verb freq: /home/muntsa/MWE/data/verb-counts/verb_counts.aprox.min_freq_50.csv
INFO: MAIN(compute_average.py)  --	:     fields: 2,4,6,8,10,12,14,16,18,20,22,24
INFO: MAIN(compute_average.py)  --	: ======== compute_average_per_verbs.py ========
INFO: MAIN(compute_average.py)  --	:     file: min_freq_50/eval.cosine.max_triples_50.sorting_by_freq.average_wordnet_path.csv
INFO: MAIN(compute_average.py)  --	:     verb freq: /home/muntsa/MWE/data/verb-counts/verb_counts.aprox.min_freq_50.csv
INFO: MAIN(compute_average.py)  --	:     fields: 2,4,6,8,10,12,14,16,18,20,22,24
WARNING: MAIN(compute_average.py)  --	: There was no instance for the frequency range bigger. Skipping it

keep 100 relevant triples
file min_freq_50/eval.cosine.max_triples_100.sorting_by_freq.average_wordnet_path.csv not found, let's create it
INFO: MAIN(compare_k_first_in_wordnet.py)  --	: ======== compare_k_first_in_wordnet.py ========
INFO: MAIN(compare_k_first_in_wordnet.py)  --	:  input file: /home/muntsa/MWE/data/keep_only_relevant_triples/min_freq_50/shelves/thesaurus_cosine.max_triples_100.sorting_by_freq.shelf
INFO: MAIN(compute_average.py)  --	: ======== compute_average_per_verbs.py ========
INFO: MAIN(compute_average.py)  --	:     file: min_freq_50/eval.cosine.max_triples_100.sorting_by_freq.average_wordnet_path.csv
INFO: MAIN(compute_average.py)  --	:     verb freq: /home/muntsa/MWE/data/verb-counts/verb_counts.aprox.min_freq_50.csv
INFO: MAIN(compute_average.py)  --	:     fields: 2,4,6,8,10,12,14,16,18,20,22,24
INFO: MAIN(compute_average.py)  --	: ======== compute_average_per_verbs.py ========
INFO: MAIN(compute_average.py)  --	:     file: min_freq_50/eval.cosine.max_triples_100.sorting_by_freq.average_wordnet_path.csv
INFO: MAIN(compute_average.py)  --	:     verb freq: /home/muntsa/MWE/data/verb-counts/verb_counts.aprox.min_freq_50.csv
INFO: MAIN(compute_average.py)  --	:     fields: 2,4,6,8,10,12,14,16,18,20,22,24
WARNING: MAIN(compute_average.py)  --	: There was no instance for the frequency range bigger. Skipping it

keep 200 relevant triples
file min_freq_50/eval.cosine.max_triples_200.sorting_by_freq.average_wordnet_path.csv not found, let's create it
INFO: MAIN(compare_k_first_in_wordnet.py)  --	: ======== compare_k_first_in_wordnet.py ========
INFO: MAIN(compare_k_first_in_wordnet.py)  --	:  input file: /home/muntsa/MWE/data/keep_only_relevant_triples/min_freq_50/shelves/thesaurus_cosine.max_triples_200.sorting_by_freq.shelf
Traceback (most recent call last):
  File "/home/muntsa/RECERCA/Software/MWE/compare_k_first_in_wordnet.py", line 117, in <module>
    with closing(shelve.open(args[0], 'r')) as thes: 
  File "/usr/lib/python2.7/shelve.py", line 239, in open
    return DbfilenameShelf(filename, flag, protocol, writeback)
  File "/usr/lib/python2.7/shelve.py", line 223, in __init__
    Shelf.__init__(self, anydbm.open(filename, flag), protocol, writeback)
  File "/usr/lib/python2.7/anydbm.py", line 79, in open
    raise error, "need 'c' or 'n' flag to open new db"
anydbm.error: need 'c' or 'n' flag to open new db
INFO: MAIN(compute_average.py)  --	: ======== compute_average_per_verbs.py ========
INFO: MAIN(compute_average.py)  --	:     file: min_freq_50/eval.cosine.max_triples_200.sorting_by_freq.average_wordnet_path.csv
INFO: MAIN(compute_average.py)  --	:     verb freq: /home/muntsa/MWE/data/verb-counts/verb_counts.aprox.min_freq_50.csv
INFO: MAIN(compute_average.py)  --	:     fields: 2,4,6,8,10,12,14,16,18,20,22,24
WARNING: MAIN(compute_average.py)  --	: There was no instance for the frequency range 150. Skipping it
WARNING: MAIN(compute_average.py)  --	: There was no instance for the frequency range 500. Skipping it
WARNING: MAIN(compute_average.py)  --	: There was no instance for the frequency range bigger. Skipping it
INFO: MAIN(compute_average.py)  --	: ======== compute_average_per_verbs.py ========
INFO: MAIN(compute_average.py)  --	:     file: min_freq_50/eval.cosine.max_triples_200.sorting_by_freq.average_wordnet_path.csv
INFO: MAIN(compute_average.py)  --	:     verb freq: /home/muntsa/MWE/data/verb-counts/verb_counts.aprox.min_freq_50.csv
INFO: MAIN(compute_average.py)  --	:     fields: 2,4,6,8,10,12,14,16,18,20,22,24
WARNING: MAIN(compute_average.py)  --	: There was no instance for the frequency range 1000000. Skipping it
WARNING: MAIN(compute_average.py)  --	: There was no instance for the frequency range bigger. Skipping it

keep 500 relevant triples
file min_freq_50/eval.cosine.max_triples_500.sorting_by_freq.average_wordnet_path.csv already exist, computing means directly
INFO: MAIN(compute_average.py)  --	: ======== compute_average_per_verbs.py ========
INFO: MAIN(compute_average.py)  --	:     file: min_freq_50/eval.cosine.max_triples_500.sorting_by_freq.average_wordnet_path.csv
INFO: MAIN(compute_average.py)  --	:     verb freq: /home/muntsa/MWE/data/verb-counts/verb_counts.aprox.min_freq_50.csv
INFO: MAIN(compute_average.py)  --	:     fields: 2,4,6,8,10,12,14,16,18,20,22,24
INFO: MAIN(compute_average.py)  --	: ======== compute_average_per_verbs.py ========
INFO: MAIN(compute_average.py)  --	:     file: min_freq_50/eval.cosine.max_triples_500.sorting_by_freq.average_wordnet_path.csv
INFO: MAIN(compute_average.py)  --	:     verb freq: /home/muntsa/MWE/data/verb-counts/verb_counts.aprox.min_freq_50.csv
INFO: MAIN(compute_average.py)  --	:     fields: 2,4,6,8,10,12,14,16,18,20,22,24
WARNING: MAIN(compute_average.py)  --	: There was no instance for the frequency range bigger. Skipping it

keep 1000 relevant triples
file min_freq_50/eval.cosine.max_triples_1000.sorting_by_freq.average_wordnet_path.csv not found, let's create it
INFO: MAIN(compare_k_first_in_wordnet.py)  --	: ======== compare_k_first_in_wordnet.py ========
INFO: MAIN(compare_k_first_in_wordnet.py)  --	:  input file: /home/muntsa/MWE/data/keep_only_relevant_triples/min_freq_50/shelves/thesaurus_cosine.max_triples_1000.sorting_by_freq.shelf
INFO: MAIN(compute_average.py)  --	: ======== compute_average_per_verbs.py ========
INFO: MAIN(compute_average.py)  --	:     file: min_freq_50/eval.cosine.max_triples_1000.sorting_by_freq.average_wordnet_path.csv
INFO: MAIN(compute_average.py)  --	:     verb freq: /home/muntsa/MWE/data/verb-counts/verb_counts.aprox.min_freq_50.csv
INFO: MAIN(compute_average.py)  --	:     fields: 2,4,6,8,10,12,14,16,18,20,22,24
INFO: MAIN(compute_average.py)  --	: ======== compute_average_per_verbs.py ========
INFO: MAIN(compute_average.py)  --	:     file: min_freq_50/eval.cosine.max_triples_1000.sorting_by_freq.average_wordnet_path.csv
INFO: MAIN(compute_average.py)  --	:     verb freq: /home/muntsa/MWE/data/verb-counts/verb_counts.aprox.min_freq_50.csv
INFO: MAIN(compute_average.py)  --	:     fields: 2,4,6,8,10,12,14,16,18,20,22,24
WARNING: MAIN(compute_average.py)  --	: There was no instance for the frequency range bigger. Skipping it

keep 10 relevant triples
file min_freq_50/eval.cosine.max_triples_10.sorting_by_pmi.average_wordnet_path.csv already exist, computing means directly
INFO: MAIN(compute_average.py)  --	: ======== compute_average_per_verbs.py ========
INFO: MAIN(compute_average.py)  --	:     file: min_freq_50/eval.cosine.max_triples_10.sorting_by_pmi.average_wordnet_path.csv
INFO: MAIN(compute_average.py)  --	:     verb freq: /home/muntsa/MWE/data/verb-counts/verb_counts.aprox.min_freq_50.csv
INFO: MAIN(compute_average.py)  --	:     fields: 2,4,6,8,10,12,14,16,18,20,22,24
INFO: MAIN(compute_average.py)  --	: ======== compute_average_per_verbs.py ========
INFO: MAIN(compute_average.py)  --	:     file: min_freq_50/eval.cosine.max_triples_10.sorting_by_pmi.average_wordnet_path.csv
INFO: MAIN(compute_average.py)  --	:     verb freq: /home/muntsa/MWE/data/verb-counts/verb_counts.aprox.min_freq_50.csv
INFO: MAIN(compute_average.py)  --	:     fields: 2,4,6,8,10,12,14,16,18,20,22,24
WARNING: MAIN(compute_average.py)  --	: There was no instance for the frequency range bigger. Skipping it

keep 20 relevant triples
file min_freq_50/eval.cosine.max_triples_20.sorting_by_pmi.average_wordnet_path.csv not found, let's create it
INFO: MAIN(compare_k_first_in_wordnet.py)  --	: ======== compare_k_first_in_wordnet.py ========
INFO: MAIN(compare_k_first_in_wordnet.py)  --	:  input file: /home/muntsa/MWE/data/keep_only_relevant_triples/min_freq_50/shelves/thesaurus_cosine.max_triples_20.sorting_by_pmi.shelf
Traceback (most recent call last):
  File "/home/muntsa/RECERCA/Software/MWE/compare_k_first_in_wordnet.py", line 117, in <module>
    with closing(shelve.open(args[0], 'r')) as thes: 
  File "/usr/lib/python2.7/shelve.py", line 239, in open
    return DbfilenameShelf(filename, flag, protocol, writeback)
  File "/usr/lib/python2.7/shelve.py", line 223, in __init__
    Shelf.__init__(self, anydbm.open(filename, flag), protocol, writeback)
  File "/usr/lib/python2.7/anydbm.py", line 79, in open
    raise error, "need 'c' or 'n' flag to open new db"
anydbm.error: need 'c' or 'n' flag to open new db
INFO: MAIN(compute_average.py)  --	: ======== compute_average_per_verbs.py ========
INFO: MAIN(compute_average.py)  --	:     file: min_freq_50/eval.cosine.max_triples_20.sorting_by_pmi.average_wordnet_path.csv
INFO: MAIN(compute_average.py)  --	:     verb freq: /home/muntsa/MWE/data/verb-counts/verb_counts.aprox.min_freq_50.csv
INFO: MAIN(compute_average.py)  --	:     fields: 2,4,6,8,10,12,14,16,18,20,22,24
WARNING: MAIN(compute_average.py)  --	: There was no instance for the frequency range 150. Skipping it
WARNING: MAIN(compute_average.py)  --	: There was no instance for the frequency range 500. Skipping it
WARNING: MAIN(compute_average.py)  --	: There was no instance for the frequency range bigger. Skipping it
INFO: MAIN(compute_average.py)  --	: ======== compute_average_per_verbs.py ========
INFO: MAIN(compute_average.py)  --	:     file: min_freq_50/eval.cosine.max_triples_20.sorting_by_pmi.average_wordnet_path.csv
INFO: MAIN(compute_average.py)  --	:     verb freq: /home/muntsa/MWE/data/verb-counts/verb_counts.aprox.min_freq_50.csv
INFO: MAIN(compute_average.py)  --	:     fields: 2,4,6,8,10,12,14,16,18,20,22,24
WARNING: MAIN(compute_average.py)  --	: There was no instance for the frequency range 1000000. Skipping it
WARNING: MAIN(compute_average.py)  --	: There was no instance for the frequency range bigger. Skipping it

keep 30 relevant triples
file min_freq_50/eval.cosine.max_triples_30.sorting_by_pmi.average_wordnet_path.csv not found, let's create it
INFO: MAIN(compare_k_first_in_wordnet.py)  --	: ======== compare_k_first_in_wordnet.py ========
INFO: MAIN(compare_k_first_in_wordnet.py)  --	:  input file: /home/muntsa/MWE/data/keep_only_relevant_triples/min_freq_50/shelves/thesaurus_cosine.max_triples_30.sorting_by_pmi.shelf
Traceback (most recent call last):
  File "/home/muntsa/RECERCA/Software/MWE/compare_k_first_in_wordnet.py", line 117, in <module>
    with closing(shelve.open(args[0], 'r')) as thes: 
  File "/usr/lib/python2.7/shelve.py", line 239, in open
    return DbfilenameShelf(filename, flag, protocol, writeback)
  File "/usr/lib/python2.7/shelve.py", line 223, in __init__
    Shelf.__init__(self, anydbm.open(filename, flag), protocol, writeback)
  File "/usr/lib/python2.7/anydbm.py", line 79, in open
    raise error, "need 'c' or 'n' flag to open new db"
anydbm.error: need 'c' or 'n' flag to open new db
INFO: MAIN(compute_average.py)  --	: ======== compute_average_per_verbs.py ========
INFO: MAIN(compute_average.py)  --	:     file: min_freq_50/eval.cosine.max_triples_30.sorting_by_pmi.average_wordnet_path.csv
INFO: MAIN(compute_average.py)  --	:     verb freq: /home/muntsa/MWE/data/verb-counts/verb_counts.aprox.min_freq_50.csv
INFO: MAIN(compute_average.py)  --	:     fields: 2,4,6,8,10,12,14,16,18,20,22,24
WARNING: MAIN(compute_average.py)  --	: There was no instance for the frequency range 150. Skipping it
WARNING: MAIN(compute_average.py)  --	: There was no instance for the frequency range 500. Skipping it
WARNING: MAIN(compute_average.py)  --	: There was no instance for the frequency range bigger. Skipping it
INFO: MAIN(compute_average.py)  --	: ======== compute_average_per_verbs.py ========
INFO: MAIN(compute_average.py)  --	:     file: min_freq_50/eval.cosine.max_triples_30.sorting_by_pmi.average_wordnet_path.csv
INFO: MAIN(compute_average.py)  --	:     verb freq: /home/muntsa/MWE/data/verb-counts/verb_counts.aprox.min_freq_50.csv
INFO: MAIN(compute_average.py)  --	:     fields: 2,4,6,8,10,12,14,16,18,20,22,24
WARNING: MAIN(compute_average.py)  --	: There was no instance for the frequency range 1000000. Skipping it
WARNING: MAIN(compute_average.py)  --	: There was no instance for the frequency range bigger. Skipping it

keep 40 relevant triples
file min_freq_50/eval.cosine.max_triples_40.sorting_by_pmi.average_wordnet_path.csv not found, let's create it
INFO: MAIN(compare_k_first_in_wordnet.py)  --	: ======== compare_k_first_in_wordnet.py ========
INFO: MAIN(compare_k_first_in_wordnet.py)  --	:  input file: /home/muntsa/MWE/data/keep_only_relevant_triples/min_freq_50/shelves/thesaurus_cosine.max_triples_40.sorting_by_pmi.shelf
Traceback (most recent call last):
  File "/home/muntsa/RECERCA/Software/MWE/compare_k_first_in_wordnet.py", line 117, in <module>
    with closing(shelve.open(args[0], 'r')) as thes: 
  File "/usr/lib/python2.7/shelve.py", line 239, in open
    return DbfilenameShelf(filename, flag, protocol, writeback)
  File "/usr/lib/python2.7/shelve.py", line 223, in __init__
    Shelf.__init__(self, anydbm.open(filename, flag), protocol, writeback)
  File "/usr/lib/python2.7/anydbm.py", line 79, in open
    raise error, "need 'c' or 'n' flag to open new db"
anydbm.error: need 'c' or 'n' flag to open new db
INFO: MAIN(compute_average.py)  --	: ======== compute_average_per_verbs.py ========
INFO: MAIN(compute_average.py)  --	:     file: min_freq_50/eval.cosine.max_triples_40.sorting_by_pmi.average_wordnet_path.csv
INFO: MAIN(compute_average.py)  --	:     verb freq: /home/muntsa/MWE/data/verb-counts/verb_counts.aprox.min_freq_50.csv
INFO: MAIN(compute_average.py)  --	:     fields: 2,4,6,8,10,12,14,16,18,20,22,24
WARNING: MAIN(compute_average.py)  --	: There was no instance for the frequency range 150. Skipping it
WARNING: MAIN(compute_average.py)  --	: There was no instance for the frequency range 500. Skipping it
WARNING: MAIN(compute_average.py)  --	: There was no instance for the frequency range bigger. Skipping it
INFO: MAIN(compute_average.py)  --	: ======== compute_average_per_verbs.py ========
INFO: MAIN(compute_average.py)  --	:     file: min_freq_50/eval.cosine.max_triples_40.sorting_by_pmi.average_wordnet_path.csv
INFO: MAIN(compute_average.py)  --	:     verb freq: /home/muntsa/MWE/data/verb-counts/verb_counts.aprox.min_freq_50.csv
INFO: MAIN(compute_average.py)  --	:     fields: 2,4,6,8,10,12,14,16,18,20,22,24
WARNING: MAIN(compute_average.py)  --	: There was no instance for the frequency range 1000000. Skipping it
WARNING: MAIN(compute_average.py)  --	: There was no instance for the frequency range bigger. Skipping it

keep 50 relevant triples
file min_freq_50/eval.cosine.max_triples_50.sorting_by_pmi.average_wordnet_path.csv not found, let's create it
INFO: MAIN(compare_k_first_in_wordnet.py)  --	: ======== compare_k_first_in_wordnet.py ========
INFO: MAIN(compare_k_first_in_wordnet.py)  --	:  input file: /home/muntsa/MWE/data/keep_only_relevant_triples/min_freq_50/shelves/thesaurus_cosine.max_triples_50.sorting_by_pmi.shelf
Traceback (most recent call last):
  File "/home/muntsa/RECERCA/Software/MWE/compare_k_first_in_wordnet.py", line 117, in <module>
    with closing(shelve.open(args[0], 'r')) as thes: 
  File "/usr/lib/python2.7/shelve.py", line 239, in open
    return DbfilenameShelf(filename, flag, protocol, writeback)
  File "/usr/lib/python2.7/shelve.py", line 223, in __init__
    Shelf.__init__(self, anydbm.open(filename, flag), protocol, writeback)
  File "/usr/lib/python2.7/anydbm.py", line 79, in open
    raise error, "need 'c' or 'n' flag to open new db"
anydbm.error: need 'c' or 'n' flag to open new db
INFO: MAIN(compute_average.py)  --	: ======== compute_average_per_verbs.py ========
INFO: MAIN(compute_average.py)  --	:     file: min_freq_50/eval.cosine.max_triples_50.sorting_by_pmi.average_wordnet_path.csv
INFO: MAIN(compute_average.py)  --	:     verb freq: /home/muntsa/MWE/data/verb-counts/verb_counts.aprox.min_freq_50.csv
INFO: MAIN(compute_average.py)  --	:     fields: 2,4,6,8,10,12,14,16,18,20,22,24
WARNING: MAIN(compute_average.py)  --	: There was no instance for the frequency range 150. Skipping it
WARNING: MAIN(compute_average.py)  --	: There was no instance for the frequency range 500. Skipping it
WARNING: MAIN(compute_average.py)  --	: There was no instance for the frequency range bigger. Skipping it
INFO: MAIN(compute_average.py)  --	: ======== compute_average_per_verbs.py ========
INFO: MAIN(compute_average.py)  --	:     file: min_freq_50/eval.cosine.max_triples_50.sorting_by_pmi.average_wordnet_path.csv
INFO: MAIN(compute_average.py)  --	:     verb freq: /home/muntsa/MWE/data/verb-counts/verb_counts.aprox.min_freq_50.csv
INFO: MAIN(compute_average.py)  --	:     fields: 2,4,6,8,10,12,14,16,18,20,22,24
WARNING: MAIN(compute_average.py)  --	: There was no instance for the frequency range 1000000. Skipping it
WARNING: MAIN(compute_average.py)  --	: There was no instance for the frequency range bigger. Skipping it

keep 100 relevant triples
file min_freq_50/eval.cosine.max_triples_100.sorting_by_pmi.average_wordnet_path.csv not found, let's create it
INFO: MAIN(compare_k_first_in_wordnet.py)  --	: ======== compare_k_first_in_wordnet.py ========
INFO: MAIN(compare_k_first_in_wordnet.py)  --	:  input file: /home/muntsa/MWE/data/keep_only_relevant_triples/min_freq_50/shelves/thesaurus_cosine.max_triples_100.sorting_by_pmi.shelf
Traceback (most recent call last):
  File "/home/muntsa/RECERCA/Software/MWE/compare_k_first_in_wordnet.py", line 117, in <module>
    with closing(shelve.open(args[0], 'r')) as thes: 
  File "/usr/lib/python2.7/shelve.py", line 239, in open
    return DbfilenameShelf(filename, flag, protocol, writeback)
  File "/usr/lib/python2.7/shelve.py", line 223, in __init__
    Shelf.__init__(self, anydbm.open(filename, flag), protocol, writeback)
  File "/usr/lib/python2.7/anydbm.py", line 79, in open
    raise error, "need 'c' or 'n' flag to open new db"
anydbm.error: need 'c' or 'n' flag to open new db
INFO: MAIN(compute_average.py)  --	: ======== compute_average_per_verbs.py ========
INFO: MAIN(compute_average.py)  --	:     file: min_freq_50/eval.cosine.max_triples_100.sorting_by_pmi.average_wordnet_path.csv
INFO: MAIN(compute_average.py)  --	:     verb freq: /home/muntsa/MWE/data/verb-counts/verb_counts.aprox.min_freq_50.csv
INFO: MAIN(compute_average.py)  --	:     fields: 2,4,6,8,10,12,14,16,18,20,22,24
WARNING: MAIN(compute_average.py)  --	: There was no instance for the frequency range 150. Skipping it
WARNING: MAIN(compute_average.py)  --	: There was no instance for the frequency range 500. Skipping it
WARNING: MAIN(compute_average.py)  --	: There was no instance for the frequency range bigger. Skipping it
INFO: MAIN(compute_average.py)  --	: ======== compute_average_per_verbs.py ========
INFO: MAIN(compute_average.py)  --	:     file: min_freq_50/eval.cosine.max_triples_100.sorting_by_pmi.average_wordnet_path.csv
INFO: MAIN(compute_average.py)  --	:     verb freq: /home/muntsa/MWE/data/verb-counts/verb_counts.aprox.min_freq_50.csv
INFO: MAIN(compute_average.py)  --	:     fields: 2,4,6,8,10,12,14,16,18,20,22,24
WARNING: MAIN(compute_average.py)  --	: There was no instance for the frequency range 1000000. Skipping it
WARNING: MAIN(compute_average.py)  --	: There was no instance for the frequency range bigger. Skipping it

keep 200 relevant triples
file min_freq_50/eval.cosine.max_triples_200.sorting_by_pmi.average_wordnet_path.csv not found, let's create it
INFO: MAIN(compare_k_first_in_wordnet.py)  --	: ======== compare_k_first_in_wordnet.py ========
INFO: MAIN(compare_k_first_in_wordnet.py)  --	:  input file: /home/muntsa/MWE/data/keep_only_relevant_triples/min_freq_50/shelves/thesaurus_cosine.max_triples_200.sorting_by_pmi.shelf
Traceback (most recent call last):
  File "/home/muntsa/RECERCA/Software/MWE/compare_k_first_in_wordnet.py", line 117, in <module>
    with closing(shelve.open(args[0], 'r')) as thes: 
  File "/usr/lib/python2.7/shelve.py", line 239, in open
    return DbfilenameShelf(filename, flag, protocol, writeback)
  File "/usr/lib/python2.7/shelve.py", line 223, in __init__
    Shelf.__init__(self, anydbm.open(filename, flag), protocol, writeback)
  File "/usr/lib/python2.7/anydbm.py", line 79, in open
    raise error, "need 'c' or 'n' flag to open new db"
anydbm.error: need 'c' or 'n' flag to open new db
INFO: MAIN(compute_average.py)  --	: ======== compute_average_per_verbs.py ========
INFO: MAIN(compute_average.py)  --	:     file: min_freq_50/eval.cosine.max_triples_200.sorting_by_pmi.average_wordnet_path.csv
INFO: MAIN(compute_average.py)  --	:     verb freq: /home/muntsa/MWE/data/verb-counts/verb_counts.aprox.min_freq_50.csv
INFO: MAIN(compute_average.py)  --	:     fields: 2,4,6,8,10,12,14,16,18,20,22,24
WARNING: MAIN(compute_average.py)  --	: There was no instance for the frequency range 150. Skipping it
WARNING: MAIN(compute_average.py)  --	: There was no instance for the frequency range 500. Skipping it
WARNING: MAIN(compute_average.py)  --	: There was no instance for the frequency range bigger. Skipping it
INFO: MAIN(compute_average.py)  --	: ======== compute_average_per_verbs.py ========
INFO: MAIN(compute_average.py)  --	:     file: min_freq_50/eval.cosine.max_triples_200.sorting_by_pmi.average_wordnet_path.csv
INFO: MAIN(compute_average.py)  --	:     verb freq: /home/muntsa/MWE/data/verb-counts/verb_counts.aprox.min_freq_50.csv
INFO: MAIN(compute_average.py)  --	:     fields: 2,4,6,8,10,12,14,16,18,20,22,24
WARNING: MAIN(compute_average.py)  --	: There was no instance for the frequency range 1000000. Skipping it
WARNING: MAIN(compute_average.py)  --	: There was no instance for the frequency range bigger. Skipping it

keep 500 relevant triples
file min_freq_50/eval.cosine.max_triples_500.sorting_by_pmi.average_wordnet_path.csv not found, let's create it
INFO: MAIN(compare_k_first_in_wordnet.py)  --	: ======== compare_k_first_in_wordnet.py ========
INFO: MAIN(compare_k_first_in_wordnet.py)  --	:  input file: /home/muntsa/MWE/data/keep_only_relevant_triples/min_freq_50/shelves/thesaurus_cosine.max_triples_500.sorting_by_pmi.shelf
/usr/lib/python2.7/dist-packages/scipy/stats/stats.py:358: RuntimeWarning: invalid value encountered in double_scalars
  m2c = m2 / (n - 1.)
INFO: MAIN(compute_average.py)  --	: ======== compute_average_per_verbs.py ========
INFO: MAIN(compute_average.py)  --	:     file: min_freq_50/eval.cosine.max_triples_500.sorting_by_pmi.average_wordnet_path.csv
INFO: MAIN(compute_average.py)  --	:     verb freq: /home/muntsa/MWE/data/verb-counts/verb_counts.aprox.min_freq_50.csv
INFO: MAIN(compute_average.py)  --	:     fields: 2,4,6,8,10,12,14,16,18,20,22,24
INFO: MAIN(compute_average.py)  --	: ======== compute_average_per_verbs.py ========
INFO: MAIN(compute_average.py)  --	:     file: min_freq_50/eval.cosine.max_triples_500.sorting_by_pmi.average_wordnet_path.csv
INFO: MAIN(compute_average.py)  --	:     verb freq: /home/muntsa/MWE/data/verb-counts/verb_counts.aprox.min_freq_50.csv
INFO: MAIN(compute_average.py)  --	:     fields: 2,4,6,8,10,12,14,16,18,20,22,24
WARNING: MAIN(compute_average.py)  --	: There was no instance for the frequency range bigger. Skipping it

keep 1000 relevant triples
file min_freq_50/eval.cosine.max_triples_1000.sorting_by_pmi.average_wordnet_path.csv not found, let's create it
INFO: MAIN(compare_k_first_in_wordnet.py)  --	: ======== compare_k_first_in_wordnet.py ========
INFO: MAIN(compare_k_first_in_wordnet.py)  --	:  input file: /home/muntsa/MWE/data/keep_only_relevant_triples/min_freq_50/shelves/thesaurus_cosine.max_triples_1000.sorting_by_pmi.shelf
Traceback (most recent call last):
  File "/home/muntsa/RECERCA/Software/MWE/compare_k_first_in_wordnet.py", line 117, in <module>
    with closing(shelve.open(args[0], 'r')) as thes: 
  File "/usr/lib/python2.7/shelve.py", line 239, in open
    return DbfilenameShelf(filename, flag, protocol, writeback)
  File "/usr/lib/python2.7/shelve.py", line 223, in __init__
    Shelf.__init__(self, anydbm.open(filename, flag), protocol, writeback)
  File "/usr/lib/python2.7/anydbm.py", line 79, in open
    raise error, "need 'c' or 'n' flag to open new db"
anydbm.error: need 'c' or 'n' flag to open new db
INFO: MAIN(compute_average.py)  --	: ======== compute_average_per_verbs.py ========
INFO: MAIN(compute_average.py)  --	:     file: min_freq_50/eval.cosine.max_triples_1000.sorting_by_pmi.average_wordnet_path.csv
INFO: MAIN(compute_average.py)  --	:     verb freq: /home/muntsa/MWE/data/verb-counts/verb_counts.aprox.min_freq_50.csv
INFO: MAIN(compute_average.py)  --	:     fields: 2,4,6,8,10,12,14,16,18,20,22,24
WARNING: MAIN(compute_average.py)  --	: There was no instance for the frequency range 150. Skipping it
WARNING: MAIN(compute_average.py)  --	: There was no instance for the frequency range 500. Skipping it
WARNING: MAIN(compute_average.py)  --	: There was no instance for the frequency range bigger. Skipping it
INFO: MAIN(compute_average.py)  --	: ======== compute_average_per_verbs.py ========
INFO: MAIN(compute_average.py)  --	:     file: min_freq_50/eval.cosine.max_triples_1000.sorting_by_pmi.average_wordnet_path.csv
INFO: MAIN(compute_average.py)  --	:     verb freq: /home/muntsa/MWE/data/verb-counts/verb_counts.aprox.min_freq_50.csv
INFO: MAIN(compute_average.py)  --	:     fields: 2,4,6,8,10,12,14,16,18,20,22,24
WARNING: MAIN(compute_average.py)  --	: There was no instance for the frequency range 1000000. Skipping it
WARNING: MAIN(compute_average.py)  --	: There was no instance for the frequency range bigger. Skipping it
line 242: warning: Skipping unreadable file "results.all_verbs.cosine.keep_only_relevant_triples.all_keeps.sorting_by_entropy.csv"
line 242: warning: Skipping unreadable file "results.all_verbs.cosine.keep_only_relevant_triples.all_keeps.sorting_by_entropy.csv"
line 242: warning: Skipping unreadable file "results.all_verbs.cosine.keep_only_relevant_triples.all_keeps.sorting_by_entropy.csv"
line 242: warning: Skipping unreadable file "results.all_verbs.cosine.keep_only_relevant_triples.all_keeps.sorting_by_entropy.csv"
line 242: warning: Skipping unreadable file "results.all_verbs.cosine.keep_only_relevant_triples.all_keeps.sorting_by_entropy.csv"
line 242: warning: Skipping unreadable file "results.all_verbs.cosine.keep_only_relevant_triples.all_keeps.sorting_by_entropy.csv"
line 242: No data in plot

