##		k:	5						10						15						20						50						100					
##		wn_meas:	path			wup			path			wup			path			wup			path			wup			path			wup			path			wup		
## min triple counts	verb freq	verbs	mean	stdev	stdev/sqrt(N)	mean	stdev	stdev/sqrt(N)	mean	stdev	stdev/sqrt(N)	mean	stdev	stdev/sqrt(N)	mean	stdev	stdev/sqrt(N)	mean	stdev	stdev/sqrt(N)	mean	stdev	stdev/sqrt(N)	mean	stdev	stdev/sqrt(N)	mean	stdev	stdev/sqrt(N)	mean	stdev	stdev/sqrt(N)	mean	stdev	stdev/sqrt(N)	mean	stdev	stdev/sqrt(N)
100	150	1133	0.0921846553178	0.10568241944	0.00313969739249	0.0	0.0	0.0	0.0774296680294	0.0729038690291	0.00216588613987	0.0	0.0	0.0	0.0696253584747	0.0597761865765	0.00177587850583	0.0	0.0	0.0	0.0647788896021	0.0524486146504	0.00155818516959	0.0	0.0	0.0	0.0529126350549	0.0385257164691	0.00114455263404	0.0	0.0	0.0	0.0467763032638	0.0332549184678	0.000987963573829	0.0	0.0	0.0	
100	500	1038	0.118014095998	0.119996837253	0.0037245269644	0.0	0.0	0.0	0.0959429983418	0.0836288271972	0.00259571692912	0.0	0.0	0.0	0.0864609453025	0.0701887781232	0.0021785573912	0.0	0.0	0.0	0.0801853677125	0.0624025119091	0.00193688303436	0.0	0.0	0.0	0.0655224885715	0.0466190682707	0.00144698794405	0.0	0.0	0.0	0.0567104470375	0.0401081902667	0.00124489977871	0.0	0.0	0.0	
100	bigger	1041	0.106959898002	0.110453603907	0.00342337540314	0.0	0.0	0.0	0.097215748428	0.0850456351145	0.00263588624633	0.0	0.0	0.0	0.091980765596	0.0764028235324	0.00236801279053	0.0	0.0	0.0	0.0890718001088	0.0711011870976	0.00220369500346	0.0	0.0	0.0	0.0807714851792	0.0625562013713	0.00193885354134	0.0	0.0	0.0	0.0773865612933	0.0603475863356	0.00187040019875	0.0	0.0	0.0	
200	150	1133	0.108991945239	0.115863388785	0.00344216172928	0.0	0.0	0.0	0.0882104568703	0.0793880173373	0.00235852237628	0.0	0.0	0.0	0.0788381162071	0.0646568247365	0.00192087638708	0.0	0.0	0.0	0.0730604195976	0.0574084908712	0.00170553711819	0.0	0.0	0.0	0.0589237606606	0.0417009804388	0.00123888590214	0.0	0.0	0.0	0.0516047463885	0.0359433605397	0.00106783394969	0.0	0.0	0.0	
200	500	1038	0.136372731048	0.131531785004	0.00408255493344	0.0	0.0	0.0	0.11257306331	0.0920977578978	0.00285858019682	0.0	0.0	0.0	0.100884522269	0.0760142337965	0.00235937104623	0.0	0.0	0.0	0.0931750171055	0.0677661728883	0.00210336325502	0.0	0.0	0.0	0.0736415548243	0.0505295445073	0.00156836342794	0.0	0.0	0.0	0.0639114645241	0.0438462429128	0.00136092348561	0.0	0.0	0.0	
200	bigger	1098	0.158568411451	0.134645005395	0.00406339533813	0.0	0.0	0.0	0.134544312084	0.0966368071475	0.00291636181009	0.0	0.0	0.0	0.12292942865	0.0820710032786	0.00247678650343	0.0	0.0	0.0	0.113964857789	0.0735609780464	0.00221996600902	0.0	0.0	0.0	0.0956672636956	0.057911447206	0.00174768535907	0.0	0.0	0.0	0.0871604812735	0.0529949380959	0.00159931208566	0.0	0.0	0.0	
500	150	1133	0.120128497468	0.12210934243	0.00362772148913	0.0	0.0	0.0	0.0979165328871	0.0850436517805	0.00252654446367	0.0	0.0	0.0	0.0874594498199	0.0694826362228	0.0020642454339	0.0	0.0	0.0	0.0807063902796	0.0609841218204	0.00181176480703	0.0	0.0	0.0	0.0654643706342	0.0448637894135	0.00133284914733	0.0	0.0	0.0	0.0572993368732	0.0388767247437	0.00115498066711	0.0	0.0	0.0	
500	500	1038	0.153860654517	0.139273327277	0.00432284112433	0.0	0.0	0.0	0.126394981503	0.0978498327568	0.0030371162183	0.0	0.0	0.0	0.113559110223	0.0825063540985	0.00256087699984	0.0	0.0	0.0	0.104808544478	0.0724807220669	0.00224969599131	0.0	0.0	0.0	0.0836385171131	0.0546208810583	0.00169535255244	0.0	0.0	0.0	0.0714043655642	0.0469341239598	0.00145676681353	0.0	0.0	0.0	
500	bigger	1137	0.202453219115	0.148145005725	0.00439346107238	0.0	0.0	0.0	0.17068704521	0.110644248392	0.00328132018906	0.0	0.0	0.0	0.153772284468	0.0944597566225	0.00280134494982	0.0	0.0	0.0	0.143592182558	0.0850752749511	0.00252303415084	0.0	0.0	0.0	0.117940610053	0.0666238564771	0.00197582981952	0.0	0.0	0.0	0.103742951543	0.0600031570813	0.00177948310554	0.0	0.0	0.0	
1000	150	1133	0.123439279556	0.123845485797	0.00367930021746	0.0	0.0	0.0	0.100921813622	0.0864586588968	0.00256858262079	0.0	0.0	0.0	0.0896680862033	0.0701650171288	0.00208451814872	0.0	0.0	0.0	0.0831888827797	0.0616685477102	0.00183209827586	0.0	0.0	0.0	0.0677786124138	0.0459983294055	0.001366554964	0.0	0.0	0.0	0.059784484746	0.0396976367843	0.00117936897509	0.0	0.0	0.0	
1000	500	1038	0.166161284737	0.141802331543	0.00440133773138	0.0	0.0	0.0	0.136133254363	0.100663267882	0.00312444114474	0.0	0.0	0.0	0.122563058533	0.0837648940127	0.00259994024479	0.0	0.0	0.0	0.113671298816	0.0740687505653	0.00229898608176	0.0	0.0	0.0	0.0899000175401	0.0550493949526	0.00170865299927	0.0	0.0	0.0	0.0772289450297	0.0483351548759	0.00150025277154	0.0	0.0	0.0	
1000	bigger	1143	0.213925099398	0.153992153981	0.00455486467447	0.0	0.0	0.0	0.180641962538	0.113350474567	0.00335274271509	0.0	0.0	0.0	0.163398979913	0.0967307438849	0.0028611551749	0.0	0.0	0.0	0.153332556672	0.0885352785875	0.00261874519225	0.0	0.0	0.0	0.12759792523	0.072163991189	0.00213450624423	0.0	0.0	0.0	0.112681748039	0.0649400326543	0.00192083202325	0.0	0.0	0.0	
