##		k:	5						10						15						20						50						100					
##		wn_meas:	path			wup			path			wup			path			wup			path			wup			path			wup			path			wup		
## min triple counts	verb freq	verbs	mean	stdev	stdev/sqrt(N)	mean	stdev	stdev/sqrt(N)	mean	stdev	stdev/sqrt(N)	mean	stdev	stdev/sqrt(N)	mean	stdev	stdev/sqrt(N)	mean	stdev	stdev/sqrt(N)	mean	stdev	stdev/sqrt(N)	mean	stdev	stdev/sqrt(N)	mean	stdev	stdev/sqrt(N)	mean	stdev	stdev/sqrt(N)	mean	stdev	stdev/sqrt(N)	mean	stdev	stdev/sqrt(N)
10	150	942	0.0567022681062	0.12125154427	0.00395058879054	0.0	0.0	0.0	0.0566905430812	0.121214974984	0.00394939729881	0.0	0.0	0.0	0.0566905430812	0.121214974984	0.00394939729881	0.0	0.0	0.0	0.0566905430812	0.121214974984	0.00394939729881	0.0	0.0	0.0	0.0566905430812	0.121214974984	0.00394939729881	0.0	0.0	0.0	0.0566905430812	0.121214974984	0.00394939729881	0.0	0.0	0.0	
10	500	655	0.063756074361	0.111395565526	0.00435258491574	0.0	0.0	0.0	0.0637653188021	0.11125844466	0.00434722716014	0.0	0.0	0.0	0.0637653188021	0.11125844466	0.00434722716014	0.0	0.0	0.0	0.0637653188021	0.11125844466	0.00434722716014	0.0	0.0	0.0	0.0637653188021	0.11125844466	0.00434722716014	0.0	0.0	0.0	0.0637653188021	0.11125844466	0.00434722716014	0.0	0.0	0.0	
10	bigger	183	0.0607362494316	0.106274039954	0.00785600308839	0.0	0.0	0.0	0.0607362494316	0.106274039954	0.00785600308839	0.0	0.0	0.0	0.0607362494316	0.106274039954	0.00785600308839	0.0	0.0	0.0	0.0607362494316	0.106274039954	0.00785600308839	0.0	0.0	0.0	0.0607362494316	0.106274039954	0.00785600308839	0.0	0.0	0.0	0.0607362494316	0.106274039954	0.00785600308839	0.0	0.0	0.0	
500	150	1133	0.131405773933	0.127327788172	0.00378275522678	0.0	0.0	0.0	0.104600754692	0.0869545321322	0.00258331441736	0.0	0.0	0.0	0.0930046279754	0.0709182131974	0.00210689469673	0.0	0.0	0.0	0.0853398792164	0.0632018075127	0.00187764957785	0.0	0.0	0.0	0.0682679493493	0.0460948246698	0.00136942172208	0.0	0.0	0.0	0.0592972290294	0.0395834675276	0.00117597714398	0.0	0.0	0.0	
500	500	1038	0.161206059515	0.143090796644	0.00444132981051	0.0	0.0	0.0	0.132876592244	0.101223290265	0.00314182342341	0.0	0.0	0.0	0.117881332994	0.0845354323805	0.00262385663286	0.0	0.0	0.0	0.108691773083	0.0742437617953	0.00230441817531	0.0	0.0	0.0	0.0852500159839	0.0547416437329	0.00169910084988	0.0	0.0	0.0	0.0727507393214	0.0465660086579	0.00144534105099	0.0	0.0	0.0	
500	bigger	1137	0.205519717749	0.153637167128	0.00455633930921	0.0	0.0	0.0	0.170133473281	0.110912663975	0.00328928045345	0.0	0.0	0.0	0.152763669504	0.0929091830816	0.0027553603791	0.0	0.0	0.0	0.141427158481	0.0838922233226	0.00248794899052	0.0	0.0	0.0	0.115304037132	0.0639957718324	0.00189789005014	0.0	0.0	0.0	0.101517977995	0.0579943612438	0.00171990926927	0.0	0.0	0.0	
