##		k:	5						10						15						20						50						100					
##		wn_meas:	path			wup			path			wup			path			wup			path			wup			path			wup			path			wup		
## min triple counts	verb freq	verbs	mean	stdev	stdev/sqrt(N)	mean	stdev	stdev/sqrt(N)	mean	stdev	stdev/sqrt(N)	mean	stdev	stdev/sqrt(N)	mean	stdev	stdev/sqrt(N)	mean	stdev	stdev/sqrt(N)	mean	stdev	stdev/sqrt(N)	mean	stdev	stdev/sqrt(N)	mean	stdev	stdev/sqrt(N)	mean	stdev	stdev/sqrt(N)	mean	stdev	stdev/sqrt(N)	mean	stdev	stdev/sqrt(N)
10	150	1133	0.100148531472	0.106574426309	0.00316619784219	0.0	0.0	0.0	0.0845891085476	0.0711639343915	0.00211419477745	0.0	0.0	0.0	0.0770095680682	0.0597391801529	0.00177477908955	0.0	0.0	0.0	0.0722040733785	0.0533184168519	0.00158402594536	0.0	0.0	0.0	0.0614896580289	0.0410748560038	0.00122028449931	0.0	0.0	0.0	0.0557408135216	0.0364179687187	0.00108193398705	0.0	0.0	0.0	
10	500	1038	0.116521304375	0.114297113559	0.00354761584681	0.0	0.0	0.0	0.101096185129	0.0818195871384	0.00253956075418	0.0	0.0	0.0	0.0933598103643	0.0694156273149	0.00215455991678	0.0	0.0	0.0	0.0883015908924	0.0623256856778	0.0019344984601	0.0	0.0	0.0	0.0751126898279	0.0480176872328	0.00149039903852	0.0	0.0	0.0	0.0668792243431	0.041959239079	0.00130235363642	0.0	0.0	0.0	
10	bigger	1146	0.173423400819	0.138379468905	0.00408770315893	0.0	0.0	0.0	0.148931872011	0.102031078992	0.00301397864298	0.0	0.0	0.0	0.137607013567	0.0855414790567	0.00252687900111	0.0	0.0	0.0	0.128835902257	0.0768595973828	0.0022704178698	0.0	0.0	0.0	0.108478246082	0.0614816914953	0.0018161574584	0.0	0.0	0.0	0.0968756164722	0.0547426636211	0.00161708785836	0.0	0.0	0.0	
50	150	1133	0.133975907219	0.123129535997	0.00365803021123	0.0	0.0	0.0	0.111957857112	0.0874547321804	0.00259817475832	0.0	0.0	0.0	0.0997364725096	0.0717273686851	0.00213093373168	0.0	0.0	0.0	0.0932018786345	0.0640461119708	0.00190273284638	0.0	0.0	0.0	0.0749368923236	0.04682180361	0.00139101939078	0.0	0.0	0.0	0.0650837822157	0.0402610592307	0.00119610757736	0.0	0.0	0.0	
50	500	1038	0.171551089751	0.140198231328	0.00435154879825	0.0	0.0	0.0	0.141091180054	0.099515501168	0.00308881613851	0.0	0.0	0.0	0.125396982085	0.0816144837649	0.00253319464435	0.0	0.0	0.0	0.116560706781	0.0723519292753	0.00224569845074	0.0	0.0	0.0	0.0923979040435	0.0545138824067	0.00169203147022	0.0	0.0	0.0	0.0788386900212	0.0463066295185	0.00143729030049	0.0	0.0	0.0	
50	bigger	1146	0.232974208262	0.161050629755	0.00475740493304	0.0	0.0	0.0	0.195130059973	0.116164153578	0.00343146697478	0.0	0.0	0.0	0.177617233939	0.0992812695159	0.00293274979471	0.0	0.0	0.0	0.165458029766	0.0901440831954	0.00266283905086	0.0	0.0	0.0	0.134241811812	0.0705425293101	0.00208381288194	0.0	0.0	0.0	0.116411545894	0.0624801158979	0.00184565072512	0.0	0.0	0.0	
100	150	1133	0.139054554667	0.127472641849	0.00378705865505	0.0	0.0	0.0	0.115326015628	0.0876622306521	0.002604339288	0.0	0.0	0.0	0.103807904787	0.0726915961809	0.00215957976922	0.0	0.0	0.0	0.0966308979816	0.0645114762002	0.00191655825713	0.0	0.0	0.0	0.0780632787207	0.0469702323265	0.00139542902918	0.0	0.0	0.0	0.0682757845108	0.0414751809379	0.00123217767093	0.0	0.0	0.0	
100	500	1038	0.180115472998	0.138370898645	0.00429483105463	0.0	0.0	0.0	0.146089397556	0.0992540482181	0.00308070101994	0.0	0.0	0.0	0.131822201321	0.0829017838305	0.00257315056249	0.0	0.0	0.0	0.122137041954	0.0741226568571	0.00230065925451	0.0	0.0	0.0	0.0971495311126	0.0554881289021	0.00172227066172	0.0	0.0	0.0	0.0833375794336	0.0481575102741	0.00149473894196	0.0	0.0	0.0	
100	bigger	1146	0.244216933445	0.161374277937	0.00476696543869	0.0	0.0	0.0	0.203735177466	0.116950516593	0.00345469598851	0.0	0.0	0.0	0.183861673925	0.0998504458615	0.00294956315557	0.0	0.0	0.0	0.172238188053	0.0912179930145	0.0026945621424	0.0	0.0	0.0	0.13984402971	0.0730603731192	0.00215818950857	0.0	0.0	0.0	0.121599162863	0.0650183427446	0.0019206294628	0.0	0.0	0.0	
500	150	1133	0.14365150768	0.127204742096	0.00377909967607	0.0	0.0	0.0	0.118635259585	0.088007546881	0.00261459821724	0.0	0.0	0.0	0.106249938531	0.0727733318497	0.00216200803749	0.0	0.0	0.0	0.0991606667695	0.0643420584963	0.0019115250612	0.0	0.0	0.0	0.080916587406	0.0487159001013	0.0014472907162	0.0	0.0	0.0	0.0705642918848	0.0425975732665	0.00126552259515	0.0	0.0	0.0	
500	500	1038	0.181464988662	0.13749667138	0.0042676963143	0.0	0.0	0.0	0.151074895186	0.0978733868156	0.00303784730196	0.0	0.0	0.0	0.137010061854	0.083235086228	0.0025834957832	0.0	0.0	0.0	0.127776684104	0.074252665902	0.00230469454581	0.0	0.0	0.0	0.102384315409	0.0562234566711	0.00174509416412	0.0	0.0	0.0	0.0886768892982	0.0492401404586	0.00152834220524	0.0	0.0	0.0	
500	bigger	1146	0.24863026202	0.157732534724	0.0046593890377	0.0	0.0	0.0	0.21331963993	0.119818581224	0.00353941807152	0.0	0.0	0.0	0.194952019734	0.104106396342	0.00307528312229	0.0	0.0	0.0	0.182321665452	0.0948289512899	0.0028012291622	0.0	0.0	0.0	0.149183685037	0.076143068274	0.00224925173638	0.0	0.0	0.0	0.129281314647	0.0670377636583	0.00198028277202	0.0	0.0	0.0	
1000	150	1133	0.138192331986	0.125770653929	0.00373649464392	0.0	0.0	0.0	0.113260635191	0.0867378309406	0.00257687648596	0.0	0.0	0.0	0.103156834469	0.0727390131783	0.00216098847111	0.0	0.0	0.0	0.0969128161843	0.064425867391	0.00191401492252	0.0	0.0	0.0	0.0780009767171	0.0483874508079	0.00143753288329	0.0	0.0	0.0	0.0678977687566	0.04147202073	0.00123208378496	0.0	0.0	0.0	
1000	500	1038	0.183524758532	0.139867881384	0.00434129521739	0.0	0.0	0.0	0.151699028065	0.100539965603	0.00312061402167	0.0	0.0	0.0	0.136497534017	0.0839026663294	0.00260421649673	0.0	0.0	0.0	0.125979147251	0.074284904302	0.00230569517876	0.0	0.0	0.0	0.100291253311	0.0557940044582	0.00173176459325	0.0	0.0	0.0	0.0872816498329	0.0492721368152	0.00152933532552	0.0	0.0	0.0	
1000	bigger	1146	0.248365000328	0.165647314495	0.00489319012486	0.0	0.0	0.0	0.212936921765	0.121242533575	0.00358148135279	0.0	0.0	0.0	0.195878144866	0.105486760532	0.00311605881756	0.0	0.0	0.0	0.182986085322	0.0965816764322	0.00285300432912	0.0	0.0	0.0	0.150701982911	0.0769170672818	0.00227211551968	0.0	0.0	0.0	0.130809376705	0.0679845935588	0.00200825194697	0.0	0.0	0.0	
