##		k:	5						10						15						20						50						100					
##		wn_meas:	path			wup			path			wup			path			wup			path			wup			path			wup			path			wup		
## min triple counts	verb freq	verbs	mean	stdev	stdev/sqrt(N)	mean	stdev	stdev/sqrt(N)	mean	stdev	stdev/sqrt(N)	mean	stdev	stdev/sqrt(N)	mean	stdev	stdev/sqrt(N)	mean	stdev	stdev/sqrt(N)	mean	stdev	stdev/sqrt(N)	mean	stdev	stdev/sqrt(N)	mean	stdev	stdev/sqrt(N)	mean	stdev	stdev/sqrt(N)	mean	stdev	stdev/sqrt(N)	mean	stdev	stdev/sqrt(N)
10	150	1125	0.0908670357529	0.0997110786236	0.00297280999883	0.0	0.0	0.0	0.0806990827447	0.0719299950165	0.00214453811304	0.0	0.0	0.0	0.0748473556608	0.0611649411387	0.00182358621635	0.0	0.0	0.0	0.0716611444749	0.0562925210112	0.00167831871475	0.0	0.0	0.0	0.065165718778	0.048643981177	0.00145028331477	0.0	0.0	0.0	0.062384561448	0.0463162914732	0.001380885016	0.0	0.0	0.0	
10	500	1037	0.112449356144	0.11219454619	0.00348403386766	0.0	0.0	0.0	0.0978551033453	0.0820544071107	0.00254807691705	0.0	0.0	0.0	0.0906409211953	0.0700759212499	0.00217610295005	0.0	0.0	0.0	0.0864955045299	0.0640038422876	0.00198754361744	0.0	0.0	0.0	0.0767000945208	0.0517436169466	0.00160682065216	0.0	0.0	0.0	0.0725764704429	0.0488299887892	0.00151634228647	0.0	0.0	0.0	
10	bigger	1146	0.169494561818	0.136487618173	0.00403181824859	0.0	0.0	0.0	0.14493258184	0.0999791667018	0.00295336554467	0.0	0.0	0.0	0.13275760019	0.0837168124394	0.00247297869671	0.0	0.0	0.0	0.125451018691	0.0759381973106	0.00224319988714	0.0	0.0	0.0	0.107665892474	0.0607627516767	0.00179492011308	0.0	0.0	0.0	0.0986808143512	0.0556049880376	0.0016425607574	0.0	0.0	0.0	
