##		k:	5						10						15						20						50						100					
##		wn_meas:	path			wup			path			wup			path			wup			path			wup			path			wup			path			wup		
## min triple counts	verb freq	verbs	mean	stdev	stdev/sqrt(N)	mean	stdev	stdev/sqrt(N)	mean	stdev	stdev/sqrt(N)	mean	stdev	stdev/sqrt(N)	mean	stdev	stdev/sqrt(N)	mean	stdev	stdev/sqrt(N)	mean	stdev	stdev/sqrt(N)	mean	stdev	stdev/sqrt(N)	mean	stdev	stdev/sqrt(N)	mean	stdev	stdev/sqrt(N)	mean	stdev	stdev/sqrt(N)	mean	stdev	stdev/sqrt(N)
1	1000000	3231	0.178966589214	0.151483809469	0.00266500322602	0.315477781671	0.223339070541	0.00392912843674	0.149372351826	0.110838525353	0.00194994454305	0.281474194881	0.185006605843	0.0032547584005	0.135223710053	0.0958803444495	0.00168679034523	0.264376207928	0.17142767352	0.00301586885465	0.126209846203	0.0872431614085	0.00153483931661	0.253786465612	0.163013620135	0.0028678432703	0.103016981587	0.0694259078842	0.00122138642493	0.222683399195	0.143307917491	0.00252116753446	0.0900729036943	0.0612954159823	0.00107834944148	0.20370007104	0.133002018333	0.00233985934977	
2	1000000	3230	0.153752234951	0.147492958473	0.00259519517922	0.275249718353	0.219136924146	0.00385579823623	0.128385596285	0.108989709766	0.00191771574927	0.246692869475	0.18360635307	0.00323062420943	0.116839583779	0.0936625379672	0.00164802828232	0.232631066685	0.167484178509	0.00294694836394	0.109675826176	0.085406976118	0.00150276850494	0.223511418631	0.158811036055	0.00279434109563	0.0912835173357	0.0682912015307	0.00120160988586	0.199297651194	0.140176383174	0.00246645723038	0.0816273962126	0.0602192024241	0.00105957996535	0.186215296818	0.13016718659	0.00229034157718	
3	1000000	3149	0.141113854742	0.142710751628	0.00254314055277	0.259077856342	0.218371525165	0.00389143407124	0.120607135093	0.106066993678	0.00189013980976	0.234689451182	0.181773402695	0.00323924656366	0.110458173441	0.0914827646247	0.00163024527544	0.222513907966	0.165716409436	0.00295310701043	0.104167380375	0.0838908378006	0.0014949552797	0.215074933535	0.157426570831	0.00280538005579	0.0898648083403	0.0674619096369	0.00120218775536	0.197794186664	0.139005390136	0.00247711010332	0.0817759522161	0.0592176816118	0.00105527359242	0.187652559637	0.128793758946	0.00229513633403	
4	1000000	2976	0.137495618414	0.141415473965	0.00259227140955	0.255597033735	0.217162473816	0.0039807812845	0.119664142162	0.105185425272	0.0019281423948	0.235748517767	0.180656566955	0.00331159554419	0.111071033811	0.0918537955329	0.00168376176483	0.225512794701	0.166118887232	0.00304510694538	0.105564075053	0.0841808520856	0.0015431098873	0.219498698655	0.158697655086	0.00290906915988	0.0918467241806	0.0677007493834	0.00124101494773	0.203145438116	0.139604148619	0.002559068205	0.0852091591167	0.0601611141543	0.0011028067284	0.195736978429	0.130631014634	0.00239458267855	
5	1000000	2814	0.136172086866	0.138503312279	0.00261094734229	0.256392037038	0.216041338393	0.00407262865431	0.120533059545	0.104790788918	0.00197542735492	0.239471988351	0.181328335131	0.00341824846572	0.111465338748	0.0906066223096	0.00170803943835	0.228458647291	0.166093436677	0.00313105304075	0.105988464634	0.0827814754032	0.00156052638481	0.221955131676	0.158062289229	0.00297965663918	0.0941757171168	0.067519731861	0.00127282489895	0.209267345144	0.14098704502	0.00265776857201	0.088367162815	0.0607596471029	0.00114538949655	0.203207650821	0.132709836161	0.00250173362874	
6	1000000	2636	0.133907708745	0.135978315846	0.00264848156889	0.254636829852	0.215414369884	0.00419567623531	0.117952336462	0.102460225104	0.00199564184954	0.236653736864	0.179436054445	0.00349491814217	0.111295593471	0.0892317983182	0.00173798867661	0.229156188207	0.164409167607	0.00320223594074	0.107200976986	0.0829916316476	0.00161644748593	0.224745013831	0.157778408303	0.00307308708568	0.0962959995779	0.0686119819342	0.00133637167388	0.213790627279	0.142336835267	0.00277232794386	0.0915074091726	0.0619840771346	0.00120727841667	0.209832562953	0.13468282893	0.00262324906621	
7	1000000	2465	0.135334051232	0.138177547897	0.00278310133479	0.255633385049	0.218407263571	0.00439904713915	0.119358050464	0.104336403596	0.0021014903545	0.239085174807	0.181609306552	0.00365788155288	0.112760951609	0.0916533983227	0.00184603576407	0.23214904092	0.168511577455	0.00339407380779	0.10846635545	0.0846618122262	0.00170521482106	0.227984661365	0.161212785247	0.00324706527678	0.0997313000072	0.0713799217816	0.00143769779252	0.220283405904	0.146103607499	0.0029427439641	0.0951951670376	0.0651599566624	0.00131241844368	0.217213155821	0.138808473584	0.00279580911653	
8	1000000	2321	0.137551460181	0.138016210913	0.00286478827097	0.26029145466	0.216180802733	0.00448724265056	0.123738153645	0.106161463546	0.00220358256166	0.246336724303	0.183943939932	0.00381810541057	0.116514434184	0.0926158455704	0.00192241756487	0.23902552015	0.169829678624	0.00352513714271	0.112282843614	0.0859086192061	0.00178319635823	0.23504445403	0.162300011222	0.00336884461217	0.102445370217	0.0725605036602	0.00150613089902	0.22631430673	0.147485800806	0.00306134757279	0.0977582437153	0.0663791911401	0.00137782603186	0.222693233349	0.140060925477	0.00290723020051	
9	1000000	2211	0.137464436324	0.136388577572	0.00290057185616	0.26190142025	0.216173119286	0.00459734735138	0.125012844981	0.105646005829	0.00224677048972	0.249476711768	0.184286036313	0.00391920569837	0.118429059454	0.0931141093194	0.0019802550163	0.243063272604	0.171213747334	0.00364119771425	0.113670341603	0.086337634957	0.00183613993593	0.238258750552	0.163296221777	0.00347281593177	0.104047332872	0.0725882524314	0.00154373222332	0.230188771814	0.14778651464	0.00314297144759	0.0999056586536	0.0668049993909	0.0014207399515	0.227516232267	0.140830402431	0.00299503601442	
10	1000000	2117	0.136704160299	0.135042968724	0.0029350232623	0.262577767637	0.216297807939	0.00470101556477	0.124962495169	0.104876613078	0.00227938782716	0.251756549758	0.185739948283	0.00403687118328	0.118702818955	0.0926913488458	0.00201455335029	0.245442224635	0.172218902118	0.00374300482801	0.115164587336	0.0869007361254	0.00188870020001	0.242331478194	0.165353768456	0.00359379804452	0.10592016993	0.0737441660223	0.00160275536579	0.234258841073	0.149788240001	0.00325549692053	0.102350381057	0.0681278948402	0.0014806913537	0.232814097804	0.143421457339	0.00311712129538	
20	1000000	1501	0.149501742236	0.131327332417	0.00338972742148	0.29351159299	0.213078410427	0.00549982792961	0.138793401482	0.10501796411	0.00271064877461	0.283577058575	0.185749482849	0.00479443314617	0.132889114928	0.0942301271402	0.0024322008223	0.277385209828	0.17473089879	0.00451002931458	0.129756995428	0.0881230040696	0.00227456811814	0.274653593153	0.167919899735	0.00433422866563	0.123705321068	0.0771705782203	0.00199187191508	0.272479363088	0.156904536726	0.0040499079735	0.121463445524	0.0729842656368	0.001883817801	0.272943767778	0.152444331817	0.00393478434608	
30	1000000	1147	0.15942383765	0.141809957233	0.00418721264761	0.310695289255	0.218007276957	0.00643708555558	0.148098479045	0.110470349986	0.00326185026546	0.30011058105	0.185899356184	0.00548903723394	0.142929702177	0.100098744433	0.00295560859674	0.295365372296	0.175848830205	0.00519227605924	0.140273602105	0.0946037567417	0.00279335848109	0.293750535788	0.169824665542	0.00501440097231	0.13635519079	0.0859172984389	0.00253687403685	0.295707513174	0.162200037423	0.00478926911334	0.135224013053	0.0831037027103	0.00245379719338	0.297723093002	0.159821715134	0.00471904455814	
50	1000000	757	0.172370546732	0.144374785544	0.00524739083442	0.328736263757	0.219423161987	0.00797507047184	0.164350858235	0.119911045614	0.00435824108297	0.326596449014	0.19519064709	0.00709432473716	0.161407126836	0.113751336836	0.00413436265944	0.326082767684	0.189575488939	0.00689023834279	0.159480627708	0.110539756785	0.00401763579705	0.327189758515	0.18711759869	0.0068009048022	0.157275588736	0.105044249873	0.00381789820097	0.331424954639	0.181381503352	0.00659242287104	0.156281753542	0.102904362893	0.00374012268577	0.331933725554	0.179086150326	0.00650899684632	
