\relax 
\providecommand\hyper@newdestlabel[2]{}
\citation{fellbaum1998wordnet}
\citation{kipper2000class}
\citation{marrafa2001wordnet}
\citation{padronothing}
\citation{litkowski2000syntactic}
\citation{mccarthy2009english}
\citation{glorot2011domain}
\@writefile{toc}{\contentsline {chapter}{1~Introdu\IeC {\c c}\IeC {\~a}o}{11}{CHAPTER.1}}
\@writefile{lof}{\addvspace {10\p@ }}
\@writefile{lot}{\addvspace {10\p@ }}
\@writefile{toc}{\contentsline {section}{\numberline {1.1}Motiva\IeC {\c c}\IeC {\~a}o}{11}{section.1.1}}
\citation{Harris1954word}
\@writefile{lot}{\contentsline {table}{\numberline {1.1}{\ignorespaces Exemplo de palavras relacionadas em um tesauro}}{12}{table.1.1}}
\newlabel{tbl:exemplo_tesauro}{{1.1}{12}{Exemplo de palavras relacionadas em um tesauro}{table.1.1}{}}
\@writefile{toc}{\contentsline {section}{\numberline {1.2}Estrutura do trabalho}{12}{section.1.2}}
\@setckpt{cap1_introducao}{
\setcounter{page}{13}
\setcounter{equation}{0}
\setcounter{enumi}{3}
\setcounter{enumii}{0}
\setcounter{enumiii}{0}
\setcounter{enumiv}{0}
\setcounter{footnote}{3}
\setcounter{mpfootnote}{0}
\setcounter{part}{0}
\setcounter{chapter}{1}
\setcounter{section}{2}
\setcounter{subsection}{0}
\setcounter{subsubsection}{0}
\setcounter{paragraph}{0}
\setcounter{subparagraph}{0}
\setcounter{figure}{0}
\setcounter{table}{1}
\setcounter{newflo@tctr}{4}
\setcounter{Item}{3}
\setcounter{Hfootnote}{3}
\setcounter{bookmark@seq@number}{10}
\setcounter{ABCIaux}{0}
\setcounter{ABCImax}{0}
\setcounter{ii@authorcount}{1}
\setcounter{kwcounter}{5}
\setcounter{schapter}{7}
\setcounter{@pps}{0}
\setcounter{@ppsavesec}{0}
\setcounter{@ppsaveapp}{0}
\setcounter{section@level}{0}
}
