\relax 
\providecommand\hyper@newdestlabel[2]{}
\citation{Lin1998automatic}
\citation{Harris1954word}
\citation{Firth1957synopsis}
\citation{baroni2014don}
\citation{mikolov2013distributed}
\citation{Lin1998automatic}
\citation{padro2014comparing}
\citation{fellbaum1998wordnet}
\@writefile{toc}{\contentsline {chapter}{2~Trabalhos Relacionados}{13}{CHAPTER.2}}
\@writefile{lof}{\addvspace {10\p@ }}
\@writefile{lot}{\addvspace {10\p@ }}
\@writefile{toc}{\contentsline {section}{\numberline {2.1}Modelo de contagem}{13}{section.2.1}}
\citation{padronothing}
\citation{lebret2015computational}
\citation{mikolov2010recurrent}
\citation{mikolov2011rnnlm}
\citation{mikolov2013linguistic}
\citation{mikolov2013linguistic}
\citation{mikolov2013linguistic}
\@writefile{toc}{\contentsline {section}{\numberline {2.2}Modelo preditivo}{15}{section.2.2}}
\@writefile{lof}{\contentsline {figure}{\numberline {2.1}{\ignorespaces Rede neural recorrente de utilizada no modelo preditivo.}}{15}{figure.2.1}}
\newlabel{fig:rnr}{{2.1}{15}{Rede neural recorrente de utilizada no modelo preditivo}{figure.2.1}{}}
\citation{baroni2014don}
\citation{Freitag2005New}
\citation{Freitag2005New}
\citation{Freitag2005New}
\citation{wilkens2015}
\@writefile{toc}{\contentsline {subsection}{\numberline {2.2.1}Avalia\IeC {\c c}\IeC {\~a}o}{16}{subsection.2.2.1}}
\citation{baroni2014don}
\citation{wilkens2015}
\citation{baroni2014don}
\@writefile{lof}{\contentsline {figure}{\numberline {2.2}{\ignorespaces Exemplo de perguntas do WBST}}{17}{figure.2.2}}
\newlabel{fig:estrutura}{{2.2}{17}{Exemplo de perguntas do WBST}{figure.2.2}{}}
\@setckpt{cap2_trabalhos_relacionados}{
\setcounter{page}{18}
\setcounter{equation}{0}
\setcounter{enumi}{3}
\setcounter{enumii}{0}
\setcounter{enumiii}{0}
\setcounter{enumiv}{0}
\setcounter{footnote}{1}
\setcounter{mpfootnote}{0}
\setcounter{part}{0}
\setcounter{chapter}{2}
\setcounter{section}{2}
\setcounter{subsection}{1}
\setcounter{subsubsection}{0}
\setcounter{paragraph}{0}
\setcounter{subparagraph}{0}
\setcounter{figure}{2}
\setcounter{table}{0}
\setcounter{newflo@tctr}{4}
\setcounter{Item}{3}
\setcounter{Hfootnote}{4}
\setcounter{bookmark@seq@number}{14}
\setcounter{ABCIaux}{0}
\setcounter{ABCImax}{0}
\setcounter{ii@authorcount}{1}
\setcounter{kwcounter}{5}
\setcounter{schapter}{7}
\setcounter{@pps}{0}
\setcounter{@ppsavesec}{0}
\setcounter{@ppsaveapp}{0}
\setcounter{section@level}{0}
}
