\relax 
\providecommand\hyper@newdestlabel[2]{}
\citation{baroni2009wacky}
\citation{johansson2008dependency}
\citation{boos2014brwac}
\@writefile{toc}{\contentsline {chapter}{3~Materiais e M\IeC {\'e}todos}{18}{CHAPTER.3}}
\@writefile{lof}{\addvspace {10\p@ }}
\@writefile{lot}{\addvspace {10\p@ }}
\@writefile{toc}{\contentsline {section}{\numberline {3.1}Corpora}{18}{section.3.1}}
\citation{schmid1995improvements}
\@writefile{toc}{\contentsline {subsection}{\numberline {3.1.1}PukWaC}{19}{subsection.3.1.1}}
\@writefile{lot}{\contentsline {table}{\numberline {3.1}{\ignorespaces Senten\IeC {\c c}a ``\textit  {Not many prawn sandwiches were eaten.}'' extra\IeC {\'\i }da do PukWaC pelo MaltParser}}{19}{table.3.1}}
\newlabel{tbl:exemplo_pukwac}{{3.1}{19}{Sentença ``\textit {Not many prawn sandwiches were eaten.}'' extraída do PukWaC pelo MaltParser}{table.3.1}{}}
\@writefile{lof}{\contentsline {figure}{\numberline {3.1}{\ignorespaces \IeC {\'A}rvore de depend\IeC {\^e}ncia da frase ``\textit  {Not many prawn sandwiches were eaten.}" pelo MaltParser}}{19}{figure.3.1}}
\newlabel{fig:arvore}{{3.1}{19}{Árvore de dependência da frase ``\textit {Not many prawn sandwiches were eaten.}" pelo MaltParser}{figure.3.1}{}}
\@writefile{toc}{\contentsline {subsection}{\numberline {3.1.2}brWaC}{20}{subsection.3.1.2}}
\@writefile{lot}{\contentsline {table}{\numberline {3.2}{\ignorespaces Senten\IeC {\c c}a ``\textit  {Vamos avaliar este ponto de vista.}'' extra\IeC {\'\i }da do brWaC pelo TreeTagger}}{20}{table.3.2}}
\newlabel{tbl:exemplo_brwac}{{3.2}{20}{Sentença ``\textit {Vamos avaliar este ponto de vista.}'' extraída do brWaC pelo TreeTagger}{table.3.2}{}}
\@writefile{toc}{\contentsline {section}{\numberline {3.2}Constru\IeC {\c c}\IeC {\~a}o dos tesauros}{20}{section.3.2}}
\@writefile{toc}{\contentsline {subsection}{\numberline {3.2.1}Pr\IeC {\'e}-processamento e filtragem}{20}{subsection.3.2.1}}
\citation{padronothing}
\@writefile{lof}{\contentsline {figure}{\numberline {3.2}{\ignorespaces BoW de tamanho 3 da palavra \textit  {galaxy}.}}{21}{figure.3.2}}
\newlabel{fig:bow}{{3.2}{21}{BoW de tamanho 3 da palavra \textit {galaxy}}{figure.3.2}{}}
\@writefile{toc}{\contentsline {subsection}{\numberline {3.2.2}Modelo de contagem}{21}{subsection.3.2.2}}
\newlabel{contagem}{{3.2.2}{21}{Modelo de contagem}{subsection.3.2.2}{}}
\@writefile{lof}{\contentsline {figure}{\numberline {3.3}{\ignorespaces Vetores de palavras formando um espa\IeC {\c c}o sem\IeC {\^a}ntico}}{21}{figure.3.3}}
\newlabel{fig:espaco}{{3.3}{21}{Vetores de palavras formando um espaço semântico}{figure.3.3}{}}
\citation{baroni2014don}
\citation{mikolov2013efficient}
\@writefile{lof}{\contentsline {figure}{\numberline {3.4}{\ignorespaces Angulos entre vetores de palavras}}{22}{figure.3.4}}
\newlabel{fig:angulos}{{3.4}{22}{Angulos entre vetores de palavras}{figure.3.4}{}}
\@writefile{toc}{\contentsline {subsection}{\numberline {3.2.3}Modelo preditivo}{22}{subsection.3.2.3}}
\newlabel{preditivo}{{3.2.3}{22}{Modelo preditivo}{subsection.3.2.3}{}}
\citation{rubenstein1965contextual}
\citation{finkelstein2001placing}
\citation{agirre2009study}
\citation{miller1991contextual}
\citation{bruni2014multimodal}
\citation{huang2012improving}
\@writefile{lof}{\contentsline {figure}{\numberline {3.5}{\ignorespaces Processo do modelo de contagem.}}{23}{figure.3.5}}
\newlabel{fig:processo_contagem}{{3.5}{23}{Processo do modelo de contagem}{figure.3.5}{}}
\@writefile{toc}{\contentsline {section}{\numberline {3.3}Avalia\IeC {\c c}\IeC {\~a}o}{23}{section.3.3}}
\citation{Freitag2005New}
\citation{reddy2011dynamic}
\citation{reddy2011dynamic}
\citation{reddy2011dynamic}
\@writefile{lot}{\contentsline {table}{\numberline {3.3}{\ignorespaces Vetores das palavras constituintes do composto \textit  {house hunting}}}{24}{table.3.3}}
\newlabel{tbl:vetores_reddy}{{3.3}{24}{Vetores das palavras constituintes do composto \textit {house hunting}}{table.3.3}{}}
\citation{villavicencio2015}
\@setckpt{cap3_materiais_metodos}{
\setcounter{page}{26}
\setcounter{equation}{0}
\setcounter{enumi}{2}
\setcounter{enumii}{0}
\setcounter{enumiii}{0}
\setcounter{enumiv}{0}
\setcounter{footnote}{3}
\setcounter{mpfootnote}{0}
\setcounter{part}{0}
\setcounter{chapter}{3}
\setcounter{section}{3}
\setcounter{subsection}{0}
\setcounter{subsubsection}{0}
\setcounter{paragraph}{0}
\setcounter{subparagraph}{0}
\setcounter{figure}{5}
\setcounter{table}{3}
\setcounter{newflo@tctr}{4}
\setcounter{Item}{9}
\setcounter{Hfootnote}{7}
\setcounter{bookmark@seq@number}{23}
\setcounter{ABCIaux}{0}
\setcounter{ABCImax}{0}
\setcounter{ii@authorcount}{1}
\setcounter{kwcounter}{5}
\setcounter{schapter}{7}
\setcounter{@pps}{0}
\setcounter{@ppsavesec}{0}
\setcounter{@ppsaveapp}{0}
\setcounter{section@level}{0}
}
