\relax 
\providecommand\hyper@newdestlabel[2]{}
\@writefile{toc}{\contentsline {chapter}{1~Introdu\IeC {\c c}\IeC {\~a}o}{10}{CHAPTER.1}}
\@writefile{lof}{\addvspace {10\p@ }}
\@writefile{lot}{\addvspace {10\p@ }}
\@writefile{toc}{\contentsline {section}{\numberline {1.1}Figuras e tabelas}{10}{section.1.1}}
\@writefile{lof}{\contentsline {figure}{\numberline {1.1}{\ignorespaces Descri\IeC {\c c}\IeC {\~a}o da Figura deve ir no topo}}{10}{figure.1.1}}
\newlabel{fig:estrutura}{{1.1}{10}{Descrição da Figura deve ir no topo}{figure.1.1}{}}
\@writefile{toc}{\contentsline {subsection}{\numberline {1.1.1}Formato de Figuras}{10}{subsection.1.1.1}}
\newlabel{sec:fig_format}{{1.1.1}{10}{Formato de Figuras}{subsection.1.1.1}{}}
\@writefile{lof}{\contentsline {figure}{\numberline {1.2}{\ignorespaces Exemplo de figura importada de um arquivo e tamb\IeC {\'e}m exemplo de caption muito grande que ocupa mais de uma linha na Lista~de~Figuras}}{10}{figure.1.2}}
\newlabel{fig:ex1}{{1.2}{10}{Exemplo de figura importada de um arquivo e também exemplo de caption muito grande que ocupa mais de uma linha na Lista~de~Figuras}{figure.1.2}{}}
\citation{Adams2009Conceptual}
\citation{Adams2009Conceptual}
\@writefile{lof}{\contentsline {figure}{\numberline {1.3}{\ignorespaces Exemplo de figura desenhada com o environment \texttt  {picture}.}}{11}{figure.1.3}}
\newlabel{fig:ex2}{{1.3}{11}{Exemplo de figura desenhada com o environment \texttt {picture}}{figure.1.3}{}}
\@writefile{lot}{\contentsline {table}{\numberline {1.1}{\ignorespaces Uma tabela de Exemplo}}{11}{table.1.1}}
\newlabel{tbl:ex1}{{1.1}{11}{Uma tabela de Exemplo}{table.1.1}{}}
\@writefile{toc}{\contentsline {subsection}{\numberline {1.1.2}Classifica\IeC {\c c}\IeC {\~a}o dos etc.}{11}{subsection.1.1.2}}
\@writefile{toc}{\contentsline {section}{\numberline {1.2}Sobre as refer\IeC {\^e}ncias bibliogr\IeC {\'a}ficas}{11}{section.1.2}}
\citation{Adams2009Conceptual}
\citation{Adams2009Conceptual}
\citation{Adams2009Conceptual}
\citation{Adams2009Conceptual}
\@setckpt{introducao}{
\setcounter{page}{13}
\setcounter{equation}{0}
\setcounter{enumi}{0}
\setcounter{enumii}{0}
\setcounter{enumiii}{0}
\setcounter{enumiv}{0}
\setcounter{footnote}{0}
\setcounter{mpfootnote}{0}
\setcounter{part}{0}
\setcounter{chapter}{1}
\setcounter{section}{2}
\setcounter{subsection}{0}
\setcounter{subsubsection}{0}
\setcounter{paragraph}{0}
\setcounter{subparagraph}{0}
\setcounter{figure}{3}
\setcounter{table}{1}
\setcounter{newflo@tctr}{4}
\setcounter{Item}{0}
\setcounter{Hfootnote}{0}
\setcounter{bookmark@seq@number}{12}
\setcounter{ABCIaux}{0}
\setcounter{ABCImax}{0}
\setcounter{ii@authorcount}{1}
\setcounter{kwcounter}{6}
\setcounter{schapter}{7}
\setcounter{section@level}{0}
}
