\relax 
\providecommand\hyper@newdestlabel[2]{}
\catcode `"\active 
\providecommand\HyperFirstAtBeginDocument{\AtBeginDocument}
\HyperFirstAtBeginDocument{\ifx\hyper@anchor\@undefined
\global\let\oldcontentsline\contentsline
\gdef\contentsline#1#2#3#4{\oldcontentsline{#1}{#2}{#3}}
\global\let\oldnewlabel\newlabel
\gdef\newlabel#1#2{\newlabelxx{#1}#2}
\gdef\newlabelxx#1#2#3#4#5#6{\oldnewlabel{#1}{{#2}{#3}}}
\AtEndDocument{\ifx\hyper@anchor\@undefined
\let\contentsline\oldcontentsline
\let\newlabel\oldnewlabel
\fi}
\fi}
\global\let\hyper@last\relax 
\gdef\HyperFirstAtBeginDocument#1{#1}
\providecommand\HyField@AuxAddToFields[1]{}
\providecommand\HyField@AuxAddToCoFields[2]{}
\citation{abnt-url-package=url}
\citation{abnt-emphasize=bf}
\select@language{brazilian}
\@writefile{toc}{\select@language{brazilian}}
\@writefile{lof}{\select@language{brazilian}}
\@writefile{lot}{\select@language{brazilian}}
\@writefile{lof}{\addvspace {10\p@ }}
\@writefile{lot}{\addvspace {10\p@ }}
\@input{resumo.aux}
\@input{lista_abreviaturas.aux}
\@input{lista_simbolos.aux}
\@writefile{lof}{\addvspace {10\p@ }}
\@writefile{lot}{\addvspace {10\p@ }}
\tocstyle@set@width {unum}{lof}{}{21.0pt}
\tocstyle@set@width {num}{lof}{1}{21.0pt}
\tocstyle@set@width {skip}{lof}{1}{18.0pt}
\@writefile{lof}{\addvspace {10\p@ }}
\@writefile{lot}{\addvspace {10\p@ }}
\tocstyle@set@width {unum}{lot}{}{21.0pt}
\tocstyle@set@width {num}{lot}{1}{21.0pt}
\tocstyle@set@width {skip}{lot}{1}{18.0pt}
\@writefile{lof}{\addvspace {10\p@ }}
\@writefile{lot}{\addvspace {10\p@ }}
\tocstyle@set@width {unum}{toc}{}{30.0pt}
\tocstyle@set@width {skip}{toc}{0}{0.0pt}
\tocstyle@set@width {num}{toc}{1}{21.0pt}
\tocstyle@set@width {skip}{toc}{1}{18.0pt}
\tocstyle@set@width {num}{toc}{2}{30.0pt}
\tocstyle@set@width {skip}{toc}{2}{39.0pt}
\@input{cap1_introducao.aux}
\@input{cap2_trabalhos_relacionados.aux}
\@input{cap3_materiais_metodos.aux}
\bibstyle{abntex2-alf}
\bibdata{abntex2-options,biblio}
\bibcite{agirre2009study}{Agirre et al. 2009}
\bibciteEXPL{agirre2009study}{Agirre et al.}
\bibciteIMPL{agirre2009study}{AGIRRE et al.}
\bibciteYEAR{agirre2009study}{2009}
\bibcite{baroni2009wacky}{Baroni et al. 2009}
\bibciteEXPL{baroni2009wacky}{Baroni et al.}
\bibciteIMPL{baroni2009wacky}{BARONI et al.}
\bibciteYEAR{baroni2009wacky}{2009}
\bibcite{baroni2014don}{Baroni, Dinu e Kruszewski 2014}
\bibciteEXPL{baroni2014don}{Baroni, Dinu e Kruszewski}
\bibciteIMPL{baroni2014don}{BARONI; DINU; KRUSZEWSKI}
\bibciteYEAR{baroni2014don}{2014}
\bibcite{boos2014brwac}{Boos et al. 2014}
\bibciteEXPL{boos2014brwac}{Boos et al.}
\bibciteIMPL{boos2014brwac}{BOOS et al.}
\bibciteYEAR{boos2014brwac}{2014}
\bibcite{bruni2014multimodal}{Bruni, Tran e Baroni 2014}
\bibciteEXPL{bruni2014multimodal}{Bruni, Tran e Baroni}
\bibciteIMPL{bruni2014multimodal}{BRUNI; TRAN; BARONI}
\bibciteYEAR{bruni2014multimodal}{2014}
\bibcite{fellbaum1998wordnet}{Fellbaum 1998}
\bibciteEXPL{fellbaum1998wordnet}{Fellbaum}
\bibciteIMPL{fellbaum1998wordnet}{FELLBAUM}
\bibciteYEAR{fellbaum1998wordnet}{1998}
\bibcite{finkelstein2001placing}{Finkelstein et al. 2001}
\bibciteEXPL{finkelstein2001placing}{Finkelstein et al.}
\bibciteIMPL{finkelstein2001placing}{FINKELSTEIN et al.}
\bibciteYEAR{finkelstein2001placing}{2001}
\bibcite{Firth1957synopsis}{Firth 1957}
\bibciteEXPL{Firth1957synopsis}{Firth}
\bibciteIMPL{Firth1957synopsis}{FIRTH}
\bibciteYEAR{Firth1957synopsis}{1957}
\bibcite{Freitag2005New}{Freitag et al. 2005}
\bibciteEXPL{Freitag2005New}{Freitag et al.}
\bibciteIMPL{Freitag2005New}{FREITAG et al.}
\bibciteYEAR{Freitag2005New}{2005}
\bibcite{glorot2011domain}{Glorot, Bordes e Bengio 2011}
\bibciteEXPL{glorot2011domain}{Glorot, Bordes e Bengio}
\bibciteIMPL{glorot2011domain}{GLOROT; BORDES; BENGIO}
\bibciteYEAR{glorot2011domain}{2011}
\bibcite{goncalo2010onto}{{Gon\c {c}alo~Oliveira} e Gomes 2010}
\bibciteEXPL{goncalo2010onto}{{Gon\c {c}alo~Oliveira} e Gomes}
\bibciteIMPL{goncalo2010onto}{{Gon\c {c}alo~Oliveira}; GOMES}
\bibciteYEAR{goncalo2010onto}{2010}
\bibcite{Harris1954word}{Harris 1954}
\bibciteEXPL{Harris1954word}{Harris}
\bibciteIMPL{Harris1954word}{HARRIS}
\bibciteYEAR{Harris1954word}{1954}
\bibcite{huang2012improving}{Huang et al. 2012}
\bibciteEXPL{huang2012improving}{Huang et al.}
\bibciteIMPL{huang2012improving}{HUANG et al.}
\bibciteYEAR{huang2012improving}{2012}
\bibcite{johansson2008dependency}{Johansson 2007}
\bibciteEXPL{johansson2008dependency}{Johansson}
\bibciteIMPL{johansson2008dependency}{JOHANSSON}
\bibciteYEAR{johansson2008dependency}{2007}
\@writefile{toc}{\contentsline {chapter}{\xspace  {}Refer{\^e}ncias}{26}{schapter.8}}
\@writefile{lof}{\addvspace {10\p@ }}
\@writefile{lot}{\addvspace {10\p@ }}
\bibcite{kipper2000class}{Kipper et al. 2000}
\bibciteEXPL{kipper2000class}{Kipper et al.}
\bibciteIMPL{kipper2000class}{KIPPER et al.}
\bibciteYEAR{kipper2000class}{2000}
\bibcite{lebret2015computational}{Lebret e Collobert 2015}
\bibciteEXPL{lebret2015computational}{Lebret e Collobert}
\bibciteIMPL{lebret2015computational}{LEBRET; COLLOBERT}
\bibciteYEAR{lebret2015computational}{2015}
\bibcite{Lin1998automatic}{Lin 1998}
\bibciteEXPL{Lin1998automatic}{Lin}
\bibciteIMPL{Lin1998automatic}{LIN}
\bibciteYEAR{Lin1998automatic}{1998}
\bibcite{litkowski2000syntactic}{Litkowski 2000}
\bibciteEXPL{litkowski2000syntactic}{Litkowski}
\bibciteIMPL{litkowski2000syntactic}{LITKOWSKI}
\bibciteYEAR{litkowski2000syntactic}{2000}
\bibcite{marrafa2001wordnet}{Marrafa e Couto 2001}
\bibciteEXPL{marrafa2001wordnet}{Marrafa e Couto}
\bibciteIMPL{marrafa2001wordnet}{MARRAFA; COUTO}
\bibciteYEAR{marrafa2001wordnet}{2001}
\bibcite{mccarthy2009english}{McCarthy e Navigli 2009}
\bibciteEXPL{mccarthy2009english}{McCarthy e Navigli}
\bibciteIMPL{mccarthy2009english}{MCCARTHY; NAVIGLI}
\bibciteYEAR{mccarthy2009english}{2009}
\bibcite{mikolov2013efficient}{Mikolov et al. 2013}
\bibciteEXPL{mikolov2013efficient}{Mikolov et al.}
\bibciteIMPL{mikolov2013efficient}{MIKOLOV et al.}
\bibciteYEAR{mikolov2013efficient}{2013}
\bibcite{mikolov2010recurrent}{Mikolov et al. 2010}
\bibciteEXPL{mikolov2010recurrent}{Mikolov et al.}
\bibciteIMPL{mikolov2010recurrent}{MIKOLOV et al.}
\bibciteYEAR{mikolov2010recurrent}{2010}
\bibcite{mikolov2011rnnlm}{Mikolov et al. 2011}
\bibciteEXPL{mikolov2011rnnlm}{Mikolov et al.}
\bibciteIMPL{mikolov2011rnnlm}{MIKOLOV et al.}
\bibciteYEAR{mikolov2011rnnlm}{2011}
\bibcite{mikolov2013distributed}{Mikolov et al. 2013}
\bibciteEXPL{mikolov2013distributed}{Mikolov et al.}
\bibciteIMPL{mikolov2013distributed}{MIKOLOV et al.}
\bibciteYEAR{mikolov2013distributed}{2013}
\bibcite{mikolov2013linguistic}{Mikolov, Yih e Zweig 2013}
\bibciteEXPL{mikolov2013linguistic}{Mikolov, Yih e Zweig}
\bibciteIMPL{mikolov2013linguistic}{MIKOLOV; YIH; ZWEIG}
\bibciteYEAR{mikolov2013linguistic}{2013}
\bibcite{miller1991contextual}{Miller e Charles 1991}
\bibciteEXPL{miller1991contextual}{Miller e Charles}
\bibciteIMPL{miller1991contextual}{MILLER; CHARLES}
\bibciteYEAR{miller1991contextual}{1991}
\bibcite{padronothing}{Padr{\'o} et al. 2014}
\bibciteEXPL{padronothing}{Padr{\'o} et al.}
\bibciteIMPL{padronothing}{PADR{\'O} et al.}
\bibciteYEAR{padronothing}{2014a}
\bibcite{padro2014comparing}{Padr{\'o} et al. 2014}
\bibciteEXPL{padro2014comparing}{Padr{\'o} et al.}
\bibciteIMPL{padro2014comparing}{PADR{\'O} et al.}
\bibciteYEAR{padro2014comparing}{2014b}
\bibcite{coling2012}{Paiva, Rademaker e Melo 2012}
\bibciteEXPL{coling2012}{Paiva, Rademaker e Melo}
\bibciteIMPL{coling2012}{PAIVA; RADEMAKER; MELO}
\bibciteYEAR{coling2012}{2012}
\bibcite{reddy2011dynamic}{Reddy et al. 2011}
\bibciteEXPL{reddy2011dynamic}{Reddy et al.}
\bibciteIMPL{reddy2011dynamic}{REDDY et al.}
\bibciteYEAR{reddy2011dynamic}{2011}
\bibcite{rubenstein1965contextual}{Rubenstein e Goodenough 1965}
\bibciteEXPL{rubenstein1965contextual}{Rubenstein e Goodenough}
\bibciteIMPL{rubenstein1965contextual}{RUBENSTEIN; GOODENOUGH}
\bibciteYEAR{rubenstein1965contextual}{1965}
\bibcite{schmid1995improvements}{Schmid 1995}
\bibciteEXPL{schmid1995improvements}{Schmid}
\bibciteIMPL{schmid1995improvements}{SCHMID}
\bibciteYEAR{schmid1995improvements}{1995}
\bibcite{dias2008automatic}{Silva, Felippo e Nunes 2008}
\bibciteEXPL{dias2008automatic}{Silva, Felippo e Nunes}
\bibciteIMPL{dias2008automatic}{SILVA; FELIPPO; NUNES}
\bibciteYEAR{dias2008automatic}{2008}
\newlabel{LastPage}{{}{28}{}{page.28}{}}
\xdef\lastpage@lastpage{28}
\xdef\lastpage@lastpageHy{28}
