\select@language {brazilian}
\addvspace {10\p@ }
\addvspace {10\p@ }
\select@language {english}
\addvspace {10\p@ }
\select@language {brazilian}
\addvspace {10\p@ }
\addvspace {10\p@ }
\addvspace {10\p@ }
\addvspace {10\p@ }
\addvspace {10\p@ }
\addvspace {10\p@ }
\contentsline {figure}{\numberline {2.1}{\ignorespaces Rede neural recorrente de utilizada no modelo preditivo.}}{15}{figure.2.1}
\contentsline {figure}{\numberline {2.2}{\ignorespaces Exemplo de perguntas do WBST}}{17}{figure.2.2}
\addvspace {10\p@ }
\contentsline {figure}{\numberline {3.1}{\ignorespaces \IeC {\'A}rvore de depend\IeC {\^e}ncia da frase ``\textit {Not many prawn sandwiches were eaten.}" pelo MaltParser}}{19}{figure.3.1}
\contentsline {figure}{\numberline {3.2}{\ignorespaces BoW de tamanho 3 da palavra \textit {galaxy}.}}{21}{figure.3.2}
\contentsline {figure}{\numberline {3.3}{\ignorespaces Vetores de palavras formando um espa\IeC {\c c}o sem\IeC {\^a}ntico}}{21}{figure.3.3}
\contentsline {figure}{\numberline {3.4}{\ignorespaces Angulos entre vetores de palavras}}{22}{figure.3.4}
\contentsline {figure}{\numberline {3.5}{\ignorespaces Processo do modelo de contagem.}}{23}{figure.3.5}
\addvspace {10\p@ }
