\relax 
\providecommand\hyper@newdestlabel[2]{}
\catcode `"\active 
\providecommand\HyperFirstAtBeginDocument{\AtBeginDocument}
\HyperFirstAtBeginDocument{\ifx\hyper@anchor\@undefined
\global\let\oldcontentsline\contentsline
\gdef\contentsline#1#2#3#4{\oldcontentsline{#1}{#2}{#3}}
\global\let\oldnewlabel\newlabel
\gdef\newlabel#1#2{\newlabelxx{#1}#2}
\gdef\newlabelxx#1#2#3#4#5#6{\oldnewlabel{#1}{{#2}{#3}}}
\AtEndDocument{\ifx\hyper@anchor\@undefined
\let\contentsline\oldcontentsline
\let\newlabel\oldnewlabel
\fi}
\fi}
\global\let\hyper@last\relax 
\gdef\HyperFirstAtBeginDocument#1{#1}
\providecommand\HyField@AuxAddToFields[1]{}
\providecommand\HyField@AuxAddToCoFields[2]{}
\citation{abnt-url-package=url}
\citation{abnt-emphasize=bf}
\select@language{brazilian}
\@writefile{toc}{\select@language{brazilian}}
\@writefile{lof}{\select@language{brazilian}}
\@writefile{lot}{\select@language{brazilian}}
\@writefile{lof}{\addvspace {10\p@ }}
\@writefile{lot}{\addvspace {10\p@ }}
\@input{resumo.aux}
\@input{lista_abreviaturas.aux}
\@input{lista_simbolos.aux}
\@writefile{lof}{\addvspace {10\p@ }}
\@writefile{lot}{\addvspace {10\p@ }}
\tocstyle@set@width {unum}{lof}{}{21.0pt}
\tocstyle@set@width {num}{lof}{1}{21.0pt}
\tocstyle@set@width {skip}{lof}{1}{18.0pt}
\@writefile{lof}{\addvspace {10\p@ }}
\@writefile{lot}{\addvspace {10\p@ }}
\tocstyle@set@width {unum}{lot}{}{21.0pt}
\tocstyle@set@width {num}{lot}{1}{21.0pt}
\tocstyle@set@width {skip}{lot}{1}{18.0pt}
\@writefile{lof}{\addvspace {10\p@ }}
\@writefile{lot}{\addvspace {10\p@ }}
\tocstyle@set@width {unum}{toc}{}{30.0pt}
\tocstyle@set@width {skip}{toc}{0}{0.0pt}
\tocstyle@set@width {num}{toc}{1}{21.0pt}
\tocstyle@set@width {skip}{toc}{1}{18.0pt}
\tocstyle@set@width {num}{toc}{2}{30.0pt}
\tocstyle@set@width {skip}{toc}{2}{39.0pt}
\@input{introducao.aux}
\bibstyle{abntex2-alf}
\bibdata{abntex2-options,biblio}
\newlabel{LastPage}{{}{12}{}{page.12}{}}
\xdef\lastpage@lastpage{12}
\xdef\lastpage@lastpageHy{12}
