\select@language {brazilian}
\select@language {english}
\select@language {brazilian}
\contentsline {chapter}{1~Introdu\IeC {\c c}\IeC {\~a}o}{10}{CHAPTER.1}
\contentsline {section}{\numberline {1.1}Figuras e tabelas}{10}{section.1.1}
\contentsline {subsection}{\numberline {1.1.1}Formato de Figuras}{10}{subsection.1.1.1}
\contentsline {subsection}{\numberline {1.1.2}Classifica\IeC {\c c}\IeC {\~a}o dos etc.}{11}{subsection.1.1.2}
\contentsline {section}{\numberline {1.2}Sobre as refer\IeC {\^e}ncias bibliogr\IeC {\'a}ficas}{11}{section.1.2}
