##		k:	5						10						15						20						50						100					
##		wn_meas:	path			wup			path			wup			path			wup			path			wup			path			wup			path			wup		
## min triple counts	verb freq	verbs	mean	stdev	stdev/sqrt(N)	mean	stdev	stdev/sqrt(N)	mean	stdev	stdev/sqrt(N)	mean	stdev	stdev/sqrt(N)	mean	stdev	stdev/sqrt(N)	mean	stdev	stdev/sqrt(N)	mean	stdev	stdev/sqrt(N)	mean	stdev	stdev/sqrt(N)	mean	stdev	stdev/sqrt(N)	mean	stdev	stdev/sqrt(N)	mean	stdev	stdev/sqrt(N)	mean	stdev	stdev/sqrt(N)
2	150	1131	0.0511258898519	0.0646997763982	0.0019238511944	0.120121124231	0.126408662153	0.00375876810096	0.0470249259764	0.0475883043024	0.00141504068744	0.115068741259	0.105058631155	0.00312392382605	0.0452206101516	0.0411281092844	0.00122294645476	0.112255729815	0.0948190222374	0.00281944852577	0.0443788257246	0.0385110378653	0.00114512770089	0.111440710988	0.0911338684107	0.00270987028631	0.0421478938551	0.0333316793446	0.000991119207643	0.107320980022	0.0821984529375	0.0024441752455	0.0413780331938	0.031481781602	0.000936112402679	0.106713888136	0.079233255562	0.00235600494832	
2	500	1038	0.0603148325097	0.0766912739639	0.00238038538642	0.136133842798	0.143631471332	0.00445811156493	0.0575152551083	0.0585253392385	0.00181654124463	0.132718167504	0.117998309024	0.00366249556052	0.0554774459896	0.0508547771141	0.00157845817412	0.12962474086	0.10788931156	0.00334872701043	0.0541661372562	0.0470255510568	0.00145960457739	0.128065295137	0.102544063781	0.00318281830868	0.0511803687076	0.0384466591109	0.00119332827288	0.124992520782	0.0906919854794	0.00281494706949	0.0493176095403	0.0354412080087	0.00110004345032	0.122755702906	0.0861298234967	0.0026733442097	
2	bigger	1146	0.104719639968	0.109264396434	0.00322764946271	0.215046090853	0.181062171401	0.00534854206231	0.0946360023647	0.0826174958296	0.00244050509341	0.204321605412	0.151540945897	0.00447649068284	0.0898316804371	0.0726927013292	0.00214732855391	0.19880278173	0.139353985087	0.00411649018136	0.0862541241951	0.0665285586031	0.00196524095166	0.194216194613	0.132278011962	0.00390746728277	0.078750583675	0.054146724936	0.00159948394309	0.185514938074	0.117801456246	0.0034798325838	0.0744894940075	0.0492744295986	0.00145555726669	0.18027778699	0.112974606032	0.00333724834769	
3	150	1099	0.0377514513593	0.0458582179701	0.00138330621453	0.10032302941	0.114078823876	0.00344117048154	0.0376256948743	0.0370783675583	0.00111846335376	0.0998438591843	0.0939628301721	0.00283437457157	0.037543246697	0.0343880405664	0.00103731004663	0.0995408705501	0.0874904839654	0.00263913722641	0.0366311745748	0.0319815541346	0.000964718747108	0.0975647691317	0.0822641872845	0.00248148677688	0.0365670069238	0.0291978317227	0.000880748181256	0.0972040876231	0.0750114795944	0.00226270994551	0.0364585206248	0.0278380046379	0.000839729202753	0.0969394204121	0.0720983738271	0.00217483655029	
3	500	1009	0.0408341125602	0.0485110756844	0.00152719791216	0.106174951553	0.117158918327	0.00368832999342	0.0421751086836	0.0408277685257	0.00128531643487	0.108908899234	0.101664771762	0.00320055214164	0.0421694255983	0.0373589219165	0.00117611219183	0.109075300468	0.093968056718	0.00295824856498	0.0420443450115	0.0352174821745	0.00110869661184	0.109029551379	0.0894672509573	0.00281655677473	0.0414793245957	0.0318962669112	0.00100414001432	0.107805249258	0.0818639694047	0.00257719461776	0.0407893118607	0.0306221950555	0.000964030413563	0.10592067769	0.0788461426224	0.0024821891227	
3	bigger	1116	0.0607393124597	0.060015540568	0.001796518215	0.157603424045	0.143817597138	0.0043050671618	0.0616323809969	0.0523090600227	0.00156583075402	0.158626269833	0.125244341329	0.00374909129192	0.0614419869502	0.0476419501108	0.00142612447313	0.158021235592	0.115522990361	0.00345809026247	0.0610030987465	0.0451921550571	0.00135279177638	0.156968763181	0.110014299045	0.00329319190121	0.0599692734292	0.0411881849105	0.00123293606513	0.15395672063	0.100977997465	0.00302269728879	0.0601243804931	0.0402446385829	0.00120469174461	0.15437755168	0.0991836870456	0.00296898601132	
4	150	1020	0.0369409958233	0.0451722078071	0.00141439669054	0.0987735956888	0.113411066727	0.00355103824312	0.0372813935792	0.0378213984495	0.00118423392159	0.0988861241132	0.0949148334908	0.00297189871581	0.0366678415611	0.0339823676011	0.00106402920302	0.097628330345	0.08694446223	0.00272233671119	0.0367293600456	0.0326798565222	0.00102324599917	0.097636097257	0.0838989508676	0.00262697805149	0.0361134080762	0.0291299204439	0.000912093188969	0.0960741254442	0.0753412942756	0.00235902742986	0.0358443369836	0.0276654107547	0.000866237611873	0.0954145762714	0.0719566842977	0.00225305118066	
4	500	955	0.0440773519674	0.0517664637242	0.00167512342798	0.113068090548	0.123536945012	0.00399756166296	0.0431718480763	0.0410386035605	0.00132797802535	0.110854081231	0.0994544858164	0.00321827158402	0.0427674363643	0.0377433175088	0.00122134507285	0.11001940527	0.0926706594305	0.0029987521173	0.0422609579379	0.0355869588307	0.00115156694468	0.108806148165	0.088437844422	0.00286178144021	0.0410641679416	0.0309134208521	0.00100033480719	0.10671726726	0.0791619055501	0.00256161910724	0.0406542248249	0.0295665850267	0.000956752223358	0.105792221635	0.0760628002094	0.00246133441348	
4	bigger	1052	0.057042921696	0.0570342816006	0.00175844223256	0.147241652539	0.137208212429	0.00423031041365	0.0589522686861	0.0507250031754	0.00156391884543	0.151707823556	0.121358469847	0.0037416419155	0.0585256730753	0.0468330359544	0.0014439243555	0.150608383083	0.113100427732	0.00348703556991	0.059204301125	0.0448610388151	0.00138312507908	0.151836865861	0.109085332605	0.003363244884	0.0597956195933	0.0413108716883	0.0012736687375	0.153017775699	0.10156296601	0.00313132038635	0.0595805327143	0.0400443790753	0.00123462109746	0.152503258314	0.0988823534815	0.00304867356154	
5	150	965	0.0359991249395	0.0458203701782	0.00147500990539	0.0951076823172	0.111910365508	0.00360252213151	0.0365909101522	0.0367179027615	0.00118199111155	0.0969958878295	0.091914665468	0.00295883777212	0.0363434540759	0.0343070712961	0.00110438370074	0.09668778816	0.0867559709245	0.00279277351902	0.0361877235322	0.0334878920829	0.00107801338882	0.0964215498376	0.0848652358891	0.00273190860469	0.0361953933454	0.0298561880249	0.000961104698689	0.0963911767241	0.0766301090181	0.00246681049091	0.035704164549	0.0288459081431	0.000928582638587	0.0952422380709	0.0742600239432	0.00239051475282	
5	500	894	0.0410614804658	0.0467241949589	0.00156269084546	0.106395307784	0.11470785402	0.0038364045338	0.0401223026546	0.0386627844575	0.00129307694621	0.104422836533	0.0968071969013	0.00323771700091	0.0407690368105	0.0363455319994	0.00121557643055	0.106401712776	0.0918831050227	0.00307303073274	0.0410010172422	0.0349647959762	0.00116939770997	0.106839790432	0.08871728822	0.00296714997994	0.0401103963622	0.0318266333996	0.00106444185286	0.104429896587	0.080727211423	0.00269992183666	0.040120379677	0.0310040526009	0.00103693063549	0.104345096652	0.0789273389389	0.00263972509584	
5	bigger	983	0.0621940611666	0.0632684241321	0.00201794933635	0.158075023954	0.147884181495	0.00471677286099	0.0610901110494	0.0533064514606	0.00170021175371	0.156128803343	0.126541042391	0.00403603244457	0.0609568800784	0.0503797774833	0.0016068653508	0.15524570891	0.119695902482	0.00381770638814	0.0613940304784	0.048776910313	0.0015557418277	0.156284945599	0.116288183897	0.00370901704506	0.0606466045137	0.0439483292124	0.00140173400846	0.154483731331	0.106120813329	0.00338472828693	0.0604883069035	0.0427290343441	0.00136284454181	0.1540118897	0.103052284803	0.0032868574266	
6	150	905	0.0365173901587	0.0472224598255	0.0015697276788	0.0968686366764	0.115686714608	0.00384555651402	0.0357892787699	0.0378723734092	0.00125892028967	0.0952823157178	0.095791665655	0.00318422270955	0.0359494190169	0.0348917075651	0.00115983960446	0.0953221829492	0.0884548779214	0.00294033963312	0.036202444272	0.03374619915	0.00112176161631	0.0957043395093	0.0855362223847	0.00284332024028	0.0358010007215	0.0304264172042	0.00101140833046	0.0950428385592	0.0781802772192	0.00259880034926	0.0360467124998	0.0295343514598	0.000981755061748	0.0961192928406	0.0762722051297	0.00253537388687	
6	500	834	0.0410037969064	0.0480996698148	0.00166555534998	0.107580594994	0.1219691465	0.00422344613316	0.0407685077256	0.0408942978094	0.00141605372266	0.105744405245	0.101463692918	0.00351340034596	0.0399306396527	0.0358889404375	0.00124273237178	0.10361973841	0.0900012490424	0.00311648837559	0.0400163389679	0.0343341243573	0.00118889349408	0.103569261511	0.0857350663361	0.00296876255007	0.0400162512727	0.0321811597764	0.00111434242773	0.103485083431	0.0809410642906	0.0028027598356	0.0401381707505	0.0311518763785	0.00107870125853	0.104021324011	0.0787936322211	0.00272840034444	
6	bigger	929	0.0621361636808	0.0606576529703	0.00199011303882	0.158294641678	0.141897842689	0.00465551720332	0.061816338587	0.0531156027039	0.00174266639624	0.156845714545	0.125985244811	0.00413344180196	0.0611772832136	0.0488044558983	0.0016012222577	0.155396378537	0.116987878611	0.00383824779242	0.0605525683437	0.0467378056877	0.00153341766373	0.1540361728	0.112905397958	0.00370430594702	0.060341900547	0.0431659077912	0.00141622749515	0.154186044982	0.106298471012	0.00348753970537	0.0594258540979	0.0416679354234	0.00136708061599	0.152414747739	0.10354224927	0.00339711100333	
7	150	848	0.0358915266103	0.0434290852543	0.00149136091058	0.0952817742719	0.107271225905	0.00368370902145	0.0365714014499	0.0382082803039	0.00131207773251	0.0964668718342	0.0934359205907	0.00320860268635	0.0361282819214	0.0343546501054	0.00117974352818	0.0961128588961	0.0859974391297	0.00295316418425	0.0354036091067	0.0322129095468	0.00110619585544	0.0943852072316	0.0810606345246	0.00278363361808	0.0353562829679	0.0290877165908	0.000998876288723	0.0942602328325	0.0739413384397	0.0025391559868	0.0355029121399	0.0285346455387	0.000979883750819	0.0949779678614	0.0734015639606	0.00252062005509	
7	500	786	0.0408877795233	0.0483313821215	0.00172392330885	0.105543801656	0.115846374643	0.00413210334003	0.0408517732402	0.0392905121176	0.00140144615533	0.105540590583	0.095774519954	0.00341616399314	0.0401715463054	0.0360350325976	0.00128532704638	0.103629633227	0.0884331287686	0.00315430524157	0.0398507953739	0.0346481468021	0.00123585846832	0.102948022446	0.0857444522534	0.00305840332627	0.039945743431	0.0314482063159	0.00112172037111	0.103901827872	0.0793751740122	0.00283121869511	0.0401166693172	0.0306991857619	0.00109500369273	0.104406433403	0.0782921634857	0.00279258898894	
7	bigger	870	0.0616541438021	0.0600873684319	0.00203715257811	0.157374306591	0.143783904575	0.00487473090503	0.0609896161204	0.0520984350402	0.00176630236982	0.155118490124	0.124059118796	0.00420599803734	0.0610750555851	0.049285214607	0.00167092526466	0.154822470456	0.117833464193	0.00399492857874	0.0609259970525	0.0479306102708	0.00162499987655	0.154277142798	0.114004997844	0.00386513141342	0.0606847110319	0.0436824980212	0.00148097538276	0.153872801368	0.1056286202	0.00358114561476	0.0609579063494	0.0426425173995	0.00144571673756	0.155194619112	0.103917412154	0.00352313022863	
8	150	786	0.0380928398009	0.0467545691448	0.00166768025258	0.101045662038	0.116238012049	0.00414607258369	0.0380022348128	0.0381215711797	0.00135975141289	0.101338463574	0.0978856411789	0.00349146519347	0.0373152929967	0.0355324164208	0.00126739932107	0.0991301286817	0.0911652348041	0.00325175623656	0.0368952064971	0.0339510825312	0.00121099500918	0.0984371212842	0.08823974489	0.00314740746706	0.036667750125	0.0320025778485	0.00114149414882	0.0973386897361	0.0826896434682	0.00294944190539	0.0368518024912	0.0314619080207	0.00112220909473	0.0979160154257	0.0814206202345	0.00290417734568	
8	500	736	0.0430707339912	0.0528693081889	0.00194878855498	0.108837821096	0.122252174669	0.00450627494436	0.0422556722315	0.0434473570382	0.00160149082787	0.108228706808	0.105648290793	0.00389424766474	0.0414468561716	0.0395697388617	0.00145855992558	0.106554078253	0.0972615335642	0.00358510769183	0.0413459365939	0.0376260364911	0.00138691410565	0.106441379251	0.0931704567601	0.00343430860014	0.0410301778494	0.0352310708628	0.00129863450136	0.106207955246	0.0892655862546	0.00329037316367	0.0411540342673	0.0343712115857	0.0012669396679	0.106716362698	0.0876171742646	0.00322961189158	
8	bigger	807	0.0599381604214	0.0601071767134	0.00211587283042	0.152719892868	0.142270229698	0.00500814927693	0.060084869685	0.0518131376775	0.00182390882861	0.153057259196	0.124224863189	0.00437292229075	0.0600154995863	0.0477327439227	0.00168027216565	0.153083130528	0.116285821525	0.00409345478829	0.0595995945814	0.0458620207987	0.00161441959284	0.152154546343	0.111989961529	0.00394223335442	0.060365396715	0.0435482294234	0.0015329702789	0.153674212741	0.1062104097	0.00373878349443	0.0607322428485	0.0427446556662	0.00150468314293	0.154455352295	0.104281707978	0.00367088997829	
9	150	729	0.0361842404617	0.0464278187113	0.00171954884116	0.0948984267927	0.112163160366	0.00415419112466	0.0366034514758	0.0375088228725	0.00138921566194	0.095693183323	0.0932410567297	0.00345337247147	0.0357553624745	0.0338025959614	0.00125194799857	0.0942814611278	0.085808267424	0.00317808397867	0.0359613341075	0.0324743383363	0.00120275327171	0.0953060766913	0.0837609328876	0.00310225677361	0.035858173031	0.0296675665818	0.00109879876229	0.0958591169757	0.0776052559794	0.00287426873998	0.0358513855173	0.0289646898513	0.00107276629079	0.0961380876618	0.0759643358929	0.00281349392196	
9	500	694	0.0388913214147	0.0471423446551	0.00178949893152	0.0991000396723	0.111027735574	0.00421455520789	0.0381706917057	0.0377375532715	0.00143249793263	0.0977630573355	0.0925020413766	0.00351132947285	0.0379177915683	0.0353935736508	0.00134352168298	0.0976507139863	0.0885934490983	0.00336296133892	0.0385117259968	0.033540235071	0.00127316991256	0.0993042278478	0.0848043570091	0.00321912937013	0.0396643408195	0.0312180763691	0.00118502197367	0.103045905055	0.0804310226577	0.00305311986835	0.0398049832791	0.0308158499009	0.00116975366573	0.104210292749	0.0803197896527	0.00304889752122	
9	bigger	774	0.0574550208599	0.0593290967741	0.0021325403456	0.146673466875	0.143189771442	0.00514685004965	0.0588382216645	0.0516320339236	0.00185587513471	0.14925863689	0.125255583197	0.00450221896511	0.0595324972601	0.0494844726112	0.00177868263739	0.150486653159	0.119883291906	0.00430911594234	0.0596397548711	0.0479684873923	0.00172419167396	0.151299733524	0.117122957639	0.00420989777599	0.0608228322651	0.0463394335453	0.00166563654262	0.154699835394	0.113875980088	0.00409318757805	0.0609191152359	0.0450793935718	0.00162034534106	0.155858865304	0.112273581163	0.00403559053811	
10	150	699	0.0364517736674	0.043952021023	0.00166241811226	0.0971443953344	0.111945742307	0.00423417684263	0.0374891383283	0.0373190935416	0.00141153775396	0.0999855282558	0.0962807421274	0.00364167211995	0.0366728165733	0.0346454248608	0.00131041031687	0.0980972115828	0.0906173565832	0.00342746320563	0.0360399304017	0.0332211019351	0.00125653747611	0.0966898602379	0.0874262056366	0.00330676279165	0.0361680402259	0.0314415066593	0.00118922700096	0.0966049886283	0.0825276029255	0.00312148062073	0.0360886356436	0.0310403409361	0.00117405351977	0.096446272822	0.0814598686678	0.00308109520209	
10	500	664	0.0420206461321	0.0518496346692	0.00201215606031	0.106613081543	0.120829448857	0.00468909201256	0.0413836750304	0.0412192975966	0.00159961897494	0.106364145191	0.0999935260689	0.00388050139128	0.0407010001779	0.0375125102601	0.00145576772795	0.105036900558	0.0925469839927	0.00359151951392	0.0406011232827	0.0357262990226	0.0013864492884	0.105168191465	0.0886294316132	0.00343948899698	0.0401617511177	0.0329003203323	0.00127678004609	0.104046802766	0.081840136188	0.00317601323631	0.0402122333908	0.0321215248619	0.0012465569204	0.104217323028	0.0804938462662	0.00312376705478	
10	bigger	726	0.0611832656426	0.0620754125429	0.00230383464095	0.156041663676	0.144498802631	0.00536285355893	0.0597970211379	0.0522489025746	0.00193913865043	0.152895049911	0.123427948601	0.00458084081926	0.0604266449412	0.0499668906771	0.00185444524534	0.153596158581	0.117116652918	0.00434660666716	0.0605450583171	0.0487873635228	0.00181066888677	0.153619497222	0.114484851262	0.00424893134651	0.0606927983646	0.0464974430416	0.00172568196661	0.153276398977	0.108047547037	0.00401002057878	0.0609642490158	0.0465304885201	0.00172690839934	0.153360730895	0.107661172151	0.0039956808618	
20	150	460	0.0389928737728	0.0484503165424	0.00225900765683	0.101224757745	0.114776608544	0.00535148696704	0.0378660765659	0.0400588823595	0.00186775502065	0.0985117456151	0.0975076791574	0.00454631898273	0.039029100237	0.0380183384599	0.00177261417076	0.100164859462	0.0916461518988	0.00427302386512	0.0386780508496	0.0367448420734	0.00171323709557	0.100073646934	0.0895747884565	0.00417644604664	0.0379620024587	0.0345915947211	0.00161284142011	0.0990236461468	0.0854275875621	0.0039830818079	0.0374085023228	0.0337923726452	0.00157557749868	0.0979299599483	0.0835733196681	0.00389662612156	
20	500	459	0.04089982639	0.0552546108264	0.0025790643697	0.104265360496	0.130377617525	0.00608550604076	0.0417925794715	0.0478538500541	0.00223362643916	0.107778298551	0.114166037044	0.00532881426482	0.0413748210417	0.0449883926505	0.00209987834136	0.107051203665	0.107357822981	0.00501103404615	0.0410237769341	0.0437364019681	0.00204144042076	0.106231954475	0.103774045623	0.00484375764417	0.0414632055924	0.0421836108455	0.00196896233798	0.107138385312	0.0996287300723	0.00465027088391	0.0411927157195	0.0410472781891	0.00191592287172	0.106720871028	0.0967862301723	0.00451759435061	
20	bigger	519	0.0617743349921	0.0633830821254	0.00278220851121	0.157077090969	0.1493375697	0.00655519175671	0.0606005179184	0.0553702498289	0.00243048421087	0.153739373456	0.129687038323	0.00569262916405	0.0610215308419	0.0529016945509	0.00232212666064	0.15480964293	0.125915948898	0.00552709671058	0.0599170309063	0.0504345378205	0.00221383049984	0.15155141568	0.120298419098	0.00528051452023	0.0605024979308	0.0477090005948	0.00209419269409	0.153141037418	0.114452866169	0.00502392322541	0.0603026310559	0.0471361861041	0.00206904892863	0.153285079772	0.113811797958	0.00499578345415	
30	150	344	0.0335960474442	0.0431980974441	0.00232908532226	0.0891618882908	0.107211131284	0.00578043680234	0.0343070559391	0.0379614886907	0.00204674630023	0.0906270193413	0.097888316586	0.00527778432084	0.0343510666203	0.0357102375043	0.00192536697092	0.0916376508988	0.0946619694505	0.00510383134138	0.0338795634496	0.0340976080338	0.00183841981694	0.0903900229038	0.0916180571169	0.00493971458721	0.0327716726329	0.0310294206135	0.00167299423782	0.0878501923727	0.0850230045013	0.00458413318073	0.0327340143258	0.0305187971082	0.00164546326351	0.0879846239619	0.0842774972717	0.00454393812473	
30	500	354	0.0369834036758	0.0467671600621	0.00248564651315	0.0982412717875	0.118076503978	0.00627569538128	0.039464142572	0.0398436995264	0.00211766873736	0.102308402103	0.100096231156	0.00532005466276	0.0392105583563	0.0371548653663	0.00197475881413	0.102365893145	0.093818020064	0.00498637150798	0.0394965384636	0.0360507668514	0.00191607664014	0.103073639838	0.0909038300972	0.00483148405876	0.0405618071673	0.0340871102605	0.00181170946985	0.105377618928	0.0857514194517	0.00455763652261	0.0405001442788	0.0335042524685	0.00178073092772	0.105285841099	0.0851266778863	0.00452443188304	
30	bigger	404	0.0558671707103	0.0586821222239	0.00291954470066	0.142945162774	0.1395691593	0.0069438252055	0.0583218080716	0.0514360068515	0.00255903698666	0.148636236883	0.124536052451	0.00619590018555	0.0598455910907	0.0505238114402	0.00251365356871	0.152107915084	0.122326620503	0.00608597683764	0.0599091374138	0.0489465661526	0.00243518268274	0.152606824422	0.11878647281	0.00590984790701	0.0601247343238	0.0472176070375	0.00234916375175	0.152307286228	0.114834897608	0.00571324969271	0.0599186335056	0.0468084347618	0.00232880667018	0.151657119435	0.114034240471	0.00567341551128	
50	150	233	0.037277793737	0.0518228503157	0.00339502780513	0.0927604892709	0.113241058895	0.00741866843079	0.0378088275048	0.0425368252881	0.00278668007868	0.0940385059991	0.094932891224	0.00621926048767	0.0362254865208	0.039103049774	0.00256172596527	0.0911726598102	0.0907112513058	0.00594269166102	0.0369922359553	0.0394849122582	0.00258674260839	0.0932916058082	0.0921385892019	0.00603619967563	0.0361334274917	0.037351675926	0.00244698964964	0.0915560975665	0.0879875760366	0.0057642577614	0.0360725369478	0.0371404634754	0.00243315266193	0.0919913787986	0.0881854867293	0.00577722332197	
50	500	223	0.0397877670411	0.0474308095755	0.00317620193484	0.104356554546	0.116155525279	0.00777834929312	0.0398307628046	0.040859092013	0.00273612717702	0.105993315564	0.105589135824	0.00707077151966	0.0387326850217	0.0380480748862	0.00254788754719	0.102416391615	0.100001182298	0.00669657447435	0.0389320343638	0.0377496650921	0.00252790454935	0.103055360422	0.0989746158986	0.00662783050365	0.0383844476477	0.036144925855	0.00242044326173	0.102428375468	0.0971649393288	0.00650664559717	0.0384211278658	0.0356370787588	0.00238643530479	0.102675197189	0.0959791360128	0.00642723833383	
50	bigger	250	0.0598094605395	0.0699215233971	0.00442222542807	0.146724027868	0.158152521768	0.0100024437297	0.0615034360084	0.061390824764	0.00388269667381	0.152906824906	0.142769314891	0.00902952430077	0.0594426467977	0.0563059654876	0.00356110193592	0.149278021109	0.13437171385	0.00849841337732	0.0605088770797	0.0562000851127	0.00355440547303	0.151759541731	0.133890328274	0.00846796788027	0.060391425152	0.054704828162	0.00345983712	0.151729807775	0.131594659458	0.00832277703604	0.0599398562701	0.0542026025391	0.00342807358265	0.150913388325	0.130693463462	0.0082657803967	
