## verb	average similarity in wordnet for the k first neighbours
## k:	5				10				15				20				50				100			
## wn metric: 	path		wup		path		wup		path		wup		path		wup		path		wup		path		wup	
##	mean	stdev	mean	stdev	mean	stdev	mean	stdev	mean	stdev	mean	stdev	mean	stdev	mean	stdev	mean	stdev	mean	stdev	mean	stdev	mean	stdev
