##		k:	5						10						15						20						50						100					
##		wn_meas:	path			wup			path			wup			path			wup			path			wup			path			wup			path			wup		
## min triple counts	verb freq	verbs	mean	stdev	stdev/sqrt(N)	mean	stdev	stdev/sqrt(N)	mean	stdev	stdev/sqrt(N)	mean	stdev	stdev/sqrt(N)	mean	stdev	stdev/sqrt(N)	mean	stdev	stdev/sqrt(N)	mean	stdev	stdev/sqrt(N)	mean	stdev	stdev/sqrt(N)	mean	stdev	stdev/sqrt(N)	mean	stdev	stdev/sqrt(N)	mean	stdev	stdev/sqrt(N)	mean	stdev	stdev/sqrt(N)
10	150	1056	0.106015665732	0.108310721724	0.00333303205651	0.206671474625	0.173715222127	0.00534571642436	0.090462115352	0.0760238226528	0.00233947142007	0.185828531523	0.138246096684	0.00425422954074	0.080722198414	0.0616387414395	0.00189680114647	0.172334659774	0.121272619164	0.00373190687697	0.0761227451194	0.0553907213376	0.00170453161897	0.166614357813	0.114335244818	0.00351842393904	0.0638869044983	0.0425570074506	0.00130960137468	0.149073240697	0.0976733974383	0.00300569102992	0.0561940674001	0.0372281927971	0.00114561843946	0.135764552472	0.0892646608845	0.00274693005001	
10	500	1030	0.122204672081	0.117145617414	0.00365012244497	0.236423482061	0.187375471621	0.00583840377218	0.104229969734	0.0841266634795	0.00262128989003	0.213111512144	0.153740062916	0.00479036319695	0.0973226290969	0.071837654141	0.00223837852037	0.204924498949	0.140766578378	0.00438612436883	0.0911309448125	0.0635551705126	0.00198030587489	0.195892513996	0.130349939622	0.00406155390888	0.0762247392277	0.0483094614036	0.00150526714757	0.173939339866	0.109587408879	0.00341461737681	0.0682404839628	0.0421474965562	0.00131326742371	0.160696228682	0.099710771108	0.00310687272527	
10	bigger	1145	0.181547674063	0.1449498658	0.00428366080182	0.333867718774	0.214403318668	0.00633619829096	0.153659401976	0.100866150693	0.00298086771982	0.300082361129	0.172366696381	0.0050939023417	0.141084456301	0.0863929056163	0.00255314415988	0.285219032823	0.159042319867	0.00470013095689	0.132496405826	0.078372626063	0.00231612319438	0.273204441302	0.151140610294	0.00446661405518	0.110250998225	0.0616644783214	0.00182235221255	0.242598714697	0.132304763201	0.00390996379949	0.0985105516705	0.0552751204604	0.0016335293967	0.225050593422	0.124079049426	0.00366687169677	
20	150	1056	0.122191800358	0.120017459764	0.00369328201648	0.23052847117	0.189951936473	0.00584536676871	0.10183067335	0.0841316998362	0.00258897409287	0.204962862736	0.151008732874	0.0046469725201	0.0913500203572	0.0696456630043	0.00214319712486	0.190145624086	0.133831788353	0.00411838859219	0.0853592227412	0.0616982175832	0.00189863139827	0.181837428276	0.123192698257	0.00379099322655	0.0696221862752	0.0456049552459	0.00140339548432	0.159191664245	0.102650834457	0.00315886106591	0.0609945756013	0.0388778547542	0.00119638327694	0.145213380752	0.092650474789	0.00285112127043	
20	500	1030	0.147155625389	0.129262494616	0.00402767037563	0.27377037198	0.200485648775	0.00624690178469	0.122649131882	0.0902637204418	0.00281251351289	0.241249602467	0.159865058658	0.00498121100608	0.111718030711	0.076729731194	0.00239081000392	0.227424480088	0.145665358106	0.00453876470001	0.103893726823	0.0683880137912	0.00213089170229	0.216772132212	0.136084415643	0.00424023357354	0.085089663438	0.0523354779418	0.00163071318349	0.190034990108	0.115764452748	0.00360708694558	0.0741120670486	0.0453307280908	0.0014124532501	0.171952347438	0.105154598661	0.00327649611857	
20	bigger	1145	0.203279258345	0.150048367257	0.00443433531757	0.365172568559	0.219893383493	0.00649844456391	0.170651073817	0.105072993672	0.00310519131452	0.325988227964	0.177998639381	0.00526034149866	0.156251906673	0.0902770440321	0.00266793096144	0.307067276902	0.162399732759	0.00479935159377	0.146790324607	0.0815226913268	0.00240921614772	0.29507762735	0.153698278015	0.00454220005797	0.121462512257	0.0642560286165	0.0018989395371	0.261943190976	0.135165994223	0.00399452091932	0.107132406192	0.0581961083733	0.00171985249438	0.240397127072	0.128156402022	0.00378736850022	
30	150	1056	0.13012952885	0.122043299524	0.0037556229256	0.245458993756	0.194008475076	0.00597019811493	0.107756448963	0.0875889272572	0.00269536291234	0.216710969338	0.157499669809	0.0048467172964	0.0969275906463	0.072511421629	0.00223138475034	0.202022833129	0.139998292384	0.00430814963604	0.0900249930644	0.0636274384324	0.00195799906596	0.192509635893	0.128740938268	0.00396172851038	0.0735696404414	0.0463609173151	0.00142665860887	0.167591230988	0.104670826031	0.00322102200955	0.0639672940966	0.0401387192722	0.0012351837003	0.152180431996	0.0956605326994	0.00294374939946	
30	500	1030	0.160494587667	0.137444291048	0.0042826057241	0.290737983582	0.208082181909	0.00648360100321	0.132125012932	0.0973957409999	0.00303473905484	0.253583538439	0.16379576622	0.00510368732415	0.119234020078	0.0800676280129	0.00249481502235	0.237010800682	0.145310265693	0.00452770042963	0.110533763337	0.0709866615032	0.00221186257043	0.225589157434	0.136200373718	0.00424384669352	0.0887261461887	0.0537141960215	0.00167367245007	0.195141054934	0.117635548187	0.00366538812329	0.076546006733	0.046541193891	0.00145016996955	0.176430052731	0.108042013858	0.0033664646488	
30	bigger	1145	0.220004985795	0.154788301135	0.00457441319102	0.384390487758	0.222466561315	0.00657448893216	0.183599192414	0.109412080062	0.0032334230599	0.344015528449	0.181538940693	0.0053649669833	0.165530062449	0.0928754683761	0.00274472143273	0.322082036126	0.165035357284	0.0048772414311	0.155010910123	0.084938667985	0.00251016750238	0.308966286912	0.157384155913	0.00465112772467	0.127919069511	0.0675396837816	0.00199598043355	0.273693282381	0.140900881087	0.00416400234605	0.112622872974	0.0603556770956	0.00178367359442	0.250904540861	0.13204021917	0.00390214580744	
40	150	1056	0.135651988293	0.122641820728	0.00377404114247	0.256408587019	0.196349363956	0.00604223399055	0.112537750626	0.0887644966689	0.00273153856025	0.226010982716	0.158106533731	0.00486539224264	0.100930676768	0.0725366208183	0.00223216020178	0.210766794519	0.139773419567	0.00430122965344	0.0941679868682	0.0646846317984	0.00199053194288	0.20112685261	0.129948963087	0.00399890290439	0.0764813037728	0.0481300546495	0.00148110004693	0.174104590042	0.107830295952	0.00331824797536	0.0665259330927	0.0414406805491	0.001275248789	0.157959261925	0.098596413366	0.00303409488161	
40	500	1030	0.168139537726	0.139055092834	0.00433279645154	0.300662483705	0.208926496078	0.00650990885978	0.140105517634	0.0984314503851	0.00306701056578	0.265973893297	0.166779159614	0.00519664642435	0.124950489756	0.0816033166133	0.00254266530948	0.246477290271	0.148266048935	0.00461979922931	0.115417634522	0.0720736750468	0.00224573265982	0.233659520088	0.138317440492	0.0043098120546	0.0909001054897	0.0530932795971	0.00165432540981	0.198430613153	0.116112778607	0.00361794037797	0.0779325473752	0.0464571444579	0.00144755108607	0.178875893396	0.107914463081	0.00336249031356	
40	bigger	1145	0.228650490218	0.157958789512	0.00466810970261	0.396040511235	0.224455812678	0.0066332766933	0.192029057793	0.113853772208	0.00336468708305	0.355387865181	0.18585776882	0.00549260004219	0.173976359238	0.097680323531	0.00288671790559	0.334171638962	0.171412518861	0.00506570381374	0.163174778521	0.0884513697313	0.00261397734516	0.321002112982	0.162285222953	0.00479596751913	0.132497406499	0.0700771701216	0.00207097002191	0.28073161506	0.143718145147	0.00424726012321	0.115908529606	0.0621637604875	0.00183710735173	0.257115236044	0.13490524787	0.00398681515896	
50	150	1056	0.137660350302	0.124302441024	0.00382514319952	0.26011581276	0.197753265897	0.00608543608633	0.114892603528	0.0875136439705	0.00269304622934	0.232192320635	0.157515279403	0.00484719764842	0.103155811342	0.0734975829429	0.00226173176695	0.215167080812	0.141018670058	0.00433954958834	0.0959017961855	0.0652256295179	0.00200717999686	0.20450156324	0.130241512657	0.0040079054951	0.0778691447905	0.0487813994362	0.00150114379717	0.177365526473	0.109649425111	0.00337422780547	0.0678644391915	0.0418788185362	0.00128873155352	0.1611671774	0.0998252181488	0.00307190873482	
50	500	1030	0.177660244635	0.145540571368	0.00453487648905	0.311505299182	0.215146931637	0.00670373046363	0.143074382777	0.101276974471	0.00315567381724	0.270503901146	0.170849518586	0.00532347411941	0.127944244383	0.0830082105853	0.0025864401867	0.251787358451	0.151804643998	0.00473005777375	0.117572621256	0.0737375714454	0.00229757775419	0.237437722837	0.141415435757	0.00440634201705	0.0928434016218	0.054304792944	0.0016920747696	0.202125548604	0.118596017384	0.00369531523667	0.0790384307274	0.0468946623359	0.00146118363897	0.180665237066	0.108536406315	0.00338186934803	
50	bigger	1145	0.232697514518	0.158098133895	0.00467222770625	0.400588397839	0.222284726909	0.00656911523339	0.193678998343	0.115183364251	0.00340398012611	0.358823116392	0.187335008979	0.00553625648664	0.177108495095	0.0997894164803	0.00294904730993	0.339280387014	0.172085164749	0.00508558232008	0.164992689261	0.0898342141527	0.0026548441401	0.324250328215	0.16277265397	0.00481037242477	0.13489703683	0.0708373792517	0.00209343625901	0.284851638892	0.144921608185	0.00428282571283	0.118050679898	0.0630892649273	0.00186445851256	0.260826045059	0.136366496751	0.00402999901787	
100	150	1056	0.13852735979	0.125806903036	0.00387143981755	0.266933710962	0.199713324675	0.00614575272566	0.118539349944	0.0878486153323	0.00270335426043	0.241820701103	0.160245921431	0.00493122734807	0.107569176332	0.0730066475265	0.00224662427386	0.2270833613	0.142002592173	0.00436982769837	0.0998722054183	0.0642963909693	0.00197858465725	0.215457708141	0.131153811193	0.00403597954185	0.0813853274978	0.0488344445945	0.00150277614907	0.186699292145	0.111727336931	0.0034381711215	0.0721046310283	0.0430241361447	0.00132397626654	0.171490353841	0.103497455538	0.00318491402869	
100	500	1030	0.182162172509	0.142379525314	0.00443638193668	0.324695954446	0.213424161508	0.00665005093165	0.149258788446	0.100290032181	0.00312492183279	0.284174939201	0.171244719201	0.00533578811516	0.133936427856	0.0853505451579	0.00265942463278	0.26424330849	0.156286970701	0.00486972190859	0.124273965469	0.0758867517256	0.0023645437351	0.251921437705	0.147393670513	0.00459261692298	0.0990772013664	0.0564289048304	0.00175825964824	0.216372149469	0.123671888271	0.0038534735243	0.0852631157297	0.0490263614811	0.00152760492785	0.194401280082	0.113413115444	0.00353382198479	
100	bigger	1145	0.240840468605	0.162087549509	0.00479012573389	0.414180967428	0.224643289775	0.00663881714886	0.202626434701	0.116394710531	0.00343977868686	0.372329720968	0.188695287575	0.00557645640037	0.183418849467	0.0993395177582	0.00293575158517	0.349581618358	0.173141032286	0.0051167860632	0.172467265449	0.0916926012894	0.00270976450921	0.335891545196	0.16661802208	0.00492401345888	0.140211382092	0.0738981410654	0.00218389005372	0.29361683787	0.149005956854	0.00440352926917	0.122589941706	0.0653959747945	0.00193262803162	0.269528659949	0.140210914578	0.00414361196851	
200	150	1056	0.138372698244	0.121270196435	0.00373183232265	0.26999874374	0.194272785146	0.00597833169509	0.118992242315	0.0875295867282	0.0026935368338	0.244378706453	0.160314435994	0.00493333573801	0.108022937937	0.0728434135194	0.00224160109453	0.229755687499	0.142921435391	0.00439810314378	0.100926539454	0.0648810747239	0.00199657705603	0.218965799933	0.133246092241	0.00410036504028	0.0829494604475	0.0489868485071	0.00150746605528	0.19153246054	0.113507765274	0.00349296001633	0.073735487581	0.0434960582305	0.00133849866483	0.176177369483	0.105486577742	0.00324612503315	
200	500	1030	0.178862350433	0.137669168784	0.00428961265522	0.326522925936	0.209338449845	0.00652274486442	0.14967004988	0.0985538468264	0.00307082429784	0.289628665091	0.171197528922	0.00533431772045	0.135082007555	0.0832750392762	0.00259475426123	0.270380216322	0.155144847117	0.00483413465383	0.126570715106	0.0746571454291	0.00232623061985	0.260052683338	0.145745062137	0.00454124818578	0.10297746015	0.0572130149483	0.00178269161594	0.226593664201	0.126607905499	0.00394495643778	0.0896923748067	0.0502061910117	0.00156436705644	0.205969095025	0.117153958085	0.00365038233069	
200	bigger	1145	0.248529366315	0.160527667289	0.00474402699289	0.429064436453	0.225314997653	0.00665866793447	0.205615512823	0.118050455677	0.00348871043674	0.380287013794	0.191133320131	0.00564850686026	0.186988952419	0.102000861048	0.00301440148157	0.356992922077	0.177334123037	0.00524070324237	0.174957922172	0.0933307130854	0.00275817514589	0.342322527116	0.169164023829	0.00499925470063	0.143157260231	0.0750936642845	0.0022192210002	0.300344826692	0.151155506571	0.00446705428047	0.125657651716	0.0669071278495	0.00197728669391	0.276102114849	0.142586953949	0.00421383036203	
500	150	1056	0.138452361135	0.11983145462	0.00368755810385	0.274166201279	0.1955804977	0.0060185737671	0.117078062613	0.0844436651036	0.00259857416034	0.244828051676	0.158548754384	0.00487900064251	0.107664715737	0.0715125782792	0.00220064747104	0.231049917684	0.142172261063	0.00437504889755	0.100769973896	0.0637711893569	0.00196242269487	0.220610878478	0.13360514963	0.00411141426763	0.0843288371162	0.0497827771371	0.00153195906573	0.195400699091	0.11568671853	0.00356001266759	0.0746605070037	0.0436264580317	0.00134251144132	0.178516470418	0.105723625849	0.00325341968437	
500	500	1030	0.164307465997	0.126257134431	0.0039340268155	0.315899937948	0.202847293422	0.00632048791042	0.144323059492	0.0942381567674	0.00293635236882	0.289201007806	0.168699730684	0.00525648920571	0.133028819706	0.0800581442039	0.00249451951779	0.275049607199	0.154291176437	0.00480753525918	0.12455629403	0.0723955159886	0.00225576085269	0.263100018205	0.146523620508	0.00456550716744	0.104553388259	0.0560885799873	0.00174765551831	0.233379020645	0.126025670007	0.00392681465079	0.0922287867052	0.0506238268952	0.00157738010931	0.213248479197	0.118830348874	0.00370261673587	
500	bigger	1145	0.237087408952	0.153033234039	0.0045225462087	0.4230220298	0.221881728126	0.00655720552874	0.204294528858	0.114341474043	0.0033790999921	0.38478419819	0.188780676417	0.00557897987173	0.187092747702	0.0991217272429	0.00292931528605	0.364286920651	0.175036960983	0.00517281588702	0.175997911417	0.0917133208408	0.00271037682803	0.350100166281	0.1682288832	0.00497161876432	0.147126466207	0.0754983325031	0.00223118004119	0.311160015948	0.152850175496	0.00451713633338	0.130250297208	0.0677543031026	0.00200232301529	0.286935982773	0.144220908752	0.00426211814833	
1000	150	1056	0.132341215862	0.120061430037	0.00369463510809	0.257443930872	0.192261252961	0.00591643107113	0.114015314256	0.0849001481382	0.00261262145468	0.234853186422	0.153903802985	0.00473606214421	0.103926175763	0.070516716918	0.0021700019561	0.221486101755	0.137380631791	0.0042275966997	0.0978320129595	0.0632487473976	0.00194634565494	0.21364294055	0.130119229386	0.00400414248754	0.0816038170104	0.0485905751126	0.00149527158454	0.188636984917	0.111262305991	0.00342386078355	0.0718561843404	0.0428105605595	0.00131740393223	0.171652099918	0.102663397224	0.00315924765832	
1000	500	1030	0.164131796736	0.1269832668	0.00395665226336	0.314871681272	0.197895520024	0.00616619635757	0.143972167126	0.0924904598275	0.00288189614615	0.29157035044	0.163849898675	0.00510537402904	0.131845961033	0.0775387897887	0.00241601933741	0.275523161351	0.148453366791	0.00462563583787	0.124128161704	0.0703010791813	0.00219050061531	0.263595799009	0.140523837467	0.00437856084177	0.105890472219	0.0561696543052	0.00175018170063	0.236914157659	0.125747318704	0.00391814154495	0.0930995574623	0.0508482540413	0.00158437300056	0.215232671164	0.118960622685	0.0037066759177	
1000	bigger	1145	0.224562733724	0.151424595188	0.00447500657734	0.411196573605	0.222167055611	0.00656563772809	0.198557053088	0.114489735137	0.00338348150865	0.38117348942	0.189679772276	0.00560555058752	0.182922558438	0.0989110214876	0.00292308836076	0.361497369786	0.174874241492	0.0051680070857	0.173226040578	0.0907528863091	0.00268199338846	0.349473025401	0.167192035663	0.00494097711365	0.14989457447	0.0756226499162	0.00223485395718	0.319530319674	0.153225490337	0.00452822790262	0.134515180853	0.0683130999576	0.00201883697459	0.296921094805	0.144979243371	0.00428452898853	
