##		k:	5						10						15						20						50						100					
##		wn_meas:	path			wup			path			wup			path			wup			path			wup			path			wup			path			wup		
## min triple counts	verb freq	verbs	mean	stdev	stdev/sqrt(N)	mean	stdev	stdev/sqrt(N)	mean	stdev	stdev/sqrt(N)	mean	stdev	stdev/sqrt(N)	mean	stdev	stdev/sqrt(N)	mean	stdev	stdev/sqrt(N)	mean	stdev	stdev/sqrt(N)	mean	stdev	stdev/sqrt(N)	mean	stdev	stdev/sqrt(N)	mean	stdev	stdev/sqrt(N)	mean	stdev	stdev/sqrt(N)	mean	stdev	stdev/sqrt(N)
10	bigger	1145	0.172636191804	0.140169652533	0.00414239256344	0.317229444634	0.211215718845	0.00624199608983	0.14560919236	0.100257385335	0.00296287705603	0.285116818884	0.17148867513	0.00506795443759	0.134203473625	0.0836496962852	0.0024720749004	0.270916788125	0.153601565407	0.00453934193866	0.126484660078	0.076104104683	0.00224908224846	0.260800753002	0.14630098494	0.00432359002883	0.107844180176	0.0609054097574	0.00179991968227	0.236318409158	0.130108315487	0.00384505282546	0.0984297074117	0.055394707075	0.00163706350479	0.223336983189	0.123732736769	0.00365663722057	
20	bigger	1145	0.201922447761	0.149894846091	0.00442979835165	0.362767754048	0.21930416217	0.00648103147924	0.170401908499	0.109996002981	0.0032506795624	0.324915201374	0.182388095259	0.00539006179872	0.154564790781	0.0922350018324	0.00272579391312	0.304820970132	0.16551283041	0.0048913520541	0.144558564676	0.0829154182504	0.00245037499735	0.291689095998	0.155464503195	0.00459439679184	0.11832531835	0.064151500982	0.00189585046262	0.25495987533	0.13431802024	0.00396946099331	0.103843111303	0.0569933349547	0.00168430728488	0.233649448091	0.125878260087	0.00372004324086	
30	bigger	1145	0.216447484587	0.153889427808	0.00454784905164	0.377103943644	0.219982509155	0.00650107846841	0.180676378086	0.112888324668	0.00333615549552	0.337080235277	0.184197374595	0.00544353089941	0.164552738221	0.0962982166081	0.00284587290573	0.318240644443	0.16880227205	0.00498856395656	0.153913733767	0.0856084212903	0.00252996052506	0.305759571579	0.158381532927	0.00468060291457	0.125215577702	0.0672352234353	0.00198698280638	0.267527490722	0.140385876176	0.00414878255724	0.108165846808	0.0593112192505	0.00175280703855	0.241652234697	0.129740397932	0.00383417986602	
40	bigger	1145	0.222740192607	0.160177454305	0.00473367725146	0.388462466629	0.227748472722	0.0067305837083	0.189952706803	0.115617225303	0.0034168018943	0.351646562759	0.187982715677	0.00555539797241	0.171681277319	0.0982058179927	0.00290224768904	0.329035338399	0.170311882976	0.00503317704476	0.158768937455	0.0874842048641	0.00258539500596	0.312090663534	0.160010996876	0.00472875798398	0.129318400602	0.0689344594816	0.00203719983006	0.273146491329	0.140771614994	0.0041601821832	0.111871669801	0.060727250563	0.00179465459594	0.248132873071	0.131332827777	0.00388124047742	
100	bigger	1145	0.239122235843	0.161610564593	0.00477602953881	0.409012310706	0.227136637255	0.00671250231447	0.200424549007	0.119457306356	0.00353028668155	0.364270895553	0.190017016552	0.00561551706854	0.179732634663	0.100756793703	0.0029776359248	0.338784000761	0.171569672353	0.00507034812474	0.166592033755	0.0905736923588	0.00267669772229	0.32325745623	0.163496154192	0.0048317538143	0.13296425747	0.0700019976824	0.0020687484729	0.278269947877	0.1418807262	0.00419295942085	0.114157896336	0.0616010737562	0.00182047843606	0.250774345409	0.13225264803	0.00390842365515	
200	bigger	1145	0.248921606293	0.160753950438	0.00475071427232	0.0	0.0	0.0	0.208338399349	0.120403360026	0.00355824512775	0.0	0.0	0.0	0.185701490326	0.102538118386	0.00303027888988	0.0	0.0	0.0	0.171589080376	0.0921433148721	0.00272308431532	0.0	0.0	0.0	0.135836579505	0.071031743684	0.00209918025397	0.0	0.0	0.0	0.115637217685	0.061859266056	0.00182810871725	0.0	0.0	0.0	
500	bigger	1145	0.24182680008	0.159893661169	0.0047252903963	0.0	0.0	0.0	0.203631778944	0.11609223707	0.00343083977751	0.0	0.0	0.0	0.183132591006	0.100141040991	0.00295943876579	0.0	0.0	0.0	0.169604612152	0.0899143853	0.00265721341447	0.0	0.0	0.0	0.136117458233	0.0718143227872	0.00212230758431	0.0	0.0	0.0	0.116936867087	0.0631320801165	0.00186572381726	0.0	0.0	0.0	
1000	bigger	1145	0.233749061225	0.157636685461	0.00465859065622	0.0	0.0	0.0	0.195637253576	0.114436963161	0.00338192195396	0.0	0.0	0.0	0.175995894773	0.0983190866595	0.00290559508468	0.0	0.0	0.0	0.163406759907	0.0890952237047	0.00263300497249	0.0	0.0	0.0	0.13473325779	0.0721950464836	0.00213355899987	0.0	0.0	0.0	0.118041771065	0.0647745269217	0.00191426256519	0.0	0.0	0.0	
