##		k:	5						10						15						20						50						100					
##		wn_meas:	path			wup			path			wup			path			wup			path			wup			path			wup			path			wup		
## min triple counts	verb freq	verbs	mean	stdev	stdev/sqrt(N)	mean	stdev	stdev/sqrt(N)	mean	stdev	stdev/sqrt(N)	mean	stdev	stdev/sqrt(N)	mean	stdev	stdev/sqrt(N)	mean	stdev	stdev/sqrt(N)	mean	stdev	stdev/sqrt(N)	mean	stdev	stdev/sqrt(N)	mean	stdev	stdev/sqrt(N)	mean	stdev	stdev/sqrt(N)	mean	stdev	stdev/sqrt(N)	mean	stdev	stdev/sqrt(N)
100	bigger	1040	0.106918513289	0.110498669871	0.00342641829749	0.0	0.0	0.0	0.0971609879297	0.0850681882884	0.00263785253908	0.0	0.0	0.0	0.0919287171868	0.0764211155417	0.00236971819581	0.0	0.0	0.0	0.0890220294037	0.0711172500826	0.00220525230968	0.0	0.0	0.0	0.0807224711921	0.0625662963906	0.00194009849176	0.0	0.0	0.0	0.0773161301785	0.0603337999248	0.00187087171511	0.0	0.0	0.0	
200	bigger	1097	0.158562548563	0.134706276814	0.00406709689229	0.0	0.0	0.0	0.134497558191	0.0966684583768	0.002918646376	0.0	0.0	0.0	0.122868216311	0.0820833560436	0.00247828809593	0.0	0.0	0.0	0.113908785471	0.0735710497168	0.00222128170078	0.0	0.0	0.0	0.0956248324996	0.0579207825002	0.00174876360684	0.0	0.0	0.0	0.0871199032225	0.0530020408851	0.00160025531748	0.0	0.0	0.0	
500	bigger	1136	0.20255807817	0.148168034426	0.0043960776397	0.0	0.0	0.0	0.170749269722	0.110673074954	0.00328361938528	0.0	0.0	0.0	0.153788320321	0.0944998113618	0.00280376607068	0.0	0.0	0.0	0.14358869018	0.0851126632562	0.00252525369081	0.0	0.0	0.0	0.117892980643	0.0666338308105	0.00197699520553	0.0	0.0	0.0	0.103669997233	0.0599791145087	0.00177955282434	0.0	0.0	0.0	
1000	bigger	1142	0.213995670121	0.154041128461	0.00455830771528	0.0	0.0	0.0	0.180639605821	0.113400107222	0.00335567902436	0.0	0.0	0.0	0.163397508472	0.0967731103857	0.00286366128391	0.0	0.0	0.0	0.15327188549	0.0885502927148	0.00262033579282	0.0	0.0	0.0	0.127534442469	0.0721636704351	0.00213543109554	0.0	0.0	0.0	0.112605756325	0.064917621573	0.00192100965652	0.0	0.0	0.0	
