##		k:	5						10						15						20						50						100					
##		wn_meas:	path			wup			path			wup			path			wup			path			wup			path			wup			path			wup		
## min triple counts	verb freq	verbs	mean	stdev	stdev/sqrt(N)	mean	stdev	stdev/sqrt(N)	mean	stdev	stdev/sqrt(N)	mean	stdev	stdev/sqrt(N)	mean	stdev	stdev/sqrt(N)	mean	stdev	stdev/sqrt(N)	mean	stdev	stdev/sqrt(N)	mean	stdev	stdev/sqrt(N)	mean	stdev	stdev/sqrt(N)	mean	stdev	stdev/sqrt(N)	mean	stdev	stdev/sqrt(N)	mean	stdev	stdev/sqrt(N)
10	150	1048	0.0937025705672	0.102651693595	0.00317092140478	0.18786489903	0.169598721186	0.00523892199338	0.0808948681048	0.0732321670708	0.0022621491955	0.172355047186	0.135850438373	0.00419643405578	0.0749012593357	0.0629126306712	0.00194337765155	0.16481812275	0.125655674576	0.0038815167504	0.0720983089662	0.0574144122162	0.00177353711627	0.161331288617	0.118617526298	0.00366410762401	0.0652870146368	0.0489183717217	0.00151109354894	0.150720022741	0.106708242766	0.00329622862716	0.0627553324318	0.0467917452362	0.00144540183742	0.146420187557	0.103031851966	0.00318266453607	
20	150	1055	0.104877268598	0.109521676967	0.00337189354675	0.208259900848	0.181164980335	0.00557760842426	0.0881720396455	0.0781456867759	0.0024059067049	0.186003675499	0.143104045529	0.00440580916031	0.0801682692314	0.0644438162554	0.00198406100215	0.174907073184	0.126264493552	0.00388736223534	0.0754578560976	0.0567429671385	0.00174697146736	0.167700984898	0.115305319921	0.0035499571858	0.0643783582865	0.0426820180279	0.00131407064918	0.151788440109	0.098465084385	0.00303148921577	0.0599878176537	0.0390521670317	0.00120231678009	0.144628154698	0.0933015163728	0.00287251610524	
30	150	1056	0.114795020846	0.116432652093	0.00358296718619	0.22204745162	0.183806912452	0.00565626672652	0.0951485501556	0.0816365354102	0.00251219071551	0.19664528873	0.147303613367	0.00453295534899	0.0864850596666	0.0674738545513	0.00207636433971	0.185520785844	0.130698818335	0.00402197810452	0.0805289061814	0.0606914971625	0.00186765171888	0.176616130035	0.121946112184	0.00375263219197	0.0650510588265	0.0434295188783	0.00133645105781	0.151949509573	0.0992083078161	0.00305292463166	0.0586431322339	0.0374192859748	0.0011514989255	0.141587087808	0.0906388544905	0.00278921793497	
40	150	1056	0.123248191728	0.118813861862	0.00365624385139	0.237112199333	0.191018526156	0.0058781887973	0.102126098411	0.0818161394854	0.00251771764886	0.209405078424	0.148159771471	0.00455930179338	0.0906981113888	0.0685849983946	0.0021105574278	0.193209857529	0.132641379255	0.00408175628452	0.0837145083838	0.0601173197062	0.00184998262908	0.183046610973	0.121791609216	0.00374787769178	0.0683626863843	0.0457791179239	0.00140875497024	0.158321334169	0.103229005522	0.00317665305049	0.0590684410849	0.038596794597	0.00118773424849	0.142739108403	0.0927447773913	0.00285402323241	
100	150	1056	0.13742453025	0.127393702191	0.00392027018602	0.25966679212	0.198460405392	0.00610719680001	0.112872695958	0.0883383289058	0.00271842415391	0.226561789684	0.15609666904	0.00480354293226	0.101120473494	0.0721866046803	0.00222138919971	0.210010931341	0.13749451834	0.004231101316	0.0942991826331	0.0639357481344	0.00196748664118	0.200904169889	0.128113049284	0.00394240656256	0.0761758854587	0.0474681157515	0.00146073028546	0.174071063993	0.107664301873	0.00331313986069	0.0663408801893	0.0408216152804	0.00125619837226	0.157650643465	0.0975547938509	0.00300204125682	
200	150	1056	0.13646334899	0.126453860873	0.00389134856875	0.0	0.0	0.0	0.111203674481	0.0856092387321	0.00263444220929	0.0	0.0	0.0	0.0993740090917	0.0710775057243	0.00218725903868	0.0	0.0	0.0	0.0929405801472	0.0638749113817	0.00196561451954	0.0	0.0	0.0	0.0750960744636	0.0469326755572	0.0014442532525	0.0	0.0	0.0	0.0648831323372	0.0402285147703	0.00123794696574	0.0	0.0	0.0	
500	150	1056	0.126067748168	0.125589844485	0.00386476030237	0.0	0.0	0.0	0.102777531758	0.0856175677541	0.00263469851722	0.0	0.0	0.0	0.0919458590641	0.0704899492361	0.00216917823763	0.0	0.0	0.0	0.0860313410076	0.0617615460284	0.00190058019646	0.0	0.0	0.0	0.0702876257312	0.0462213624591	0.00142236410505	0.0	0.0	0.0	0.0618045905388	0.0400868967814	0.00123358897339	0.0	0.0	0.0	
1000	150	1056	0.125455073806	0.125422078873	0.00385959767256	0.0	0.0	0.0	0.101184999973	0.0860572090128	0.00264822754173	0.0	0.0	0.0	0.090694235232	0.0702630091169	0.00216219463822	0.0	0.0	0.0	0.0846897644051	0.0617993913424	0.00190174480549	0.0	0.0	0.0	0.0690856682821	0.04633149297	0.00142575313725	0.0	0.0	0.0	0.0607732708352	0.0400979807526	0.00123393005902	0.0	0.0	0.0	
