##		k:	5						10						15						20						50						100					
##		wn_meas:	path			wup			path			wup			path			wup			path			wup			path			wup			path			wup		
## min triple counts	verb freq	verbs	mean	stdev	stdev/sqrt(N)	mean	stdev	stdev/sqrt(N)	mean	stdev	stdev/sqrt(N)	mean	stdev	stdev/sqrt(N)	mean	stdev	stdev/sqrt(N)	mean	stdev	stdev/sqrt(N)	mean	stdev	stdev/sqrt(N)	mean	stdev	stdev/sqrt(N)	mean	stdev	stdev/sqrt(N)	mean	stdev	stdev/sqrt(N)	mean	stdev	stdev/sqrt(N)	mean	stdev	stdev/sqrt(N)
100	1000000	3126	0.105912328994	0.112825706062	0.00201796473837	0.0	0.0	0.0	0.0903657358792	0.0812850274918	0.00145383818069	0.0	0.0	0.0	0.0827750037506	0.0697764878153	0.00124800009585	0.0	0.0	0.0	0.0780783279651	0.0632653959276	0.00113154477466	0.0	0.0	0.0	0.0664763609819	0.0515164000632	0.000921405966817	0.0	0.0	0.0	0.0603395059663	0.0477335988146	0.00085374798533	0.0	0.0	0.0	
200	1000000	3183	0.135273826393	0.129571016477	0.00229662213614	0.0	0.0	0.0	0.112337000134	0.0918614678099	0.00162822740893	0.0	0.0	0.0	0.101328031477	0.0769182858849	0.00136336229228	0.0	0.0	0.0	0.0938511483738	0.0688184763619	0.00121979467697	0.0	0.0	0.0	0.0765231337887	0.0528619942495	0.000936969003215	0.0	0.0	0.0	0.0679840045441	0.0473622029551	0.000839486226785	0.0	0.0	0.0	
500	1000000	3222	0.160226683869	0.141523678387	0.00249325294038	0.0	0.0	0.0	0.133017113767	0.10326616524	0.00181926214088	0.0	0.0	0.0	0.119467115361	0.0875537002447	0.00154245228124	0.0	0.0	0.0	0.110852611282	0.0783258500276	0.00137988326841	0.0	0.0	0.0	0.0899895572347	0.0605232002486	0.00106625017595	0.0	0.0	0.0	0.0783490637452	0.0534301342698	0.000941290114077	0.0	0.0	0.0	
1000	1000000	3228	0.169543098964	0.145753766596	0.00256538779173	0.0	0.0	0.0	0.140679403675	0.106206631655	0.00186932525047	0.0	0.0	0.0	0.126551664175	0.0898143201489	0.00158080690341	0.0	0.0	0.0	0.118022127258	0.0811794539699	0.00142882606068	0.0	0.0	0.0	0.0962235949826	0.0641850088552	0.00112970966017	0.0	0.0	0.0	0.0842606384335	0.0569768810081	0.0010028406014	0.0	0.0	0.0	
