##		k:	5						10						15						20						50						100					
##		wn_meas:	path			wup			path			wup			path			wup			path			wup			path			wup			path			wup		
## min triple counts	verb freq	verbs	mean	stdev	stdev/sqrt(N)	mean	stdev	stdev/sqrt(N)	mean	stdev	stdev/sqrt(N)	mean	stdev	stdev/sqrt(N)	mean	stdev	stdev/sqrt(N)	mean	stdev	stdev/sqrt(N)	mean	stdev	stdev/sqrt(N)	mean	stdev	stdev/sqrt(N)	mean	stdev	stdev/sqrt(N)	mean	stdev	stdev/sqrt(N)	mean	stdev	stdev/sqrt(N)	mean	stdev	stdev/sqrt(N)
10	1000000	3231	0.137943498006	0.12934952191	0.00227560222035	0.261231755408	0.200904445592	0.00353444369734	0.117246944568	0.0922194801835	0.00162238600319	0.235015193528	0.163523276442	0.00287680948068	0.107405339511	0.0787134225405	0.00138477851684	0.222727770728	0.149635486247	0.00263248630315	0.100884827197	0.0710594570509	0.00125012490077	0.213721181231	0.140906349309	0.00247891756085	0.0842505247672	0.0554758628449	0.000975968019069	0.19014372967	0.121458980904	0.00213678661155	0.0750303978084	0.0492633705164	0.000866673750887	0.175353578589	0.112601968093	0.00198096819242	
20	1000000	3231	0.158885665779	0.138508741399	0.00243673725895	0.292028517392	0.212026597786	0.00373011194454	0.132855857758	0.0983466677114	0.00173017953297	0.259419496939	0.171631541385	0.00301945543278	0.120842966967	0.0842723752563	0.00148257528452	0.24346426047	0.156193350159	0.00274785657634	0.113037697158	0.0759482949922	0.00133613256674	0.233104148484	0.14672890636	0.00258135183008	0.0929241592641	0.0591612305324	0.00104080344149	0.205437137394	0.126840814595	0.00223146738435	0.0815265570982	0.0523032768404	0.000920153790694	0.187468572712	0.117461048847	0.00206645235031	
30	1000000	3231	0.171659522284	0.144226370038	0.00253732555827	0.309127802222	0.216927814832	0.0038163373919	0.142401933995	0.103901061901	0.00182789610404	0.273579575453	0.17682027085	0.00311073898851	0.128349891027	0.0874879183917	0.00153914524311	0.255723047927	0.159344180521	0.00280328806509	0.11959259084	0.0789911440007	0.0013896643762	0.244324792997	0.150223839456	0.00264283700139	0.0976616544323	0.0614538578174	0.00108113685489	0.213974136438	0.130764085286	0.00230048815354	0.0852197582964	0.0542619111068	0.000954611378319	0.194896685171	0.12124339631	0.00213299390498	
40	1000000	3231	0.178965346579	0.146409712384	0.00257573635885	0.319998827444	0.218707769993	0.00384765153868	0.149496075208	0.106617171736	0.00187567970215	0.284599137566	0.179638048272	0.00316031118997	0.134473763678	0.0903842112699	0.00159009874033	0.265882968308	0.162964083869	0.00286697179561	0.125396681862	0.0815414096888	0.00143453033455	0.253979164782	0.153543776235	0.00270124352191	0.100928782383	0.063045374517	0.00110913586781	0.219645830355	0.132486956943	0.00233079804962	0.0876623879731	0.0554638358963	0.000975756433045	0.199766046444	0.123318806842	0.0021695058978	
50	1000000	3231	0.184091004648	0.149006869613	0.00262142726416	0.326278697604	0.220176861702	0.00387349677031	0.151796860628	0.107514911423	0.00189147333166	0.289280896638	0.180900613223	0.00318252306646	0.137265346758	0.0919631368224	0.00161787624147	0.270824345303	0.164665709236	0.00289690791292	0.127294560777	0.0826811488514	0.00145458137865	0.257437675986	0.154665972525	0.00272098594023	0.102852252473	0.0639843437509	0.00112565483473	0.223349562844	0.134246721168	0.00236175698413	0.0892115320084	0.0562135983457	0.000988946749248	0.202699955155	0.124540964005	0.0021910068938	
100	1000000	3231	0.188695223205	0.150775508763	0.0026525423322	0.337528950653	0.221758608897	0.00390132391166	0.15813103478	0.108455936425	0.001908028465	0.301572385716	0.182699002017	0.0032141615099	0.142854272219	0.0925878816747	0.00162886716554	0.282340325069	0.166405281777	0.00292751162199	0.133377360661	0.0842483095719	0.0014821519051	0.26976113893	0.158075394671	0.00278096674642	0.107872007348	0.0659717122107	0.00116061793326	0.234047986945	0.137491961237	0.00241884939081	0.0941903382297	0.0579294647476	0.00101913340426	0.213536814541	0.127927227518	0.00225058027803	
200	1000000	3231	0.190317522353	0.148638951833	0.00261495461157	0.344387516819	0.220729572219	0.00388322041878	0.159469427869	0.108874507683	0.00191539224703	0.306966904937	0.184262369868	0.00324166530969	0.144632943597	0.0934374347958	0.00164381306514	0.287796510241	0.168443981381	0.00296337777192	0.135336763575	0.0848753223344	0.00149318272774	0.275778843118	0.159390503954	0.0028041030175	0.110670528366	0.0668437087046	0.0011759586715	0.241270374193	0.139720225378	0.00245805048526	0.0972224797745	0.0590891803867	0.00103953588774	0.221085853158	0.13043386519	0.00229467870351	
500	1000000	3231	0.181648859977	0.140920559013	0.00247916754734	0.340221810201	0.216990156234	0.00381743414301	0.156671129972	0.105612198162	0.0018579995433	0.308571144394	0.182774519431	0.00321549006213	0.143898118302	0.0912160883763	0.00160473367181	0.292292891562	0.167915914725	0.00295408767454	0.13501197272	0.0836110447045	0.00147094072066	0.280044195857	0.160248935453	0.0028192051114	0.113030345314	0.0673414400496	0.00118471509006	0.248530407851	0.141747778182	0.00249372053331	0.0999609210786	0.0601462382568	0.00105813234794	0.228010221792	0.132730550062	0.00233508350066	
1000	1000000	3231	0.175157042619	0.139533811795	0.00245477097439	0.3302379138	0.21485480376	0.00377986761196	0.153525016954	0.104787615032	0.00184349293226	0.304786775364	0.18098396445	0.0031839894363	0.140821328035	0.0900204708276	0.00158369957823	0.288329516574	0.165612317073	0.0029135612632	0.132932970815	0.0824695146434	0.00145085816989	0.277702640756	0.157963596604	0.00277899992099	0.11354692198	0.0679881580813	0.00119609258081	0.250413015936	0.142812929616	0.00251245938084	0.100833350952	0.0614076855085	0.00108032456113	0.229937766129	0.134779649926	0.00237113261883	
