##		k:	5						10						15						20						50						100					
##		wn_meas:	path			wup			path			wup			path			wup			path			wup			path			wup			path			wup		
## min triple counts	verb freq	verbs	mean	stdev	stdev/sqrt(N)	mean	stdev	stdev/sqrt(N)	mean	stdev	stdev/sqrt(N)	mean	stdev	stdev/sqrt(N)	mean	stdev	stdev/sqrt(N)	mean	stdev	stdev/sqrt(N)	mean	stdev	stdev/sqrt(N)	mean	stdev	stdev/sqrt(N)	mean	stdev	stdev/sqrt(N)	mean	stdev	stdev/sqrt(N)	mean	stdev	stdev/sqrt(N)	mean	stdev	stdev/sqrt(N)
10	1000000	3308	0.124871875873	0.122083473906	0.00212262917044	0.0	0.0	0.0	0.108329791126	0.0899283525612	0.00156355760767	0.0	0.0	0.0	0.0998603749139	0.0764921943242	0.00132994710741	0.0	0.0	0.0	0.0949460378331	0.0699019721214	0.00121536486757	0.0	0.0	0.0	0.0835050013356	0.0570313718808	0.000991587556541	0.0	0.0	0.0	0.0781537620087	0.0527918402607	0.000917876077027	0.0	0.0	0.0	
