stock	carry	70	jewel	-1	fee	-1	coat	-1
campaign	fight	32	medicine	-1	administer	-1	lump	-1
campaign	push	-1	caw	-1	beef	-1	dedicate	-1
campaign	run	-1	fade	-1	resist	-1	benefit	-1
campaign	press	-1	sharpen	-1	vent	-1	renew	-1
campaign	crusade	-1	recommend	-1	rebound	-1	alienate	-1
air	broadcast	-1	butter	-1	reel	-1	refine	-1
air	transmit	-1	flip	-1	reach	-1	rebound	-1
air	send	-1	horse	-1	converge	-1	add	-1
air	vent	-1	dyke	-1	wield	-1	dong	-1
air	publicize	-1	jazz	-1	respite	-1	cabbage	-1
air	beam	-1	flop	-1	dispense	-1	buy	-1
near	approach	8	slot	-1	bronze	-1	outnumber	-1
research	explore	-1	thrive	-1	walk	-1	jewel	-1
bond	stick	-1	shower	-1	comb	-1	diminish	-1
bond	adhere	-1	snow	-1	breathe	-1	pole	-1
bond	attach	-1	wreak	-1	encore	-1	blueprint	-1
bond	tie	-1	break	-1	air	-1	machine	-1
profit	benefit	-1	egg	-1	linger	-1	hare	-1
profit	gain	-1	account	-1	disband	-1	light	-1
border	march	-1	provoke	-1	uniform	-1	tack	-1
border	butt	-1	style	-1	shovel	-1	punch	-1
border	surround	12	deaf	-1	rouse	-1	allocate	-1
border	frame	-1	sham	-1	alibi	-1	romance	-1
border	skirt	-1	cost	-1	throttle	-1	sell	-1
border	edge	-1	supply	-1	band	-1	link	-1
bid	invite	-1	litter	-1	bind	-1	puff	-1
bid	offer	-1	leap	-1	smell	-1	discuss	-1
bid	tender	-1	quell	-1	salaam	-1	engage	-1
bid	wish	-1	chain	-1	absent	-1	coexist	-1
bid	conjure	-1	stew	-1	touch	-1	initiate	-1
bid	press	-1	grey	-1	fix	-1	instruct	-1
bid	call	-1	tow	-1	hale	-1	dust	-1
bob	tail	-1	credit	-1	insist	-1	integrate	-1
bob	dock	-1	salute	-1	abide	-1	blanco	-1
battle	combat	-1	tinker	-1	entice	-1	deserve	-1
champion	defend	-1	worry	-1	recognize	-1	augment	-1
stake	punt	-1	knight	-1	moot	-1	stomach	-1
stake	hazard	-1	listen	-1	spice	-1	abstract	-1
stake	game	-1	patronage	-1	quit	-1	erect	-1
stake	adventure	-1	bark	-1	boo	-1	climb	-1
stake	post	-1	blackmail	-1	bid	-1	click	-1
stake	venture	-1	bach	-1	blossom	-1	control	-1
stake	jeopardize	-1	alert	-1	receipt	-1	package	-1
institute	establish	86	construct	26	center	-1	paragraph	-1
institute	bring	50	mediate	-1	educate	-1	loft	-1
institute	plant	-1	berry	-1	estimate	-1	betray	-1
weather	endure	-1	intrigue	-1	retrieve	-1	visa	-1
weather	brave	-1	pollard	-1	wire	-1	yarn	-1
picture	render	-1	premise	-1	paste	-1	comprehend	-1
picture	fancy	-1	marinade	-1	retail	-1	submit	-1
picture	image	-1	ante	-1	preside	-1	surcharge	-1
picture	project	-1	clinch	-1	pollard	-1	censor	-1
picture	envision	-1	fullback	-1	temper	-1	vacate	-1
foot	pick	-1	highlight	-1	parachute	-1	enable	-1
rally	tease	-1	disgrace	-1	breaststroke	-1	club	-1
rally	summon	-1	racketeer	-1	join	-1	pass	-1
rally	mobilize	2	throw	-1	invalid	-1	repay	-1
rally	rebound	-1	top	-1	devalue	-1	slug	-1
rally	bait	-1	bag	-1	thrust	-1	autopsy	-1
rally	ride	-1	determine	-1	spam	-1	staff	-1
rally	cod	-1	licence	-1	record	-1	lift	-1
rally	muster	-1	field	-1	intervene	-1	call	-1
square	feather	-1	skin	-1	forbid	-1	yarn	-1
dispute	quarrel	-1	type	-1	tongue	-1	highlight	-1
dispute	challenge	8	staff	-1	rev	-1	release	-1
dispute	scrap	-1	implant	-1	pipe	-1	contend	-1
loan	lend	-1	patch	-1	class	-1	freeze	-1
trim	pare	-1	drum	-1	delegate	-1	produce	-1
trim	dress	-1	shatter	-1	debate	-1	postpone	-1
trim	clip	-1	reopen	-1	choke	-1	drown	-1
trim	reduce	-1	revert	-1	moderate	-1	reassess	-1
trim	crop	-1	ambition	-1	ford	-1	scare	-1
trim	garnish	-1	trade	-1	race	-1	cite	-1
trim	cut	6	retail	-1	decorate	-1	quicken	-1
trim	shave	-1	meter	-1	tout	-1	soldier	-1
image	fancy	-1	content	-1	cricket	-1	notice	-1
image	project	-1	jack	-1	noise	-1	translate	-1
image	envision	-1	convict	-1	wreath	-1	wager	-1
image	picture	-1	garage	-1	hurdle	-1	garden	-1
speed	race	6	sniff	-1	spill	-1	keen	-1
speed	accelerate	-1	approve	-1	picket	-1	prompt	-1
speed	quicken	-1	double	-1	reassess	-1	comment	-1
speed	zip	-1	admire	-1	parody	-1	total	-1
speed	hasten	-1	chin	-1	estimate	-1	prosecute	-1
speed	rush	-1	detail	-1	shade	-1	attain	-1
speed	hurry	-1	sway	-1	discuss	-1	perceive	-1
style	tailor	-1	marshal	-1	form	-1	moderate	-1
style	cut	35	sprint	-1	baby	-1	downgrade	-1
poll	canvas	-1	crowd	-1	drug	-1	topple	-1
table	defer	-1	smoke	-1	whiz	-1	sow	-1
table	postpone	-1	stool	-1	dawn	-1	underperform	-1
broadcast	distribute	-1	warm	-1	pocket	-1	flash	-1
broadcast	spread	22	fall	-1	upset	-1	represent	-1
broadcast	beam	-1	desolate	-1	plant	-1	offset	-1
broadcast	circulate	-1	fan	-1	piece	-1	staff	-1
broadcast	transmit	6	pink	-1	babbitt	-1	shallow	-1
broadcast	send	37	hike	-1	move	-1	tame	-1
broadcast	disperse	-1	depart	-1	shark	-1	support	49
broadcast	air	-1	backpack	-1	overlook	-1	revert	-1
farm	grow	33	trail	-1	ambition	-1	judge	-1
farm	produce	-1	plaster	-1	picnic	-1	bring	-1
farm	raise	-1	wipe	-1	brain	-1	erase	-1
channel	convey	-1	premiere	-1	instruct	-1	charcoal	-1
channel	carry	-1	orphan	-1	disrupt	-1	bell	-1
channel	transport	-1	heed	-1	wander	-1	bail	-1
channel	transfer	5	balk	-1	arbitrage	-1	swear	-1
channel	transmit	-1	lame	-1	dart	-1	mold	-1
channel	conduct	-1	inconvenience	-1	query	-1	chart	-1
edge	butt	-1	jelly	-1	uncover	-1	rattle	-1
edge	march	-1	bloody	-1	dye	-1	fracture	-1
edge	inch	18	capitalize	-1	smuggle	-1	field	-1
edge	border	-1	tail	-1	market	-1	rebound	-1
assault	attack	10	carve	-1	grey	-1	crunch	-1
assault	round	-1	crank	-1	sentence	-1	team	-1
perfect	consummate	-1	establish	-1	loop	-1	worry	-1
discount	ignore	32	metal	-1	tell	88	cheese	-1
discount	dismiss	30	contend	-1	huddle	-1	grind	-1
discount	disregard	-1	settle	-1	rescue	-1	outrage	-1
blast	smash	28	bravo	-1	incense	-1	warm	-1
blast	boom	-1	cover	-1	scream	-1	dose	-1
blast	nail	-1	feature	-1	lob	-1	bach	-1
blast	shell	-1	abstract	-1	cough	-1	issue	-1
steady	calm	1	spawn	-1	forward	-1	burke	-1
steady	stabilize	-1	debate	-1	metal	-1	attain	-1
steady	brace	-1	exhibit	-1	accumulate	-1	haunt	-1
pool	combine	-1	participate	-1	function	-1	manure	-1
veto	prohibit	-1	detour	-1	reveal	-1	bell	-1
veto	negative	-1	malfunction	-1	resist	-1	call	29
veto	forbid	-1	tame	-1	outweigh	-1	welsh	-1
branch	separate	-1	spill	-1	flow	-1	traffic	-1
branch	fork	-1	retire	-1	canopy	-1	zoom	-1
pitch	tilt	-1	prop	-1	strand	-1	stew	-1
pitch	deliver	-1	pray	-1	approximate	-1	design	-1
pitch	peddle	-1	adapt	-1	remove	-1	crust	-1
pitch	flip	-1	pinnacle	-1	swarm	-1	enact	-1
pitch	toss	-1	crow	-1	doubt	-1	map	-1
pitch	hawk	-1	rig	-1	distrust	-1	bath	-1
pitch	slant	-1	format	-1	chronicle	-1	condone	-1
pitch	shift	-1	rebate	-1	beard	-1	harp	-1
pitch	slope	-1	accuse	-1	weigh	-1	cost	-1
pitch	gear	-1	murder	-1	gossip	-1	honour	-1
bet	count	-1	sunday	-1	fill	-1	arch	-1
bet	depend	-1	surprise	-1	capture	-1	hog	-1
bet	calculate	-1	egg	-1	fate	-1	landscape	-1
bet	wager	-1	inhibit	-1	subsidize	-1	deregulate	-1
bet	reckon	-1	conceive	-1	cascade	-1	model	-1
bet	look	-1	dun	-1	lead	-1	twist	-1
bet	play	-1	fuel	-1	multiply	-1	sit	-1
pop	bulge	34	cheese	-1	couch	-1	violate	-1
bed	love	-1	autograph	-1	intermediate	-1	deter	-1
bed	screw	-1	fetch	-1	prejudice	-1	skip	-1
bed	bang	-1	coke	-1	score	-1	oversee	-1
bed	jazz	-1	honey	-1	disorder	-1	pluck	-1
inch	edge	16	caw	-1	shallow	-1	lump	-1
plot	diagram	-1	dull	-1	lever	-1	drink	-1
calm	steady	1	enter	-1	fetch	-1	rage	-1
calm	lull	-1	redesign	-1	win	-1	throw	-1
calm	quiet	-1	fend	-1	pillow	-1	mar	-1
harry	provoke	-1	dope	-1	pioneer	-1	bracket	-1
harry	plague	-1	ditch	-1	edit	-1	surrender	-1
harry	hassle	-1	scorn	-1	spot	-1	command	-1
harry	beset	-1	trim	-1	hare	-1	wreak	-1
harry	chevy	-1	clinch	-1	sort	-1	cease	-1
boom	blast	-1	asphalt	-1	skate	-1	graph	-1
boom	thunder	-1	bat	-1	whine	-1	wonder	-1
boom	thrive	7	remove	-1	compel	-1	shift	-1
boom	smash	-1	crew	-1	default	-1	favor	-1
boom	expand	14	scramble	-1	bleed	-1	telex	-1
boom	prosper	-1	cricket	-1	hamstring	-1	mutiny	-1
boom	din	-1	furnish	-1	abandon	-1	cooper	-1
boom	nail	-1	pretend	-1	foresee	-1	deck	-1
boom	flourish	-1	mortgage	-1	middle	-1	process	-1
bloom	flower	-1	perform	-1	mimic	-1	sneak	-1
crown	top	-1	generate	-1	join	-1	reprise	-1
rape	violate	-1	sustain	-1	xerox	-1	fade	-1
rape	spoil	-1	founder	-1	override	-1	disappear	-1
patrol	police	-1	employ	-1	position	-1	forest	-1
raid	bust	-1	corset	-1	blur	-1	clash	-1
polish	shine	-1	bully	-1	confer	-1	file	-1
polish	smooth	-1	pollard	-1	peek	-1	spirit	-1
polish	round	-1	stereotype	-1	gather	-1	leaf	-1
polish	refine	-1	handle	-1	pulp	-1	break	24
nick	chip	-1	behold	-1	rub	-1	intern	-1
charter	lease	-1	instance	-1	commute	-1	streak	-1
charter	engage	-1	provide	-1	nick	-1	chance	-1
dawn	click	-1	cue	-1	hamstring	-1	hail	-1
dawn	penetrate	-1	admire	-1	funnel	-1	interact	-1
harvest	reap	-1	explain	-1	adventure	-1	costume	-1
levy	impose	14	condition	-1	grace	-1	stroke	-1
levy	raise	28	precondition	-1	lyric	-1	barrage	-1
levy	recruit	-1	satisfy	-1	bond	-1	cone	-1
slump	sink	-1	ought	-1	telecast	-1	neck	-1
rob	soak	-1	rail	-1	implement	-1	sniff	-1
rob	pluck	-1	taxi	-1	batch	-1	vow	-1
rob	plume	-1	champion	-1	remark	-1	fast	-1
rob	hook	-1	elect	-1	sport	-1	dice	-1
rob	surcharge	-1	institute	-1	canal	-1	swell	-1
lease	charter	-1	repeal	-1	dispel	-1	hale	-1
lease	hire	-1	imitate	-1	nick	-1	concrete	-1
smooth	shine	-1	wedge	-1	arrange	-1	cop	-1
smooth	polish	-1	wipe	-1	simulate	-1	shrink	-1
tender	bid	-1	normalize	-1	read	-1	bankrupt	-1
tender	offer	32	clutter	-1	bench	-1	hash	-1
rear	rise	-1	panel	-1	mail	-1	appropriate	-1
rear	lift	90	contribute	-1	rob	-1	uphold	-1
rear	erect	-1	coax	-1	dog	-1	stalk	-1
rear	nurture	-1	moon	-1	sail	-1	hand	-1
rear	parent	-1	urge	-1	balloon	-1	flavor	-1
rear	raise	96	manipulate	-1	attract	-1	lounge	-1
cloud	fog	-1	yield	-1	flute	-1	implement	-1
cloud	mist	-1	dismiss	-1	humble	-1	rail	-1
cloud	obscure	-1	exhaust	-1	bear	-1	nurture	-1
cloud	corrupt	-1	leach	-1	forge	-1	evidence	-1
stream	pour	-1	stain	-1	lose	-1	baa	-1
blind	dim	-1	free	-1	describe	-1	terrace	-1
volunteer	offer	-1	pay	-1	safeguard	-1	jade	-1
stamp	stereotype	-1	occur	-1	brake	-1	search	-1
stamp	boss	-1	starve	-1	bog	-1	dislike	-1
dust	sprinkle	-1	learn	-1	message	-1	pole	-1
dust	disperse	-1	catalog	-1	warn	-1	audit	-1
upgrade	raise	-1	fetch	-1	sole	-1	destabilize	-1
upgrade	promote	-1	belong	-1	backfire	-1	knit	-1
upgrade	advance	48	enrich	-1	wrestle	-1	slide	-1
upgrade	elevate	-1	pick	-1	post	-1	dish	-1
pierce	thrust	-1	yarn	-1	recount	-1	output	-1
lap	lick	-1	bunch	-1	overwhelm	-1	freight	-1
lap	wash	-1	backpack	-1	land	-1	discord	-1
consent	accept	137	insist	-1	distribute	-1	allowance	-1
spell	write	93	pick	49	buffalo	-1	mirror	-1
spell	import	-1	indulge	-1	crane	-1	dun	-1
pit	stone	-1	skim	-1	trade	-1	flourish	-1
pit	mark	-1	blaze	-1	lean	-1	tick	-1
pit	match	-1	sprawl	-1	premier	-1	inflate	-1
pit	scar	-1	venture	-1	tarnish	-1	fiddle	-1
pit	oppose	-1	wonder	-1	utter	-1	regard	-1
slash	whip	-1	liberate	-1	dam	-1	crunch	-1
slash	toss	-1	fumble	-1	unleash	-1	punish	-1
slash	strap	-1	depart	-1	advantage	-1	march	-1
flower	blossom	-1	augment	-1	wilt	-1	lace	-1
flower	bloom	-1	dilute	-1	obtain	-1	bitch	-1
punch	plug	4	shampoo	-1	key	-1	reschedule	-1
labour	dig	-1	age	-1	endanger	-1	implicate	-1
labour	tug	-1	piece	-1	forest	-1	japan	-1
labour	grind	-1	lighten	-1	alert	-1	curse	-1
labour	push	-1	handle	-1	paste	-1	applaud	-1
labour	drive	-1	lick	-1	harbinger	-1	bog	-1
shield	harbour	-1	line	-1	position	-1	rendezvous	-1
shield	screen	-1	horse	-1	slam	-1	root	-1
shield	harbor	-1	slam	-1	revise	-1	appease	-1
audit	inspect	-1	create	-1	funk	-1	cheat	-1
audit	scrutinize	-1	confederate	-1	thunder	-1	secede	-1
merit	rate	-1	obey	-1	pass	-1	privilege	-1
merit	deserve	8	establish	-1	disguise	-1	brave	-1
repeal	vacate	-1	temper	-1	muddy	-1	boost	-1
repeal	lift	-1	rouse	-1	perpetuate	-1	purple	-1
repeal	rescind	-1	ham	-1	pirate	-1	harbinger	-1
repeal	reverse	-1	rattle	-1	slander	-1	recall	-1
repeal	overturn	-1	chauffeur	-1	clown	-1	winter	-1
repeal	revoke	-1	publish	-1	beef	-1	excerpt	-1
hammer	forge	-1	route	-1	reign	-1	research	-1
rage	ramp	-1	partition	-1	caddie	-1	vote	-1
rage	storm	-1	campaign	-1	trick	-1	dot	-1
herald	acclaim	-1	outcry	-1	hue	-1	yarn	-1
herald	harbinger	-1	break	-1	recognise	-1	spoof	-1
herald	announce	12	pen	-1	wave	-1	split	-1
scrap	quarrel	-1	crusade	-1	waive	-1	sort	-1
scrap	trash	-1	reap	-1	nominate	-1	shield	-1
scrap	junk	-1	allure	-1	lam	-1	glide	-1
scrap	dispute	-1	boost	-1	slush	-1	depict	-1
hatch	cover	-1	trump	-1	sit	-1	render	-1
overthrow	reverse	-1	powder	-1	crest	-1	spill	-1
privilege	favor	-1	survive	-1	vow	-1	tongue	-1
privilege	favour	-1	occur	-1	disorder	-1	navigate	-1
bow	bend	22	sit	-1	stabilize	-1	task	-1
bow	crouch	-1	tackle	-1	horn	-1	exchange	-1
bow	submit	-1	scratch	44	integrate	-1	doom	-1
bow	defer	-1	harp	-1	conserve	-1	muse	-1
bare	strip	-1	scrub	-1	whiz	-1	confuse	-1
bare	publicize	-1	spare	-1	square	-1	disappoint	-1
stabilize	steady	-1	crib	-1	delegate	-1	compose	-1
stabilize	brace	-1	evict	-1	revolt	-1	quarterback	-1
breach	violate	-1	light	-1	stray	-1	pit	-1
breach	offend	-1	pardon	-1	police	-1	gift	-1
breach	gap	-1	pinnacle	-1	avoid	-1	fin	-1
fancy	figure	-1	smear	-1	tree	-1	share	66
fancy	image	-1	preside	-1	head	-1	awake	-1
fancy	project	-1	invent	-1	flourish	-1	flower	-1
fancy	envision	-1	whiz	-1	fix	-1	solicit	-1
fancy	picture	-1	stereotype	-1	unravel	-1	host	-1
click	chatter	-1	remember	-1	fox	-1	weary	-1
click	snap	6	kayak	-1	mouth	-1	accumulate	-1
click	dawn	-1	confirm	-1	favour	-1	brand	-1
click	penetrate	-1	dial	-1	true	-1	remedy	-1
whip	lash	-1	bounce	-1	jab	-1	minimize	-1
whip	strap	-1	smuggle	-1	duel	-1	market	-1
whip	slash	-1	discover	-1	catalogue	-1	reassess	-1
whip	worst	-1	sport	-1	heed	-1	shed	-1
dissent	resist	-1	formulate	-1	wrestle	-1	scale	-1
dissent	protest	-1	deny	-1	duck	-1	reprise	-1
avert	deflect	-1	coin	-1	chatter	-1	reprise	-1
avert	avoid	22	hum	-1	loft	-1	bravo	-1
reign	rule	-1	treasure	-1	dash	-1	label	-1
reign	dominate	-1	channel	-1	discredit	-1	deem	-1
reign	prevail	-1	whale	-1	blood	-1	hoot	-1
insure	cover	30	babbitt	-1	board	-1	harm	-1
insure	underwrite	-1	bag	-1	assert	-1	rendezvous	-1
insure	check	-1	spoof	-1	slalom	-1	govern	-1
insure	control	-1	pose	-1	enter	-1	sleep	-1
insure	guarantee	-1	hit	-1	dummy	-1	sliver	-1
drill	exercise	-1	whiff	-1	prod	-1	solo	-1
drill	practice	-1	prepare	26	insure	-1	sprinkle	-1
skip	hop	-1	bitter	-1	boss	-1	start	-1
skip	jump	-1	sweep	-1	crust	-1	bias	-1
skip	cut	-1	appreciate	-1	pot	-1	tone	-1
delegate	assign	29	snap	-1	excuse	-1	dip	-1
plug	secure	-1	damage	-1	deaf	-1	cheek	-1
plug	punch	2	streak	-1	head	-1	matter	-1
duck	fudge	-1	humble	-1	embrace	-1	suck	-1
duck	hedge	-1	faint	-1	bow	11	range	-1
duck	dodge	-1	whistle	-1	funnel	-1	accelerate	-1
duck	sidestep	-1	sap	-1	crow	-1	pot	-1
duck	elude	-1	opt	-1	lot	-1	wing	-1
duck	circumvent	-1	deter	-1	ambush	-1	belt	-1
duck	parry	-1	compete	-1	accomplish	-1	venture	-1
duck	evade	-1	exhaust	-1	triple	-1	wrinkle	-1
duck	skirt	-1	ready	-1	rope	-1	bow	11
duck	dip	30	appropriate	-1	cannon	-1	fancy	-1
curve	arch	-1	buckle	-1	bow	-1	casket	-1
curve	trend	-1	centre	-1	urge	-1	pretend	-1
curve	wind	-1	slice	-1	update	-1	jog	-1
curve	arc	-1	brace	-1	bar	-1	deprive	-1
curve	cut	-1	fend	-1	tilt	-1	harm	-1
curve	sheer	-1	keynote	-1	overdose	-1	appropriate	-1
curve	crook	-1	background	-1	sleep	-1	crack	-1
expire	die	-1	cook	-1	concord	-1	cone	-1
expire	pass	44	pose	-1	win	107	bucket	-1
expire	exhale	-1	muscle	-1	wander	-1	putt	-1
bounce	spring	-1	blitz	-1	swamp	-1	fiddle	-1
coordinate	align	-1	sled	-1	set	-1	cover	105
coordinate	organize	23	split	-1	delete	-1	replicate	-1
pin	trap	-1	field	-1	wear	-1	maximize	-1
woo	solicit	-1	tent	-1	assist	-1	except	-1
woo	court	-1	fullback	-1	gravel	-1	cooper	-1
woo	romance	-1	ferret	-1	dissuade	-1	weather	-1
prosecute	engage	-1	whisk	-1	wire	-1	obstruct	-1
evacuate	void	-1	boot	-1	foam	-1	anticipate	-1
evacuate	empty	-1	telecast	-1	cane	-1	stump	-1
purse	wrinkle	-1	cannon	-1	bulletin	-1	disgust	-1
log	lumber	-1	encourage	62	simplify	-1	purchase	17
haul	drag	-1	wipe	-1	mentor	-1	vow	-1
haul	cart	-1	mandate	-1	derive	-1	crew	-1
minimize	downplay	-1	fudge	-1	coexist	-1	foul	-1
dash	scare	-1	hammer	-1	beset	-1	transform	-1
dash	dart	-1	knock	-1	church	-1	section	-1
dash	scud	-1	circulate	-1	curl	-1	perfume	-1
dash	shoot	-1	bribe	-1	fulfill	-1	prospect	-1
dash	pall	-1	resurrect	-1	dimension	-1	apologize	-1
heal	cure	-1	safeguard	-1	dampen	-1	net	-1
heal	mend	-1	rap	-1	depend	58	polish	-1
worship	revere	-1	induce	-1	bath	-1	forge	-1
reap	draw	24	duck	-1	initiate	-1	fog	-1
reap	harvest	-1	mention	-1	outfit	-1	intercept	-1
drum	beat	-1	litter	-1	strengthen	-1	prelude	-1
drum	bone	-1	wreck	-1	don	-1	district	-1
clip	trim	-1	instill	-1	favour	-1	section	-1
clip	dress	-1	alert	-1	woo	-1	birdie	-1
clip	jog	-1	bump	-1	defer	-1	parent	-1
clip	crop	-1	cox	-1	fulfil	-1	signal	-1
clip	curtail	-1	pool	-1	power	-1	okay	-1
overturn	vacate	-1	pay	-1	split	-1	parry	-1
overturn	repeal	-1	aid	-1	plate	-1	affect	71
overturn	lift	-1	esquire	-1	smooth	-1	humble	-1
overturn	upset	-1	scuttle	-1	inflict	-1	nick	-1
overturn	rescind	-1	swan	-1	aim	-1	pole	-1
overturn	reverse	15	dog	-1	flee	-1	heel	-1
overturn	revoke	-1	proposition	-1	fund	-1	beaver	-1
scramble	beat	4	disgust	-1	award	-1	recruit	-1
scramble	skin	-1	grind	-1	knot	-1	quiet	-1
scramble	struggle	-1	rate	-1	slack	-1	hesitate	-1
scramble	shin	-1	spice	-1	screw	-1	wander	-1
remedy	repair	-1	entail	-1	conflict	-1	plant	-1
remedy	relieve	-1	slap	-1	respect	-1	cow	-1
coin	strike	-1	revitalize	-1	accompany	-1	screw	-1
coin	mint	-1	defraud	-1	swipe	-1	cane	-1
restart	resume	-1	prelude	-1	loosen	-1	sabre	-1
beam	shine	37	stomach	-1	flower	-1	burke	-1
beam	broadcast	-1	single	-1	thrill	-1	phrase	-1
beam	glow	21	sap	-1	prevent	-1	help	-1
beam	transmit	-1	dash	-1	explain	-1	rape	-1
beam	send	-1	dig	-1	finger	-1	feast	-1
beam	air	-1	bag	-1	tender	-1	caddie	-1
sting	bite	-1	cascade	-1	occur	-1	sack	-1
sting	burn	-1	fish	-1	drum	-1	birth	-1
verify	swan	-1	hedge	-1	crop	-1	slug	-1
verify	affirm	-1	hasten	-1	corral	-1	bang	-1
verify	assert	-1	dwindle	-1	reckon	-1	co-star	-1
verify	swear	-1	resurrect	-1	closet	-1	tarnish	-1
verify	control	-1	allure	-1	cable	-1	autopsy	-1
flock	cluster	-1	gasp	-1	solve	-1	fox	-1
subscribe	pledge	-1	tighten	-1	discover	-1	rely	-1
subscribe	sign	-1	rim	-1	respite	-1	stroke	-1
subscribe	support	-1	confess	-1	facilitate	-1	stroll	-1
tumble	topple	-1	lame	-1	issue	-1	nod	-1
tumble	collapse	-1	dread	-1	spotlight	-1	silhouette	-1
doom	sentence	-1	stabilize	-1	shed	-1	hood	-1
doom	fate	-1	trade	-1	dish	-1	suffice	-1
doom	designate	-1	wake	-1	implant	-1	strand	-1
doom	condemn	-1	tell	-1	bull	-1	cream	-1
withstand	defy	-1	belong	-1	pace	-1	institute	-1
withstand	resist	9	libel	-1	blueprint	-1	tail	-1
withstand	hold	-1	ridge	-1	inherit	-1	gin	-1
slope	pitch	-1	straw	-1	prize	-1	gentle	-1
hail	acclaim	-1	ripple	-1	poke	-1	enable	-1
stack	heap	-1	blunder	-1	bucket	-1	plague	-1
stack	distribute	-1	sprawl	-1	hound	-1	gather	-1
stack	pile	-1	vie	-1	punt	-1	climb	-1
rack	torment	-1	haze	-1	rig	-1	loaf	-1
rack	extort	-1	curry	-1	bray	-1	ginger	-1
rack	scud	-1	browse	-1	sway	-1	subject	-1
rack	wring	-1	sock	-1	covenant	-1	tumble	-1
rack	torture	-1	default	-1	sprinkle	-1	stumble	-1
commemorate	mark	14	earth	-1	verge	-1	depress	-1
commemorate	remember	13	orient	-1	seed	-1	intimate	-1
commemorate	record	15	downgrade	-1	hug	-1	carpet	-1
handicap	invalid	-1	establish	-1	pardon	-1	look	144
handicap	hinder	-1	wan	-1	humor	-1	narrow	-1
handicap	hamper	-1	garner	-1	report	-1	bruise	-1
erase	delete	-1	wed	-1	pattern	-1	answer	-1
dot	stud	-1	market	-1	job	-1	purge	-1
dot	sprinkle	-1	dawn	-1	impede	-1	mark	15
dot	disperse	-1	tuck	-1	bog	-1	capitalize	-1
ratify	sign	7	reward	-1	whale	-1	parcel	-1
endanger	expose	-1	intervene	-1	lob	-1	forestall	-1
endanger	threaten	13	loot	-1	garage	-1	glue	-1
endanger	peril	-1	explore	-1	string	-1	spit	-1
endanger	jeopardize	-1	upset	-1	mortar	-1	browse	-1
authorize	pass	-1	refocus	-1	staff	-1	tip	-1
authorize	empower	-1	exact	-1	penetrate	-1	field	-1
bribe	buy	-1	portion	-1	crib	-1	heat	-1
bribe	corrupt	-1	stomach	-1	cue	-1	course	-1
sneak	creep	-1	dull	-1	sow	-1	enact	-1
sneak	cabbage	-1	capitalize	-1	feel	-1	cruise	-1
sneak	lift	-1	sand	-1	compliment	-1	audit	-1
sneak	swipe	-1	beset	-1	nestle	-1	repair	-1
sneak	slip	-1	cartoon	-1	abolish	-1	understand	-1
sneak	mouse	-1	contain	-1	stall	-1	shin	-1
sneak	abstract	-1	slate	-1	wane	-1	defeat	-1
sneak	pinch	-1	tout	-1	discover	-1	descend	-1
sneak	hook	-1	unfold	-1	lecture	-1	corner	-1
whistle	sing	-1	humble	-1	cater	-1	prohibit	-1
filter	trickle	-1	tame	-1	slalom	-1	tail	-1
filter	strain	-1	discontent	-1	tail	-1	bounce	-1
filter	dribble	-1	drive	-1	pierce	-1	crawl	-1
arch	curve	-1	unify	-1	gown	-1	express	-1
articulate	pronounce	-1	name	-1	ensure	-1	organize	-1
articulate	joint	-1	bind	-1	shut	-1	rein	-1
articulate	word	-1	garnish	-1	dent	-1	voice	-1
articulate	phrase	-1	block	-1	affront	-1	torture	-1
stray	swan	-1	plump	-1	torment	-1	feature	-1
stray	range	-1	combat	-1	rerun	-1	peak	-1
stray	wander	52	harbour	-1	move	112	deal	-1
stray	depart	-1	fate	-1	mortgage	-1	release	-1
stray	drift	32	thin	-1	facilitate	-1	tumble	-1
stray	cast	-1	await	-1	whack	-1	bracket	-1
stray	roam	21	posture	-1	sanction	-1	moonlight	-1
alleviate	ease	22	lead	-1	palm	-1	quit	-1
alleviate	relieve	-1	outbid	-1	withstand	-1	peer	-1
alleviate	assuage	-1	thwart	-1	dictate	-1	crush	-1
dart	fleet	-1	propel	-1	toss	-1	tango	-1
dart	flash	51	aggravate	-1	surface	-1	nut	-1
dart	scud	-1	unlock	-1	jet	-1	clamp	-1
dart	shoot	44	consummate	-1	eat	-1	home	-1
dart	dash	-1	verge	-1	witch	-1	drain	-1
relinquish	waive	-1	stale	-1	apologize	-1	ready	-1
relinquish	renounce	-1	inch	-1	calendar	-1	swan	-1
relinquish	resign	12	refund	-1	disagree	-1	accelerate	-1
relinquish	release	-1	gash	-1	spar	-1	chip	-1
relinquish	free	-1	cure	-1	fog	-1	downgrade	-1
relinquish	surrender	-1	discover	-1	lull	-1	rust	-1
relinquish	forgo	-1	ease	-1	troop	-1	dam	-1
relinquish	quit	4	redeploy	-1	blink	-1	fracture	-1
reclaim	reform	-1	stream	-1	lash	-1	scramble	-1
reclaim	recover	14	rafter	-1	outcry	-1	trash	-1
reclaim	tame	-1	vote	-1	front	-1	seat	-1
peck	smack	-1	sag	-1	candy	-1	telecast	-1
worsen	exacerbate	5	dissent	-1	perfect	-1	white	-1
worsen	aggravate	7	sketch	-1	poke	-1	substitute	-1
worsen	decline	-1	hustle	-1	clean	-1	forward	-1
sanction	okay	-1	qualify	-1	affiliate	-1	fan	-1
sanction	approve	-1	deflect	-1	author	-1	aggregate	-1
heed	listen	-1	barrel	-1	swing	-1	blind	-1
heed	mind	-1	court	-1	cool	-1	corrupt	-1
bump	break	-1	regain	-1	submarine	-1	reshape	-1
bump	happen	-1	chronicle	-1	realise	-1	chair	-1
bump	knock	28	taboo	-1	compile	-1	poise	-1
bump	encounter	-1	advocate	-1	infiltrate	-1	kill	-1
bump	dislodge	-1	drum	-1	sip	-1	surface	-1
bump	chance	-1	finalize	-1	refuse	-1	defend	-1
dampen	soften	-1	slug	-1	brook	-1	recall	-1
dampen	break	-1	respond	-1	persuade	-1	broadcast	-1
dampen	dull	-1	output	-1	string	-1	lecture	-1
dampen	mute	-1	breaststroke	-1	mask	-1	quicken	-1
dampen	wash	-1	render	-1	recreate	-1	price	-1
dampen	stifle	-1	surpass	-1	battle	-1	mushroom	-1
dampen	weaken	-1	stir	-1	fragment	-1	judge	-1
hug	squeeze	-1	trick	-1	renew	-1	stress	-1
hug	embrace	-1	employ	-1	fret	-1	unfit	-1
duplicate	parallel	-1	phase	-1	inventory	-1	bond	-1
duplicate	twin	-1	sow	-1	dice	-1	smart	-1
duplicate	repeat	-1	capture	-1	bull	-1	embargo	-1
chop	hack	-1	stack	-1	sack	-1	cue	-1
abound	burst	-1	mix	-1	videotape	-1	delay	-1
thread	string	-1	cover	-1	sublime	-1	clutch	-1
thread	wind	17	plead	-1	endure	-1	fruit	-1
thread	draw	-1	manifest	-1	dash	-1	travel	61
thread	wander	-1	ship	-1	field	-1	bat	-1
thread	weave	25	doubt	-1	picture	-1	lend	-1
redeem	ransom	-1	appease	-1	till	-1	shirt	-1
redeem	save	-1	purge	-1	disk	-1	budge	-1
redeem	deliver	-1	re-examine	-1	bet	-1	racketeer	-1
peel	strip	-1	budge	-1	rebate	-1	mirror	-1
peel	pare	-1	doctor	-1	respond	-1	glimmer	-1
peel	skin	-1	pulse	-1	salute	-1	damp	-1
vest	robe	-1	slot	-1	rendezvous	-1	look	-1
swear	bank	-1	revere	-1	sit	-1	reform	-1
swear	trust	-1	invade	-1	crank	-1	throw	-1
swear	curse	-1	honor	-1	despair	-1	flame	-1
swear	affirm	-1	emerge	-1	kill	-1	caucus	-1
swear	verify	-1	refrain	-1	spruce	-1	tally	-1
swear	rely	-1	underline	-1	rescue	-1	train	-1
lessen	fall	-1	jockey	-1	trickle	-1	guarantee	-1
lessen	diminish	-1	negative	-1	applaud	-1	pearl	-1
lessen	decrease	-1	shower	-1	contrast	-1	pension	-1
defer	table	-1	curl	-1	flee	-1	peel	-1
defer	bow	-1	limp	-1	stint	-1	affect	28
defer	submit	-1	vacate	-1	fleet	-1	panic	-1
defer	postpone	4	respond	-1	promenade	-1	tube	-1
splash	sprinkle	-1	outbid	-1	scuffle	-1	jazz	-1
waive	forfeit	3	saute	-1	stroke	-1	translate	-1
waive	forgo	-1	style	-1	reprise	-1	drill	-1
waive	relinquish	-1	character	-1	gift	-1	swim	-1
eradicate	extinguish	-1	trade	-1	refuse	-1	separate	-1
unravel	run	-1	bush	-1	rape	-1	orient	-1
spit	sprinkle	-1	yen	-1	riddle	-1	opt	-1
gaze	stare	44	belong	-1	bolt	-1	ebb	-1
deduct	withhold	6	subject	-1	listen	-1	anger	-1
deduct	derive	-1	distinguish	-1	count	-1	announce	-1
deduct	recoup	-1	pig	-1	port	-1	reinforce	-1
loosen	tease	-1	pencil	-1	dart	-1	load	-1
loosen	relax	3	slur	-1	centre	-1	relate	-1
loosen	undo	-1	spotlight	-1	discover	-1	despair	-1
cheat	screw	-1	fade	-1	prey	-1	surrender	-1
cheat	wander	-1	flank	-1	farrow	-1	bite	-1
cheat	betray	-1	crib	-1	wield	-1	camouflage	-1
cheat	jockey	-1	scrape	-1	stalemate	-1	bench	-1
fracture	break	-1	cooperate	-1	suggest	-1	pad	-1
bless	sign	-1	scout	-1	unify	-1	placate	-1
quicken	accelerate	2	suffice	-1	sorrow	-1	slant	-1
quicken	speed	-1	labor	-1	extend	-1	ace	-1
quicken	repair	-1	horse	-1	slam	-1	ebb	-1
quicken	recreate	-1	witness	-1	mistrust	-1	jimmy	-1
quicken	revive	-1	subordinate	-1	erode	-1	light	-1
quicken	renovate	-1	sabotage	-1	delegate	-1	compare	-1
shave	trim	-1	bath	-1	romance	-1	suspend	-1
shave	plane	-1	bitch	-1	brown	-1	offend	-1
erupt	break	-1	lag	-1	steer	-1	roof	-1
erupt	flare	-1	towel	-1	hound	-1	awe	-1
erupt	burst	-1	cube	-1	short	-1	caw	-1
erupt	ignite	-1	gentle	-1	alleviate	-1	spoof	-1
flap	beat	49	pinnacle	-1	unravel	-1	turf	-1
flap	wave	33	spring	-1	reef	-1	undergo	-1
revoke	vacate	-1	robe	-1	fare	-1	pig	-1
revoke	repeal	-1	admire	-1	cane	-1	cheer	-1
revoke	lift	-1	snake	-1	render	-1	slur	-1
revoke	rescind	-1	shrine	-1	swoop	-1	blind	-1
revoke	overturn	-1	ripple	-1	complete	-1	vacuum	-1
evade	fudge	-1	cooper	-1	faint	-1	forget	-1
evade	dodge	-1	hoot	-1	joint	-1	pale	-1
evade	sidestep	-1	scalp	-1	seed	-1	collaborate	-1
evade	circumvent	-1	cease	-1	alibi	-1	yield	-1
evade	parry	-1	heel	-1	stampede	-1	evoke	-1
evade	duck	-1	tutor	-1	tug	-1	inquire	-1
evade	skirt	-1	yen	-1	fall	-1	foil	-1
stab	dig	75	crab	-1	indulge	-1	con	-1
stab	knife	-1	nest	-1	thunder	-1	junk	-1
stab	prod	-1	offset	-1	wedge	-1	cue	-1
stab	poke	20	bogey	-1	witch	-1	pirate	-1
tilt	angle	-1	deem	-1	mushroom	-1	starve	-1
tilt	lean	56	dice	-1	qualify	-1	chagrin	-1
tilt	pitch	-1	consume	-1	utter	-1	depress	-1
tilt	slant	-1	curtain	-1	crease	-1	carpenter	-1
tilt	shift	92	fiddle	-1	bash	25	arc	-1
tilt	sway	-1	devalue	-1	award	-1	heap	-1
foresee	counter	-1	mastermind	-1	bravo	-1	coast	-1
foresee	envision	-1	couple	-1	gaze	-1	till	-1
foresee	anticipate	5	exclude	-1	determine	-1	grab	-1
hinder	impede	2	skid	-1	lust	-1	conceive	-1
hinder	blockade	-1	co-author	-1	shuttle	-1	supervise	-1
hinder	obstruct	-1	golf	-1	sunday	-1	monkey	-1
hinder	embarrass	-1	uniform	-1	abandon	-1	defect	-1
hinder	handicap	-1	breath	-1	fire	-1	certify	-1
hinder	hamper	-1	surf	-1	slate	-1	hassle	-1
hinder	block	-1	disappoint	-1	repay	-1	originate	-1
mend	bushel	-1	usher	-1	interpret	-1	ally	-1
mend	heal	-1	center	-1	plaster	-1	button	-1
mend	repair	-1	prosper	-1	worship	-1	regard	-1
mend	doctor	-1	bash	-1	rubbish	-1	divide	-1
mend	restore	-1	exempt	-1	trip	-1	urge	-1
mend	fix	-1	rage	-1	game	-1	veneer	-1
ponder	muse	-1	sub	-1	shove	-1	cheer	-1
ponder	contemplate	-1	thunder	-1	grasp	-1	blind	-1
ponder	reflect	-1	capture	-1	waste	-1	toe	-1
ponder	speculate	-1	lime	-1	undo	-1	perk	-1
ascend	rise	-1	hush	-1	farm	-1	type	-1
deteriorate	drop	-1	fringe	-1	dirty	-1	booze	-1
underwrite	cover	-1	bind	-1	tongue	-1	flight	-1
underwrite	insure	-1	shuffle	-1	blend	-1	evade	-1
relish	enjoy	93	razor	-1	succumb	-1	stay	-1
relish	savor	-1	bleed	-1	reign	-1	founder	-1
roam	swan	-1	dial	-1	telex	-1	capsule	-1
roam	range	-1	undo	-1	model	-1	field	-1
roam	wander	2	prod	-1	lance	-1	retain	-1
roam	drift	26	flute	-1	bud	-1	depict	-1
roam	cast	-1	divine	-1	sprinkle	-1	fathom	-1
roam	stray	15	label	-1	creep	-1	eddy	-1
mobilize	rally	1	vent	-1	cannon	-1	canal	-1
mobilize	summon	-1	water	-1	demo	-1	savor	-1
mobilize	marshal	-1	possess	-1	commemorate	-1	sugar	-1
mobilize	circulate	-1	cool	-1	carp	-1	blanco	-1
scent	perfume	-1	fee	-1	garland	-1	ink	-1
scent	wind	-1	grind	-1	canal	-1	nail	-1
scent	nose	-1	hold	-1	monkey	-1	pose	-1
detain	stay	103	convene	-1	vanish	-1	reconstruct	-1
embark	ship	-1	underwrite	-1	hoot	-1	accession	-1
embark	enter	153	wrestle	-1	shut	-1	huddle	-1
embark	venture	-1	rig	-1	jolly	-1	curtain	-1
allay	ease	4	shark	-1	search	-1	dream	-1
allay	relieve	-1	jaw	-1	voyage	-1	haunt	-1
allay	assuage	-1	madden	-1	threaten	-1	restrain	-1
beware	mind	-1	leaf	-1	flame	-1	stalemate	-1
tidy	straighten	-1	nurture	-1	slur	-1	amnesty	-1
bark	skin	-1	concert	-1	revise	-1	bench	-1
deepen	change	-1	look	-1	flip	-1	pink	-1
deepen	compound	-1	dump	-1	rescue	-1	rear	-1
deepen	intensify	-1	tangle	-1	hoot	-1	continue	-1
deepen	heighten	-1	shanghai	-1	bath	-1	influence	-1
conquer	appropriate	-1	shower	-1	club	-1	record	-1
conquer	subdue	-1	dig	-1	lower	-1	shrink	-1
conquer	suppress	-1	horn	-1	qualify	-1	mill	-1
conquer	seize	-1	surge	-1	result	-1	grow	-1
conquer	capture	-1	rumble	-1	saint	-1	skin	-1
conquer	inhibit	-1	maximize	-1	tolerate	-1	fire	-1
blur	dim	-1	brake	-1	crest	-1	rethink	-1
blur	smear	-1	spell	-1	march	-1	rinse	-1
blur	confuse	-1	brigade	-1	head	-1	mind	-1
shuffle	mix	-1	nickel	-1	saute	-1	focus	-1
chew	jaw	-1	outlaw	-1	penetrate	-1	towel	-1
undo	loosen	-1	land	-1	ignore	-1	coax	-1
deflect	avert	-1	propel	-1	compound	-1	revoke	-1
deflect	bend	-1	quadruple	-1	saddle	-1	gravel	-1
deflect	parry	-1	forestall	-1	honey	-1	stint	-1
deflect	distract	1	hustle	-1	taxi	-1	smuggle	-1
deflect	avoid	-1	document	-1	dilute	-1	gauge	-1
deflect	block	-1	boycott	-1	quarrel	-1	landscape	-1
impede	obstruct	-1	tax	-1	flaw	-1	clamor	-1
impede	hinder	2	tangle	-1	train	-1	dun	-1
impede	jam	-1	hug	-1	visit	-1	paint	-1
impede	block	-1	chair	-1	examine	-1	hatch	-1
wield	handle	-1	perch	-1	bring	42	flurry	-1
wield	exert	4	extort	-1	assuage	-1	pot	-1
wield	maintain	52	minister	-1	plow	-1	hook	-1
preach	advocate	-1	conflict	-1	research	-1	rush	-1
unfold	stretch	-1	reopen	-1	shark	-1	prevent	-1
unfold	extend	-1	distress	-1	reference	-1	yellow	-1
unfold	spread	-1	pink	-1	motor	-1	train	-1
unfold	blossom	-1	witness	-1	cure	-1	worship	-1
dread	fear	-1	normalize	-1	triumph	-1	arrive	-1
distract	trouble	-1	welcome	-1	weight	-1	airlift	-1
distract	deflect	1	falter	-1	replenish	-1	favour	-1
distract	disorder	-1	libel	-1	railroad	-1	poison	-1
enlist	engage	-1	proof	-1	mature	-1	wing	-1
enlist	draft	-1	legislate	-1	raid	-1	mask	-1
renounce	vacate	-1	share	-1	succeed	-1	allay	-1
renounce	resign	-1	counterfeit	-1	re-enter	-1	proportion	-1
renounce	relinquish	-1	contain	-1	fulfil	-1	shuffle	-1
renounce	quit	-1	restrict	-1	chip	-1	quarter	-1
hasten	race	-1	scratch	-1	tie	-1	avenge	-1
hasten	expedite	-1	punt	-1	flaw	-1	thread	-1
hasten	speed	-1	network	-1	merchandise	-1	spill	-1
hasten	induce	-1	slow	-1	harp	-1	charm	-1
hasten	rush	-1	threaten	-1	combine	-1	debut	-1
hasten	stimulate	-1	claim	-1	corner	-1	anchor	-1
hasten	hurry	-1	prescribe	-1	rubber	-1	saute	-1
contradict	oppose	16	shock	-1	confuse	-1	mute	-1
cradle	rock	-1	pride	-1	cycle	-1	structure	-1
hack	chop	-1	cling	-1	worry	-1	clutter	-1
hack	cut	102	crisp	-1	hang	-1	reinforce	-1
soak	pluck	-1	capsule	-1	meet	-1	thirst	-1
soak	plume	-1	arch	-1	jazz	-1	officer	-1
soak	pawn	-1	parent	-1	motivate	-1	sock	-1
soak	rob	-1	barricade	-1	pain	-1	circle	-1
soak	hook	-1	sole	-1	spruce	-1	wrest	-1
soak	surcharge	-1	appreciate	-1	dispute	-1	channel	-1
harness	rule	-1	glimpse	-1	arrest	-1	shack	-1
harness	rein	-1	hoot	-1	barter	-1	limit	35
scrape	skin	-1	root	-1	veneer	-1	expand	-1
tick	beat	-1	harbor	-1	transit	-1	lumber	-1
congratulate	plume	-1	dampen	-1	whirlpool	-1	reunite	-1
congratulate	compliment	-1	reel	-1	accomplish	-1	scrimmage	-1
congratulate	pride	-1	snail	-1	compensate	-1	fix	-1
smack	taste	-1	grass	-1	secede	-1	motor	-1
smack	peck	-1	brag	-1	develop	-1	surf	-1
quash	subdue	-1	shield	-1	stale	-1	head	-1
quash	void	-1	mar	-1	inquire	2	tango	-1
quash	reduce	-1	purchase	-1	bard	-1	invite	-1
quash	avoid	-1	screw	-1	read	-1	lure	-1
reel	spin	-1	pyramid	-1	archive	-1	humble	-1
poke	pound	-1	head	-1	tree	-1	blueprint	-1
poke	dig	-1	elicit	-1	screen	-1	play	-1
poke	stab	24	list	-1	shock	-1	rush	-1
poke	prod	-1	poise	-1	tame	-1	slight	-1
poke	jab	6	court	-1	maximize	-1	grease	-1
poke	nose	-1	covenant	-1	explore	-1	trick	-1
reside	dwell	-1	kill	-1	whiff	-1	lipstick	-1
reside	people	-1	reunite	-1	sunday	-1	lot	-1
reside	inhabit	-1	sled	-1	bump	-1	spiral	-1
reside	occupy	8	rubbish	-1	mouth	-1	reform	-1
reside	live	-1	exhale	-1	harness	-1	lose	-1
reside	shack	-1	fix	-1	shred	-1	reply	-1
conserve	maintain	-1	net	-1	reshuffle	-1	override	-1
conserve	husband	-1	overthrow	-1	harbor	-1	preach	-1
shorten	contract	-1	chronicle	-1	disappoint	-1	leach	-1
shorten	reduce	86	instruct	-1	canvas	-1	implement	-1
shorten	cut	-1	card	-1	hollow	-1	acknowledge	-1
obstruct	impede	-1	joy	-1	base	-1	welsh	-1
obstruct	blockade	-1	yen	-1	warn	-1	nod	-1
obstruct	hinder	-1	decorate	-1	lose	-1	ambition	-1
obstruct	embarrass	-1	trumpet	-1	pen	-1	flaw	-1
obstruct	jam	-1	witness	-1	advise	-1	continue	-1
obstruct	block	-1	hare	-1	barter	-1	recognize	-1
soothe	solace	-1	invoke	-1	beetle	-1	booze	-1
soothe	console	-1	win	-1	blanket	-1	sap	-1
soothe	comfort	-1	dose	-1	dope	-1	crumb	-1
blink	flash	2	converge	-1	beacon	-1	doctor	-1
tread	step	-1	void	-1	accomplish	-1	resolve	-1
inquire	wonder	-1	discourage	-1	deliver	-1	eclipse	-1
inquire	investigate	-1	cable	-1	torpedo	-1	tide	-1
delete	erase	-1	argue	-1	hike	-1	eagle	-1
delete	cancel	-1	quantify	-1	access	-1	cite	-1
heighten	rise	-1	finalize	-1	copy	-1	flag	-1
heighten	enhance	-1	render	-1	dust	-1	certificate	-1
heighten	deepen	-1	bite	-1	raid	-1	hear	-1
heighten	compound	-1	voice	-1	wish	-1	frequent	-1
heighten	raise	10	smuggle	-1	hire	-1	ax	-1
heighten	sharpen	-1	eradicate	-1	draft	-1	nitrate	-1
heighten	intensify	-1	sack	-1	black	-1	guy	-1
multiply	reproduce	-1	tighten	-1	strain	-1	link	-1
multiply	breed	-1	mimic	-1	cotton	-1	jog	-1
unify	mingle	-1	hike	-1	scrap	-1	bid	-1
unify	merge	-1	plaster	-1	brand	-1	graft	-1
unify	mix	-1	probe	-1	address	-1	crash	-1
forfeit	waive	3	smash	-1	chauffeur	-1	record	-1
forfeit	forgo	-1	compare	-1	idle	-1	invent	-1
drown	overwhelm	-1	pause	-1	preview	-1	cripple	-1
flare	erupt	-1	sweep	49	digest	-1	glue	-1
crumble	decay	-1	pencil	-1	co-author	-1	envy	-1
crumble	collapse	3	contour	-1	kick	-1	bar	-1
swirl	eddy	-1	torpedo	-1	manure	-1	fiddle	-1
suffice	serve	16	plow	-1	wander	-1	buffalo	-1
suffice	answer	-1	ray	-1	omen	-1	pearl	-1
falter	stumble	-1	corset	-1	ration	-1	hit	-1
inflate	expand	-1	sweep	-1	feather	-1	infringe	-1
inflate	balloon	-1	restart	-1	carpet	-1	swat	-1
simulate	assume	-1	except	-1	integrate	-1	shred	-1
simulate	model	-1	ray	-1	hover	-1	save	-1
simulate	copy	-1	mortar	-1	attest	-1	thank	-1
simulate	sham	-1	retail	-1	front	-1	evoke	-1
recount	tell	25	rally	-1	collar	-1	panic	-1
recount	spin	-1	jacket	-1	ruin	-1	collide	-1
empower	authorize	-1	wrestle	-1	espy	-1	floor	-1
empower	gift	-1	buffalo	-1	greet	-1	vent	-1
empower	invest	-1	exclude	-1	sleek	-1	bucket	-1
chatter	jaw	-1	collar	-1	deaf	-1	justify	-1
chatter	visit	-1	renounce	-1	church	-1	scrimmage	-1
chatter	gossip	-1	adopt	-1	sandwich	-1	spiral	-1
chatter	click	-1	knock	-1	sag	-1	evade	-1
hover	linger	-1	screen	-1	slap	-1	drum	-1
hover	loom	-1	taboo	-1	vanish	-1	endorse	-1
bulge	bag	-1	fullback	-1	ponder	-1	tally	-1
bulge	pop	40	dine	-1	roost	-1	free-lance	-1
sow	seed	-1	brook	-1	insulate	-1	cabin	-1
inhabit	dwell	-1	throng	-1	fin	-1	sight	-1
inhabit	people	-1	materialize	-1	herald	-1	gag	-1
inhabit	occupy	37	blunder	-1	scam	-1	talk	-1
inhabit	reside	-1	abolish	-1	bull	-1	renovate	-1
inhabit	live	-1	dance	-1	disagree	-1	sketch	-1
inhabit	shack	-1	dominate	23	ash	-1	blow	-1
harden	temper	-1	add	-1	subdue	-1	jolly	-1
harden	season	-1	eye	-1	cradle	-1	parent	-1
aggravate	worsen	29	plane	-1	muscle	-1	wreak	-1
straighten	tidy	-1	crimp	-1	tolerate	-1	crest	-1
flex	bend	-1	fool	-1	overload	-1	outline	-1
skim	scan	-1	measure	-1	club	-1	recycle	-1
skim	cream	-1	revisit	-1	colour	-1	sue	-1
skim	plane	-1	confirm	-1	edge	-1	service	-1
skim	rake	-1	win	-1	persist	-1	excel	-1
wane	decline	-1	annex	-1	thin	-1	ready	-1
reassert	confirm	-1	sequence	-1	bust	-1	clown	-1
collide	clash	-1	revert	-1	leverage	-1	root	-1
collide	jar	-1	streak	-1	whiff	-1	scheme	-1
starve	lust	-1	recapture	-1	poise	-1	cheek	-1
starve	hunger	-1	strain	-1	avenge	-1	trust	90
starve	thirst	-1	nitrate	-1	dock	-1	oyster	-1
lash	whip	-1	screw	-1	sequence	-1	surprise	-1
lash	strap	-1	involve	-1	pan	-1	afford	-1
bleed	run	-1	putter	-1	razor	-1	toll	-1
exacerbate	worsen	29	toss	-1	recognise	53	climax	-1
recite	tell	-1	hoover	-1	rejoin	-1	entice	-1
recite	spin	-1	disrespect	-1	funk	-1	patronage	-1
incite	move	-1	stash	-1	crave	-1	imply	-1
incite	prompt	-1	paper	-1	mortgage	-1	rouse	-1
incite	motivate	-1	rue	-1	weary	-1	ford	-1
incite	propel	-1	contest	-1	lyric	-1	erupt	-1
incite	prod	-1	recap	-1	identify	-1	curb	-1
elicit	provoke	25	congratulate	-1	slush	-1	recognize	-1
elicit	evoke	14	reprimand	-1	investigate	-1	lash	-1
elicit	extract	10	copyright	-1	mail	-1	clash	-1
elicit	raise	-1	improve	-1	pine	-1	redesign	-1
elicit	fire	-1	soar	-1	claim	-1	institute	-1
implicate	entail	-1	weed	-1	hum	-1	true	-1
deceive	betray	-1	swoop	-1	quarrel	-1	teach	61
infringe	conflict	-1	crush	-1	mention	-1	crow	-1
glaze	candy	-1	x-ray	-1	fox	-1	store	-1
emit	breathe	-1	stand	-1	savvy	-1	oyster	-1
emit	utter	-1	reconcile	-1	doom	-1	instill	-1
jog	clip	-1	surrender	-1	result	-1	blue	-1
wrinkle	purse	-1	water	-1	staunch	-1	compliment	-1
wrinkle	crisp	-1	assert	-1	scrape	-1	step	-1
wrinkle	crease	-1	prod	-1	quake	-1	poise	-1
crouch	bend	-1	begin	-1	addict	-1	revisit	-1
crouch	bow	-1	stet	-1	steady	-1	deposit	-1
hum	buzz	-1	scratch	-1	move	-1	encourage	-1
furnish	render	-1	reshape	-1	secure	-1	grease	-1
furnish	supply	-1	ace	-1	deem	-1	horn	-1
furnish	provide	53	preview	-1	stun	-1	medicine	-1
extinguish	eradicate	-1	company	-1	proportion	-1	section	-1
extinguish	eliminate	-1	tongue	-1	okay	-1	falcon	-1
wring	extort	-1	shape	-1	knit	-1	chrome	-1
wring	rack	-1	scheme	-1	equip	-1	peer	-1
wring	distort	-1	hiss	-1	curb	-1	beef	-1
