rick	twist	-1	critique	-1	dive	-1	query	-1
buck	hitch	-1	liquidate	-1	materialize	-1	plot	-1
buck	jerk	-1	initial	-1	examine	-1	transport	-1
buck	charge	-1	tip	-1	corner	-1	brawl	-1
buck	shoot	-1	top	-1	divulge	-1	madden	-1
buck	tear	-1	cloak	-1	strand	-1	crew	-1
wreak	bring	-1	lump	-1	prompt	-1	resemble	-1
wreak	play	2	square	-1	grip	-1	research	-1
