don	assume	-1	stampede	-1	seat	-1	privatize	-1
don	wear	2	continue	-1	switch	-1	contradict	-1
stock	carry	315	jewel	-1	fee	-1	coat	-1
season	temper	-1	swallow	-1	unify	-1	knife	-1
season	flavor	-1	mud	-1	recover	-1	hide	44
season	harden	-1	airlift	-1	deposit	-1	truck	-1
campaign	fight	341	medicine	-1	administer	-1	lump	-1
campaign	push	496	caw	-1	beef	-1	dedicate	141
campaign	run	-1	fade	-1	resist	274	benefit	85
campaign	press	239	sharpen	-1	vent	-1	renew	-1
campaign	crusade	-1	recommend	294	rebound	-1	alienate	56
air	broadcast	-1	butter	-1	reel	-1	refine	-1
air	transmit	-1	flip	-1	reach	-1	rebound	-1
air	send	-1	horse	-1	converge	-1	add	-1
air	vent	-1	dyke	-1	wield	-1	dong	-1
air	publicize	-1	jazz	-1	respite	-1	cabbage	-1
air	beam	-1	flop	-1	dispense	-1	buy	-1
near	approach	15	slot	-1	bronze	-1	outnumber	99
research	explore	64	thrive	-1	walk	520	jewel	-1
bond	stick	-1	shower	-1	comb	-1	diminish	-1
bond	adhere	-1	snow	-1	breathe	-1	pole	-1
bond	attach	-1	wreak	-1	encore	-1	blueprint	-1
bond	tie	-1	break	46	air	-1	machine	-1
key	discover	290	spawn	-1	plow	-1	establish	214
key	name	91	feed	-1	clamor	-1	spiral	-1
key	describe	272	creep	-1	delete	-1	bottom	-1
key	identify	313	salvage	-1	apparel	-1	except	-1
key	distinguish	170	clout	-1	equip	-1	commission	-1
profit	benefit	-1	egg	-1	linger	-1	hare	-1
profit	gain	-1	account	-1	disband	-1	light	-1
front	breast	-1	lame	-1	hood	-1	steer	-1
front	look	387	respite	-1	retire	-1	seat	-1
coach	train	41	saddle	-1	steal	-1	tree	-1
net	sack	-1	slave	-1	archive	-1	satellite	-1
net	web	-1	home	-1	cap	-1	march	-1
reason	argue	266	proportion	-1	separate	-1	jet	-1
reason	conclude	93	rupture	-1	emphasize	-1	clarify	-1
border	march	-1	provoke	-1	uniform	-1	tack	-1
border	butt	-1	style	-1	shovel	-1	punch	-1
border	surround	35	deaf	-1	rouse	-1	allocate	143
border	frame	-1	sham	-1	alibi	-1	romance	-1
border	skirt	-1	cost	344	throttle	-1	sell	326
border	edge	-1	supply	302	band	-1	link	211
bid	invite	173	litter	-1	bind	391	puff	-1
bid	offer	87	leap	-1	smell	-1	discuss	401
bid	tender	-1	quell	-1	salaam	-1	engage	40
bid	wish	150	chain	-1	absent	-1	coexist	-1
bid	conjure	-1	stew	-1	touch	-1	initiate	-1
bid	press	268	grey	-1	fix	-1	instruct	-1
bid	call	329	tow	-1	hale	-1	dust	-1
bob	tail	-1	credit	-1	insist	-1	integrate	-1
bob	dock	11	salute	-1	abide	-1	blanco	-1
venture	hazard	-1	elbow	-1	crack	-1	skirt	-1
venture	embark	-1	enhance	-1	throng	-1	bluff	-1
venture	stake	-1	porter	-1	pink	-1	limp	-1
venture	guess	-1	pile	-1	describe	-1	contrast	-1
venture	jeopardize	-1	rough	-1	summon	-1	stereotype	-1
couple	match	-1	bind	-1	trick	-1	skirmish	-1
couple	twin	-1	direct	-1	hole	-1	credit	-1
couple	mate	-1	contemplate	-1	preheat	-1	gap	-1
couple	pair	-1	couch	-1	minister	-1	deregulate	-1
battle	combat	-1	tinker	-1	entice	-1	deserve	212
condition	qualify	-1	screen	-1	section	-1	gear	-1
condition	train	-1	marvel	-1	cope	59	filter	43
condition	discipline	-1	bunch	-1	rescind	-1	specialize	-1
condition	check	-1	maximize	-1	allow	518	tent	-1
condition	specify	-1	silver	-1	hue	-1	patrol	-1
class	sort	-1	bitter	-1	post	-1	stick	-1
class	separate	-1	total	-1	taxi	-1	labor	-1
champion	defend	131	worry	-1	recognize	207	augment	-1
stake	punt	-1	knight	-1	moot	-1	stomach	-1
stake	hazard	-1	listen	-1	spice	-1	abstract	-1
stake	game	-1	patronage	-1	quit	-1	erect	-1
stake	adventure	-1	bark	-1	boo	-1	climb	-1
stake	post	-1	blackmail	-1	bid	-1	click	-1
stake	venture	-1	bach	-1	blossom	-1	control	253
stake	jeopardize	-1	alert	-1	receipt	-1	package	-1
institute	establish	326	construct	181	center	-1	paragraph	-1
institute	bring	65	mediate	-1	educate	-1	loft	-1
institute	plant	-1	berry	-1	estimate	516	betray	519
bomb	fail	176	sneak	-1	invest	-1	rocket	-1
word	articulate	-1	sponsor	-1	libel	-1	accession	-1
word	formulate	29	jolt	-1	plank	-1	occupy	144
word	phrase	2	trench	-1	wire	-1	broker	-1
weather	endure	39	intrigue	-1	retrieve	-1	visa	-1
weather	brave	-1	pollard	-1	wire	-1	yarn	-1
picture	render	-1	premise	-1	paste	-1	comprehend	-1
picture	fancy	169	marinade	-1	retail	-1	submit	-1
picture	image	-1	ante	-1	preside	-1	surcharge	-1
picture	project	-1	clinch	-1	pollard	-1	censor	-1
picture	envision	-1	fullback	-1	temper	-1	vacate	-1
foot	pick	-1	highlight	-1	parachute	-1	enable	-1
rally	tease	-1	disgrace	-1	breaststroke	-1	club	-1
rally	summon	-1	racketeer	-1	join	150	pass	-1
rally	mobilize	4	throw	426	invalid	-1	repay	-1
rally	rebound	-1	top	-1	devalue	-1	slug	-1
rally	bait	-1	bag	-1	thrust	-1	autopsy	-1
rally	ride	556	determine	578	spam	-1	staff	-1
rally	cod	-1	licence	-1	record	-1	lift	-1
rally	muster	20	field	221	intervene	-1	call	-1
square	feather	-1	skin	-1	forbid	-1	yarn	-1
dispute	quarrel	-1	type	-1	tongue	-1	highlight	118
dispute	challenge	60	staff	-1	rev	-1	release	692
dispute	scrap	-1	implant	-1	pipe	-1	contend	-1
loan	lend	13	patch	-1	class	-1	freeze	-1
seat	invest	-1	reiterate	-1	tuck	-1	pinnacle	-1
trim	pare	-1	drum	-1	delegate	-1	produce	111
trim	dress	-1	shatter	-1	debate	-1	postpone	-1
trim	clip	-1	reopen	-1	choke	-1	drown	-1
trim	reduce	71	revert	-1	moderate	-1	reassess	-1
trim	crop	5	ambition	-1	ford	-1	scare	-1
trim	garnish	-1	trade	-1	race	-1	cite	-1
trim	cut	8	retail	-1	decorate	-1	quicken	-1
trim	shave	-1	meter	-1	tout	-1	soldier	-1
image	fancy	-1	content	-1	cricket	-1	notice	-1
image	project	-1	jack	-1	noise	-1	translate	-1
image	envision	-1	convict	-1	wreath	-1	wager	-1
image	picture	-1	garage	-1	hurdle	-1	garden	-1
sort	screen	-1	distort	-1	anger	-1	integrate	-1
sort	separate	139	throne	-1	carp	-1	pierce	-1
sort	class	-1	underperform	-1	withhold	-1	pall	-1
speed	race	86	sniff	-1	spill	-1	keen	-1
speed	accelerate	76	approve	-1	picket	-1	prompt	-1
speed	quicken	-1	double	-1	reassess	-1	comment	-1
speed	zip	-1	admire	-1	parody	-1	total	-1
speed	hasten	30	chin	-1	estimate	-1	prosecute	-1
speed	rush	94	detail	-1	shade	-1	attain	-1
speed	hurry	-1	sway	-1	discuss	270	perceive	-1
style	tailor	-1	marshal	-1	form	128	moderate	-1
style	cut	74	sprint	-1	baby	-1	downgrade	-1
poll	canvas	-1	crowd	-1	drug	-1	topple	-1
table	defer	-1	smoke	-1	whiz	-1	sow	-1
table	postpone	-1	stool	-1	dawn	-1	underperform	-1
box	package	-1	rip	-1	represent	95	publicize	-1
broadcast	distribute	-1	warm	-1	pocket	-1	flash	113
broadcast	spread	45	fall	-1	upset	-1	represent	367
broadcast	beam	-1	desolate	-1	plant	-1	offset	-1
broadcast	circulate	-1	fan	-1	piece	-1	staff	-1
broadcast	transmit	2	pink	-1	babbitt	-1	shallow	-1
broadcast	send	60	hike	-1	move	-1	tame	-1
broadcast	disperse	-1	depart	-1	shark	-1	support	181
broadcast	air	-1	backpack	-1	overlook	-1	revert	-1
fashion	forge	-1	devil	-1	brush	-1	sow	-1
farm	grow	257	trail	-1	ambition	-1	judge	366
farm	produce	387	plaster	-1	picnic	-1	bring	267
farm	raise	-1	wipe	-1	brain	-1	erase	-1
fish	angle	-1	tender	-1	tile	-1	liquidate	-1
channel	convey	-1	premiere	-1	instruct	-1	charcoal	-1
channel	carry	145	orphan	-1	disrupt	-1	bell	-1
channel	transport	-1	heed	-1	wander	-1	bail	-1
channel	transfer	12	balk	-1	arbitrage	-1	swear	-1
channel	transmit	-1	lame	-1	dart	-1	mold	-1
channel	conduct	-1	inconvenience	-1	query	-1	chart	-1
edge	butt	-1	jelly	-1	uncover	-1	rattle	-1
edge	march	-1	bloody	-1	dye	-1	fracture	-1
edge	inch	42	capitalize	-1	smuggle	-1	field	-1
edge	border	-1	tail	-1	market	-1	rebound	-1
counsel	advise	18	romance	-1	tree	-1	groove	-1
assault	attack	74	carve	-1	grey	-1	crunch	-1
assault	round	-1	crank	-1	sentence	164	team	-1
stuff	shove	74	date	379	declare	-1	cost	387
stuff	squeeze	214	weed	-1	stalemate	-1	crash	-1
stuff	thrust	25	caption	-1	strike	408	hesitate	-1
stuff	gorge	-1	coast	-1	defraud	-1	punch	-1
stuff	jam	-1	notice	176	rate	-1	plain	-1
stuff	glut	-1	remark	-1	describe	-1	phone	-1
stuff	fill	319	escape	-1	birdie	-1	cash	-1
stuff	binge	-1	deepen	-1	relocate	-1	ignore	301
stuff	block	-1	purpose	-1	bitter	-1	spear	-1
storm	ramp	-1	wait	136	mediate	-1	enforce	212
storm	rage	-1	chronicle	-1	ransom	-1	unfold	-1
storm	surprise	-1	picnic	-1	grudge	-1	mob	-1
storm	force	127	skirmish	-1	retrospect	-1	condemn	220
perfect	consummate	-1	establish	103	loop	-1	worry	-1
pilot	navigate	-1	blanco	-1	discuss	141	quiet	-1
weight	burden	-1	pace	-1	scout	-1	expect	227
weight	angle	-1	canvas	-1	boat	-1	propose	-1
weight	slant	-1	barter	-1	regard	79	describe	-1
discount	ignore	73	metal	-1	tell	-1	cheese	-1
discount	dismiss	181	contend	-1	huddle	-1	grind	-1
discount	disregard	47	settle	159	rescue	-1	outrage	-1
moderate	soften	-1	concede	21	labour	-1	employ	-1
moderate	temper	-1	perch	-1	alienate	-1	putt	-1
moderate	tame	-1	census	-1	shack	-1	underestimate	-1
moderate	curb	-1	mention	-1	convince	-1	shanghai	-1
moderate	lead	112	fog	-1	wharf	-1	racket	-1
moderate	chair	-1	flank	-1	nut	-1	remainder	-1
moderate	contain	-1	nitrate	-1	shop	-1	comment	-1
moderate	hold	-1	creep	-1	realise	-1	spend	-1
moderate	check	-1	dash	-1	gel	-1	sap	-1
moderate	control	37	zero	-1	burden	-1	achieve	-1
blast	smash	162	bravo	-1	incense	-1	warm	-1
blast	boom	-1	cover	227	scream	-1	dose	-1
blast	nail	-1	feature	-1	lob	20	bach	-1
blast	shell	-1	abstract	-1	cough	-1	issue	-1
dog	trail	-1	mark	153	drizzle	-1	instill	-1
dog	chase	-1	medicine	-1	berth	-1	whack	-1
dog	tail	-1	torment	-1	power	-1	tuck	-1
dog	tag	-1	figure	-1	dislodge	-1	clinch	-1
dog	track	-1	garage	-1	bar	-1	sap	-1
steady	calm	1	spawn	-1	forward	-1	burke	-1
steady	stabilize	-1	debate	-1	metal	-1	attain	-1
steady	brace	-1	exhibit	-1	accumulate	-1	haunt	-1
brand	mark	-1	encourage	-1	continue	-1	censor	-1
brand	denounce	-1	replenish	-1	consult	-1	baby	-1
brand	post	-1	haze	-1	surface	-1	zip	-1
pair	match	97	locate	-1	insure	-1	clean	-1
pair	twin	-1	boast	-1	resist	-1	accession	-1
pair	mate	-1	shark	-1	speed	-1	convoy	-1
pair	couple	-1	puree	-1	corrupt	-1	kiss	-1
pool	combine	31	participate	-1	function	-1	manure	-1
cap	crest	-1	originate	-1	behold	-1	crunch	-1
veto	prohibit	-1	detour	-1	reveal	-1	bell	-1
veto	negative	-1	malfunction	-1	resist	50	call	623
veto	forbid	-1	tame	-1	outweigh	-1	welsh	-1
surface	rise	-1	glimpse	-1	melt	-1	parry	-1
surface	coat	-1	warn	-1	overrun	-1	discipline	-1
branch	separate	-1	spill	-1	flow	-1	traffic	-1
branch	fork	-1	retire	55	canopy	-1	zoom	-1
desire	trust	451	robe	-1	exile	-1	bark	-1
desire	hope	737	forecast	-1	witch	-1	petition	-1
mistake	slip	-1	field	-1	reside	-1	evert	-1
mistake	confuse	179	outnumber	-1	tuck	-1	dismay	-1
map	represent	109	wash	-1	slalom	-1	occur	-1
pitch	tilt	-1	prop	-1	strand	-1	stew	-1
pitch	deliver	303	pray	-1	approximate	-1	design	-1
pitch	peddle	-1	adapt	-1	remove	228	crust	-1
pitch	flip	-1	pinnacle	-1	swarm	-1	enact	-1
pitch	toss	133	crow	-1	doubt	-1	map	-1
pitch	hawk	-1	rig	-1	distrust	-1	bath	-1
pitch	slant	-1	format	-1	chronicle	-1	condone	-1
pitch	shift	-1	rebate	-1	beard	-1	harp	-1
pitch	slope	-1	accuse	322	weigh	-1	cost	-1
pitch	gear	-1	murder	-1	gossip	-1	honour	-1
bet	count	-1	sunday	-1	fill	125	arch	-1
bet	depend	-1	surprise	-1	capture	-1	hog	-1
bet	calculate	-1	egg	-1	fate	-1	landscape	-1
bet	wager	-1	inhibit	-1	subsidize	-1	deregulate	-1
bet	reckon	-1	conceive	-1	cascade	-1	model	-1
bet	look	104	dun	-1	lead	122	twist	-1
bet	play	-1	fuel	-1	multiply	-1	sit	-1
pop	bulge	35	cheese	-1	couch	-1	violate	-1
bed	love	-1	autograph	-1	intermediate	-1	deter	-1
bed	screw	-1	fetch	-1	prejudice	-1	skip	-1
bed	bang	-1	coke	-1	score	-1	oversee	-1
bed	jazz	-1	honey	-1	disorder	-1	pluck	-1
inch	edge	17	caw	-1	shallow	-1	lump	-1
tape	record	16	lean	-1	purge	-1	bow	-1
surge	soar	14	fatigue	-1	humble	-1	dial	-1
surge	tide	-1	implement	-1	league	-1	nick	-1
surge	zoom	-1	stray	-1	panic	-1	integrate	-1
probe	examine	206	boot	-1	recycle	-1	oppose	-1
plot	diagram	-1	dull	-1	lever	-1	drink	-1
calm	steady	3	enter	441	fetch	-1	rage	-1
calm	lull	-1	redesign	-1	win	-1	throw	-1
calm	quiet	-1	fend	-1	pillow	-1	mar	-1
scheme	intrigue	-1	suit	39	stuff	-1	total	129
string	draw	-1	assert	-1	posture	-1	exploit	-1
string	thread	-1	sheer	-1	peek	-1	snoop	-1
harry	provoke	-1	dope	-1	pioneer	-1	bracket	-1
harry	plague	-1	ditch	-1	edit	-1	surrender	-1
harry	hassle	-1	scorn	-1	spot	-1	command	-1
harry	beset	-1	trim	-1	hare	-1	wreak	-1
harry	chevy	-1	clinch	-1	sort	-1	cease	-1
boom	blast	-1	asphalt	-1	skate	-1	graph	-1
boom	thunder	44	bat	-1	whine	-1	wonder	-1
boom	thrive	1	remove	-1	compel	-1	shift	287
boom	smash	-1	crew	-1	default	-1	favor	-1
boom	expand	22	scramble	-1	bleed	-1	telex	-1
boom	prosper	3	cricket	-1	hamstring	-1	mutiny	-1
boom	din	-1	furnish	-1	abandon	-1	cooper	-1
boom	nail	-1	pretend	-1	foresee	-1	deck	-1
boom	flourish	6	mortgage	-1	middle	-1	process	-1
bloom	flower	-1	perform	-1	mimic	-1	sneak	-1
crown	top	-1	generate	-1	join	56	reprise	-1
rape	violate	-1	sustain	-1	xerox	-1	fade	-1
rape	spoil	-1	founder	-1	override	-1	disappear	215
patrol	police	178	employ	517	position	-1	forest	-1
raid	bust	-1	corset	-1	blur	-1	clash	45
circle	surround	256	barrel	-1	evidence	-1	remain	-1
circle	round	26	estimate	-1	reunite	-1	spice	-1
circle	ring	406	cabin	-1	calendar	-1	cover	236
elaborate	expand	-1	homestead	-1	grow	-1	cane	-1
elaborate	complicate	75	ridge	-1	revolt	-1	dodge	-1
elaborate	refine	-1	join	285	purchase	-1	impose	-1
pattern	model	5	wave	-1	rebate	-1	issue	-1
polish	shine	134	bully	-1	confer	-1	file	-1
polish	smooth	78	pollard	-1	peek	-1	spirit	-1
polish	round	215	stereotype	-1	gather	-1	leaf	-1
polish	refine	147	handle	481	pulp	-1	break	166
nick	chip	-1	behold	-1	rub	-1	intern	-1
silence	hush	16	accession	-1	rat	-1	inhabit	-1
grace	deck	-1	differentiate	-1	afford	-1	normalize	-1
grace	decorate	21	blush	-1	trash	-1	rouge	-1
tower	loom	70	iron	-1	recap	-1	cradle	-1
cycle	pedal	-1	sway	188	prevent	183	forgive	-1
cycle	bike	-1	implicate	-1	snoop	-1	wreck	-1
cycle	wheel	-1	rouse	-1	pile	-1	suspend	269
parade	troop	-1	ought	-1	chairman	-1	surpass	-1
parade	exhibit	-1	break	-1	align	-1	sway	-1
parade	march	-1	spruce	-1	name	37	article	-1
charter	lease	-1	instance	-1	commute	-1	streak	-1
charter	engage	-1	provide	-1	nick	-1	chance	-1
dawn	click	-1	cue	-1	hamstring	-1	hail	-1
dawn	penetrate	70	admire	-1	funnel	-1	interact	-1
engineer	mastermind	-1	weave	-1	clue	-1	threaten	199
engineer	direct	-1	chord	-1	specify	359	minimize	-1
engineer	organize	69	neighbor	-1	knight	-1	thunder	-1
clash	collide	-1	carpenter	-1	debate	-1	appeal	57
clash	jar	-1	sprawl	-1	pirate	-1	blitz	-1
harvest	reap	-1	explain	-1	adventure	-1	costume	-1
levy	impose	6	condition	-1	grace	-1	stroke	-1
levy	raise	30	precondition	-1	lyric	-1	barrage	-1
levy	recruit	-1	satisfy	-1	bond	-1	cone	-1
contend	debate	-1	lamb	-1	elicit	-1	dim	-1
contend	grapple	-1	dedicate	113	restore	-1	guess	-1
contend	manage	235	stuff	-1	channel	-1	chip	-1
contend	vie	41	inform	-1	ramp	-1	crash	-1
contend	argue	47	plaster	-1	recite	-1	stamp	-1
contend	fence	-1	clutter	-1	cream	-1	knife	-1
contend	deal	-1	boycott	-1	assure	208	develop	317
comfort	solace	-1	refrigerate	-1	hope	279	scalp	-1
comfort	soothe	38	stalemate	-1	toy	-1	corral	-1
comfort	console	-1	bode	-1	function	-1	sugar	-1
comfort	ease	-1	pall	-1	terrace	-1	arrange	582
slump	sink	-1	ought	-1	telecast	-1	neck	-1
gear	pitch	-1	expand	38	apologize	-1	disdain	-1
warrant	justify	9	demonstrate	-1	introduce	191	deport	-1
rid	free	86	commune	-1	elbow	-1	grant	576
rob	soak	-1	rail	-1	implement	-1	sniff	-1
rob	pluck	-1	taxi	-1	batch	-1	vow	-1
rob	plume	-1	champion	-1	remark	-1	fast	-1
rob	hook	-1	elect	310	sport	-1	dice	-1
rob	surcharge	-1	institute	-1	canal	-1	swell	-1
lease	charter	-1	repeal	-1	dispel	-1	hale	-1
lease	hire	130	imitate	-1	nick	-1	concrete	-1
smooth	shine	252	wedge	-1	arrange	443	cop	-1
smooth	polish	195	wipe	118	simulate	-1	shrink	-1
swap	switch	-1	leap	-1	mar	-1	lance	-1
swap	trade	-1	rest	-1	lapse	-1	rebate	-1
bolster	pad	-1	provoke	-1	bother	-1	buffer	-1
bolster	support	264	suppose	-1	thumb	-1	thwart	-1
tender	bid	-1	normalize	-1	read	-1	bankrupt	-1
tender	offer	37	clutter	-1	bench	-1	hash	-1
rear	rise	208	panel	-1	mail	-1	appropriate	-1
rear	lift	230	contribute	-1	rob	109	uphold	-1
rear	erect	-1	coax	-1	dog	-1	stalk	47
rear	nurture	-1	moon	-1	sail	-1	hand	-1
rear	parent	-1	urge	-1	balloon	-1	flavor	-1
rear	raise	100	manipulate	-1	attract	285	lounge	-1
muster	rally	6	institute	-1	implant	-1	eagle	-1
muster	summon	21	retrieve	-1	school	-1	middle	-1
torture	rack	-1	encourage	307	confer	-1	hit	-1
retreat	withdraw	26	tenure	-1	voodoo	-1	flaw	-1
cloud	fog	-1	yield	-1	flute	-1	implement	-1
cloud	mist	-1	dismiss	-1	humble	-1	rail	-1
cloud	obscure	43	exhaust	276	bear	-1	nurture	-1
cloud	corrupt	-1	leach	-1	forge	-1	evidence	-1
stream	pour	90	stain	183	lose	462	baa	-1
shadow	dwarf	-1	blight	-1	patrol	-1	glare	118
decree	rule	159	tick	-1	learn	-1	grow	-1
blind	dim	5	free	304	describe	-1	terrace	-1
volunteer	offer	665	pay	605	safeguard	-1	jade	-1
stamp	stereotype	-1	occur	-1	brake	-1	search	-1
stamp	boss	-1	starve	-1	bog	-1	dislike	-1
dust	sprinkle	-1	learn	-1	message	-1	pole	-1
dust	disperse	-1	catalog	-1	warn	-1	audit	-1
mature	grow	152	fulfil	-1	scan	-1	revamp	-1
mature	age	-1	ski	-1	retain	-1	dispel	-1
upgrade	raise	422	fetch	-1	sole	-1	destabilize	-1
upgrade	promote	319	belong	-1	backfire	-1	knit	-1
upgrade	advance	232	enrich	-1	wrestle	-1	slide	-1
upgrade	elevate	58	pick	462	post	-1	dish	-1
pierce	thrust	-1	yarn	-1	recount	-1	output	-1
excuse	pardon	6	background	-1	expedite	-1	divorce	-1
excuse	apologize	-1	revamp	-1	quadruple	-1	fuel	-1
excuse	justify	50	look	-1	fair	-1	posture	-1
excuse	condone	9	testify	-1	silhouette	-1	sand	-1
excuse	relieve	-1	trust	-1	surface	-1	toy	-1
excuse	explain	73	debate	-1	fence	-1	quote	-1
excuse	exempt	-1	issue	-1	destroy	-1	comprehend	-1
lure	tempt	37	paper	-1	suggest	-1	unseat	-1
lure	entice	19	bin	-1	rim	-1	husband	-1
lap	lick	-1	bunch	-1	overwhelm	-1	freight	-1
lap	wash	9	backpack	-1	land	-1	discord	-1
root	pull	-1	eddy	-1	chuckle	-1	xerox	-1
root	settle	121	overturn	-1	circuit	-1	carve	-1
wheel	pedal	-1	deteriorate	-1	lapse	-1	battle	-1
wheel	cycle	-1	cheer	-1	garden	-1	spruce	-1
wheel	bicycle	-1	voice	-1	look	81	photograph	-1
wheel	roll	-1	pal	-1	fuss	-1	stick	-1
wheel	bike	-1	slug	-1	bird	-1	undo	-1
outrage	violate	-1	substitute	-1	encourage	454	anguish	-1
outrage	shock	136	ponder	-1	imitate	-1	endorse	-1
outrage	offend	215	perfume	-1	appease	-1	intermediate	-1
outrage	incense	-1	slow	-1	pull	-1	range	-1
consent	accept	181	insist	157	distribute	-1	allowance	-1
finger	thumb	-1	link	-1	dodge	-1	suck	-1
finger	feel	-1	people	-1	smart	-1	cannon	-1
gauge	approximate	-1	snoop	-1	punish	-1	disrupt	-1
gauge	estimate	84	perch	-1	founder	-1	slash	-1
pioneer	initiate	193	ram	-1	bid	-1	steady	-1
parallel	twin	-1	donate	-1	bring	195	decrease	-1
parallel	duplicate	-1	acquire	184	circulate	77	grit	-1
spell	write	265	pick	271	buffalo	-1	mirror	-1
spell	import	211	indulge	-1	crane	-1	dun	-1
pit	stone	-1	skim	-1	trade	-1	flourish	-1
pit	mark	-1	blaze	-1	lean	-1	tick	-1
pit	match	42	sprawl	-1	premier	-1	inflate	-1
pit	scar	-1	venture	-1	tarnish	-1	fiddle	-1
pit	oppose	-1	wonder	-1	utter	-1	regard	-1
slash	whip	409	liberate	-1	dam	-1	crunch	-1
slash	toss	-1	fumble	-1	unleash	-1	punish	-1
slash	strap	-1	depart	-1	advantage	-1	march	-1
spark	activate	-1	christmas	-1	cave	-1	repeat	304
spark	trigger	20	allow	-1	jazz	-1	stand	285
spark	trip	-1	cover	510	recoup	-1	sow	-1
hook	cabbage	-1	triple	-1	envision	-1	peek	-1
hook	addict	-1	bubble	-1	time	-1	decline	-1
hook	lift	167	rot	-1	gesture	-1	jumble	-1
hook	cop	-1	tag	-1	shrimp	-1	matter	-1
hook	soak	118	elbow	-1	seed	-1	chairman	-1
hook	pluck	-1	pioneer	-1	whiz	-1	water	-1
hook	plume	-1	jeopardize	-1	compact	-1	dynamite	-1
hook	sneak	-1	frost	-1	tighten	109	motley	-1
hook	swipe	-1	dissolve	-1	metal	-1	corral	-1
hook	abstract	-1	bolt	-1	rescind	-1	sheet	-1
hook	rob	-1	lam	-1	plump	-1	lobby	-1
hook	pinch	55	file	-1	overload	-1	research	-1
hook	surcharge	-1	halt	-1	fence	-1	reeve	-1
flower	blossom	-1	augment	-1	wilt	-1	lace	-1
flower	bloom	-1	dilute	-1	obtain	-1	bitch	-1
scare	frighten	20	hoot	-1	reinstate	-1	dare	520
scare	dash	-1	divine	-1	seize	-1	coffin	-1
scare	pall	-1	rinse	-1	bottle	-1	honour	-1
punch	plug	4	shampoo	-1	key	-1	reschedule	-1
labour	dig	790	age	-1	endanger	646	implicate	-1
labour	tug	-1	piece	-1	forest	-1	japan	-1
labour	grind	-1	lighten	-1	alert	60	curse	345
labour	push	596	handle	784	paste	-1	applaud	-1
labour	drive	621	lick	615	harbinger	-1	bog	-1
shield	harbour	-1	line	259	position	-1	rendezvous	-1
shield	screen	-1	horse	-1	slam	-1	root	-1
shield	harbor	-1	slam	-1	revise	-1	appease	-1
audit	inspect	-1	create	503	funk	-1	cheat	-1
audit	scrutinize	-1	confederate	-1	thunder	-1	secede	-1
coat	surface	-1	prosper	-1	gall	-1	jewel	-1
coat	cake	-1	shadow	-1	spike	-1	disrupt	-1
chat	jaw	-1	welsh	-1	network	-1	type	-1
chat	visit	240	arm	-1	blend	-1	bankrupt	-1
chat	gossip	-1	copper	-1	evade	-1	query	-1
mate	twin	-1	puree	-1	quake	-1	baa	-1
mate	couple	-1	outrage	-1	beacon	-1	chair	-1
mate	pair	-1	underscore	-1	permit	-1	progress	-1
merit	rate	-1	obey	-1	pass	44	privilege	-1
merit	deserve	2	establish	-1	disguise	-1	brave	-1
repeal	vacate	-1	temper	-1	muddy	-1	boost	-1
repeal	lift	185	rouse	-1	perpetuate	-1	purple	-1
repeal	rescind	-1	ham	-1	pirate	-1	harbinger	-1
repeal	reverse	-1	rattle	-1	slander	-1	recall	-1
repeal	overturn	-1	chauffeur	-1	clown	-1	winter	-1
repeal	revoke	52	publish	-1	beef	-1	excerpt	-1
hammer	forge	-1	route	-1	reign	-1	research	-1
rage	ramp	-1	partition	-1	caddie	-1	vote	-1
rage	storm	-1	campaign	-1	trick	-1	dot	-1
herald	acclaim	-1	outcry	-1	hue	-1	yarn	-1
herald	harbinger	-1	break	-1	recognise	336	spoof	-1
herald	announce	63	pen	-1	wave	-1	split	-1
scrap	quarrel	-1	crusade	-1	waive	-1	sort	-1
scrap	trash	-1	reap	-1	nominate	-1	shield	-1
scrap	junk	-1	allure	-1	lam	-1	glide	-1
scrap	dispute	-1	boost	-1	slush	-1	depict	-1
hatch	cover	-1	trump	-1	sit	-1	render	-1
overthrow	reverse	191	powder	-1	crest	-1	spill	-1
pray	beg	290	understand	316	divert	-1	home	-1
jam	crush	-1	relieve	-1	submarine	-1	solidify	-1
jam	mob	-1	perform	-1	poise	-1	tumble	-1
jam	throng	-1	wow	-1	attract	-1	check	-1
jam	impede	-1	track	-1	funnel	-1	occur	-1
jam	obstruct	-1	inherit	-1	mortgage	-1	ham	-1
jam	pile	-1	jet	-1	dull	-1	receipt	-1
jam	stuff	-1	nurse	-1	register	-1	squeeze	-1
jam	pack	-1	sled	-1	conclude	-1	flap	-1
jam	fill	-1	deter	-1	benefit	-1	dent	-1
jam	block	31	signal	-1	draft	-1	except	-1
privilege	favor	-1	survive	477	vow	-1	tongue	-1
privilege	favour	-1	occur	-1	disorder	-1	navigate	-1
pile	heap	-1	batter	-1	demonstrate	-1	afford	-1
pile	mob	-1	spiral	-1	fault	-1	romance	-1
pile	throng	-1	assure	-1	spring	52	dream	-1
pile	stack	-1	characterize	-1	carpenter	-1	counterfeit	-1
pile	pack	-1	fudge	-1	founder	-1	govern	-1
pile	jam	-1	incorporate	-1	broom	-1	grill	-1
bow	bend	19	sit	225	stabilize	-1	task	-1
bow	crouch	151	tackle	339	horn	-1	exchange	435
bow	submit	-1	scratch	62	integrate	-1	doom	-1
bow	defer	-1	harp	-1	conserve	-1	muse	-1
blend	fuse	-1	polish	-1	perk	-1	dampen	-1
blend	combine	73	tame	-1	sulfur	-1	crush	-1
blend	merge	-1	bay	-1	palm	-1	duel	-1
blend	mix	11	impede	-1	spoof	-1	assign	-1
oust	expel	-1	tip	-1	stoke	-1	worst	-1
bare	strip	-1	scrub	-1	whiz	-1	confuse	-1
bare	publicize	-1	spare	-1	square	-1	disappoint	-1
stabilize	steady	-1	crib	-1	delegate	-1	compose	-1
stabilize	brace	-1	evict	-1	revolt	-1	quarterback	-1
exempt	excuse	-1	stroke	-1	surge	-1	zone	-1
exempt	relieve	-1	repeat	-1	middle	-1	wind	-1
exempt	free	-1	forest	-1	receipt	-1	buoy	-1
breach	violate	14	light	-1	stray	-1	pit	-1
breach	offend	214	pardon	-1	police	-1	gift	-1
breach	gap	-1	pinnacle	-1	avoid	280	fin	-1
fancy	figure	-1	smear	-1	tree	-1	share	604
fancy	image	-1	preside	-1	head	807	awake	-1
fancy	project	-1	invent	-1	flourish	-1	flower	-1
fancy	envision	-1	whiz	-1	fix	817	solicit	-1
fancy	picture	206	stereotype	-1	unravel	-1	host	-1
click	chatter	25	remember	-1	fox	-1	weary	-1
click	snap	73	kayak	-1	mouth	-1	accumulate	-1
click	dawn	-1	confirm	-1	favour	-1	brand	-1
click	penetrate	-1	dial	-1	true	-1	remedy	-1
dodge	sidestep	1	subordinate	-1	prime	-1	avoid	187
dodge	elude	-1	balk	-1	revise	-1	wan	-1
dodge	circumvent	-1	extradite	-1	portray	-1	pace	-1
dodge	parry	-1	swipe	-1	towel	-1	carpenter	-1
dodge	duck	3	cork	-1	poison	-1	overshadow	-1
dodge	evade	19	join	-1	watch	-1	undertake	-1
dodge	skirt	23	disband	-1	arbitrage	-1	recap	-1
prop	shore	-1	butterfly	-1	vest	-1	bat	-1
whip	lash	45	bounce	-1	jab	-1	minimize	-1
whip	strap	-1	smuggle	-1	duel	-1	market	-1
whip	slash	329	discover	411	catalogue	-1	reassess	-1
whip	worst	-1	sport	-1	heed	-1	shed	-1
speculate	suppose	-1	tap	-1	dyke	-1	ante	-1
speculate	muse	-1	ration	-1	stockpile	-1	perform	-1
speculate	contemplate	-1	abstract	-1	climax	-1	destroy	-1
speculate	job	-1	rim	-1	silence	-1	fit	-1
speculate	reflect	221	cod	-1	wonder	23	flank	-1
speculate	ponder	20	desert	-1	contour	-1	uniform	-1
dissent	resist	-1	formulate	-1	wrestle	-1	scale	-1
dissent	protest	287	deny	508	duck	-1	reprise	-1
salvage	relieve	-1	scale	-1	mantle	-1	disregard	-1
ram	pound	-1	beam	-1	scrutinize	-1	tariff	-1
ram	crash	37	paragraph	-1	rope	-1	crave	-1
ram	pack	-1	highlight	-1	shift	-1	massage	-1
ram	drive	63	crew	-1	secede	-1	presume	-1
ram	force	302	serve	-1	strain	-1	carve	217
avert	deflect	-1	coin	-1	chatter	-1	reprise	-1
avert	avoid	73	hum	-1	loft	-1	bravo	-1
escort	esquire	-1	shoulder	-1	closet	-1	debate	-1
reign	rule	62	treasure	-1	dash	-1	label	-1
reign	dominate	-1	channel	-1	discredit	-1	deem	-1
reign	prevail	4	whale	-1	blood	-1	hoot	-1
insure	cover	273	babbitt	-1	board	-1	harm	-1
insure	underwrite	-1	bag	-1	assert	-1	rendezvous	-1
insure	check	176	spoof	-1	slalom	-1	govern	503
insure	control	413	pose	229	enter	115	sleep	-1
insure	guarantee	-1	hit	180	dummy	-1	sliver	-1
drill	exercise	-1	whiff	-1	prod	-1	solo	-1
drill	practice	-1	prepare	155	insure	-1	sprinkle	-1
skip	hop	-1	bitter	-1	boss	-1	start	109
skip	jump	52	sweep	-1	crust	-1	bias	-1
skip	cut	178	appreciate	-1	pot	-1	tone	-1
delegate	assign	22	snap	-1	excuse	-1	dip	-1
plug	secure	-1	damage	87	deaf	-1	cheek	-1
plug	punch	12	streak	-1	head	-1	matter	-1
duck	fudge	-1	humble	-1	embrace	-1	suck	-1
duck	hedge	-1	faint	-1	bow	7	range	-1
duck	dodge	8	whistle	-1	funnel	-1	accelerate	-1
duck	sidestep	4	sap	-1	crow	-1	pot	-1
duck	elude	-1	opt	-1	lot	-1	wing	-1
duck	circumvent	-1	deter	-1	ambush	-1	belt	-1
duck	parry	-1	compete	-1	accomplish	-1	venture	-1
duck	evade	24	exhaust	-1	triple	-1	wrinkle	-1
duck	skirt	29	ready	-1	rope	-1	bow	7
duck	dip	60	appropriate	-1	cannon	-1	fancy	-1
curve	arch	104	buckle	-1	bow	-1	casket	-1
curve	trend	-1	centre	-1	urge	-1	pretend	-1
curve	wind	105	slice	-1	update	-1	jog	-1
curve	arc	-1	brace	-1	bar	-1	deprive	-1
curve	cut	282	fend	-1	tilt	-1	harm	-1
curve	sheer	-1	keynote	-1	overdose	-1	appropriate	-1
curve	crook	-1	background	-1	sleep	-1	crack	147
expire	die	205	cook	-1	concord	-1	cone	-1
expire	pass	82	pose	-1	win	443	bucket	-1
expire	exhale	-1	muscle	-1	wander	380	putt	-1
topple	tumble	-1	sulfur	-1	flank	-1	tan	-1
bounce	spring	-1	blitz	-1	swamp	-1	fiddle	-1
coordinate	align	-1	sled	-1	set	-1	cover	648
coordinate	organize	83	split	185	delete	-1	replicate	-1
buzz	hum	-1	pulp	-1	plunge	-1	sex	-1
mar	spoil	-1	comfort	-1	weave	-1	feed	-1
pin	trap	-1	field	-1	wear	282	maximize	-1
bubble	ripple	22	cup	-1	lie	96	fault	-1
fool	cod	-1	pose	516	clutter	-1	ferry	4
fool	slang	-1	compile	-1	resurrect	-1	slate	-1
fool	shoot	277	implant	-1	service	-1	toast	-1
plague	provoke	-1	collect	-1	mellow	-1	shape	92
plague	hassle	-1	blast	-1	prime	-1	phrase	-1
plague	harass	-1	belly	-1	baa	-1	rifle	-1
plague	beset	5	suspect	-1	rethink	-1	reeve	-1
plague	chevy	-1	rig	-1	slick	-1	bald	-1
plague	blight	3	whip	-1	censor	-1	club	-1
plague	harry	-1	arbitrage	-1	buckle	-1	average	-1
woo	solicit	-1	tent	-1	assist	-1	except	-1
woo	court	25	fullback	-1	gravel	-1	cooper	-1
woo	romance	-1	ferret	-1	dissuade	-1	weather	-1
prosecute	engage	422	whisk	-1	wire	-1	obstruct	-1
evacuate	void	-1	boot	-1	foam	-1	anticipate	590
evacuate	empty	-1	telecast	-1	cane	-1	stump	-1
purse	wrinkle	-1	cannon	-1	bulletin	-1	disgust	-1
log	lumber	-1	encourage	236	simplify	-1	purchase	127
haul	drag	62	wipe	-1	mentor	-1	vow	-1
haul	cart	-1	mandate	-1	derive	-1	crew	-1
minimize	downplay	-1	fudge	-1	coexist	-1	foul	-1
dash	scare	-1	hammer	-1	beset	-1	transform	598
dash	dart	-1	knock	246	church	-1	section	-1
dash	scud	-1	circulate	-1	curl	-1	perfume	-1
dash	shoot	487	bribe	-1	fulfill	-1	prospect	-1
dash	pall	-1	resurrect	-1	dimension	-1	apologize	-1
heal	cure	-1	safeguard	-1	dampen	-1	net	-1
heal	mend	-1	rap	-1	depend	-1	polish	143
dismantle	strip	-1	flip	-1	peril	-1	cast	-1
dismantle	level	-1	tuck	-1	disarray	-1	install	158
worship	revere	-1	induce	-1	bath	-1	forge	-1
reap	draw	373	duck	-1	initiate	-1	fog	-1
reap	harvest	-1	mention	-1	outfit	-1	intercept	-1
drum	beat	92	litter	-1	strengthen	-1	prelude	-1
drum	bone	-1	wreck	-1	don	-1	district	-1
dive	plunge	8	costume	-1	rumble	-1	cox	-1
skirt	fudge	-1	intern	-1	fruit	-1	maximize	-1
skirt	surround	177	flag	-1	reschedule	-1	clue	-1
skirt	hedge	-1	outlaw	-1	charm	-1	outbid	-1
skirt	dodge	16	regain	-1	mirror	-1	canoe	-1
skirt	sidestep	11	major	-1	float	-1	proposition	-1
skirt	elude	-1	trust	-1	smile	-1	propose	-1
skirt	circumvent	-1	paragraph	-1	marshal	-1	instrument	-1
skirt	parry	-1	binge	-1	ret	-1	resolve	84
skirt	duck	12	subordinate	-1	halt	-1	register	-1
skirt	evade	45	rev	-1	duplicate	-1	tap	78
skirt	border	-1	chrome	-1	parole	-1	expel	-1
clip	trim	-1	instill	-1	favour	-1	section	-1
clip	dress	-1	alert	-1	woo	-1	birdie	-1
clip	jog	-1	bump	-1	defer	-1	parent	-1
clip	crop	-1	cox	-1	fulfil	-1	signal	-1
clip	curtail	-1	pool	-1	power	-1	okay	-1
angle	tilt	-1	glass	-1	please	-1	afford	-1
angle	tip	12	kill	-1	weather	-1	exercise	28
angle	fish	-1	adapt	-1	ticket	-1	retire	-1
angle	lean	-1	affront	-1	chatter	-1	slur	-1
angle	weight	-1	lace	-1	hitch	-1	lot	-1
angle	slant	-1	accord	-1	investigate	-1	foster	-1
overturn	vacate	-1	pay	-1	split	-1	parry	-1
overturn	repeal	-1	aid	-1	plate	-1	affect	265
overturn	lift	181	esquire	-1	smooth	-1	humble	-1
overturn	upset	-1	scuttle	-1	inflict	-1	nick	-1
overturn	rescind	-1	swan	-1	aim	-1	pole	-1
overturn	reverse	9	dog	-1	flee	-1	heel	-1
overturn	revoke	75	proposition	-1	fund	177	beaver	-1
scramble	beat	45	disgust	-1	award	-1	recruit	-1
scramble	skin	-1	grind	-1	knot	-1	quiet	-1
scramble	struggle	-1	rate	-1	slack	-1	hesitate	-1
scramble	shin	-1	spice	-1	screw	-1	wander	-1
remedy	repair	61	entail	-1	conflict	-1	plant	-1
remedy	relieve	202	slap	-1	respect	-1	cow	-1
coin	strike	-1	revitalize	-1	accompany	206	screw	-1
coin	mint	-1	defraud	-1	swipe	-1	cane	-1
restart	resume	10	prelude	-1	loosen	-1	sabre	-1
beam	shine	179	stomach	-1	flower	-1	burke	-1
beam	broadcast	-1	single	-1	thrill	-1	phrase	-1
beam	glow	133	sap	-1	prevent	-1	help	-1
beam	transmit	-1	dash	282	explain	-1	rape	242
beam	send	404	dig	394	finger	-1	feast	-1
beam	air	-1	bag	-1	tender	-1	caddie	-1
sting	bite	-1	cascade	-1	occur	271	sack	-1
sting	burn	100	fish	-1	drum	-1	birth	-1
chill	cool	57	succumb	-1	wage	-1	verge	-1
cluster	flock	-1	betray	-1	salute	-1	shatter	-1
cluster	bunch	-1	ferry	-1	record	286	tame	-1
cluster	bundle	-1	ladder	-1	parent	-1	nerve	-1
verify	swan	-1	hedge	-1	crop	-1	slug	-1
verify	affirm	-1	hasten	-1	corral	-1	bang	-1
verify	assert	71	dwindle	-1	reckon	-1	co-star	-1
verify	swear	-1	resurrect	-1	closet	-1	tarnish	-1
verify	control	-1	allure	-1	cable	-1	autopsy	-1
nail	blast	-1	inject	-1	suppose	-1	rear	-1
nail	cop	-1	lavish	-1	behave	-1	exceed	-1
nail	pinpoint	-1	comprise	-1	curb	-1	dummy	-1
nail	smash	-1	levy	-1	alibi	-1	buy	-1
nail	boom	-1	tube	-1	alienate	-1	ware	-1
nail	peg	-1	weary	-1	deliver	-1	landscape	-1
nail	arrest	-1	shake	-1	romp	-1	dissuade	-1
nail	collar	-1	endorse	-1	ding	-1	sympathize	-1
nail	ace	-1	derive	-1	depart	-1	ambition	-1
nail	complete	-1	divorce	-1	obscure	-1	hollow	-1
opt	choose	76	prescribe	-1	cooperate	-1	stimulate	710
opt	prefer	30	exhale	-1	center	-1	blunder	-1
flock	cluster	-1	gasp	-1	solve	-1	fox	-1
insult	affront	-1	beetle	-1	race	-1	barrel	-1
batter	buffet	-1	debut	-1	stall	-1	apologize	-1
sway	tilt	104	bear	289	intensify	-1	exaggerate	-1
sway	carry	515	undertake	-1	violate	-1	perceive	-1
sway	shake	178	renounce	-1	hail	175	jacket	-1
sway	swing	64	score	622	marvel	-1	cover	416
sway	persuade	471	ball	-1	school	-1	void	-1
sway	rock	-1	layer	-1	bench	-1	rev	-1
sway	nod	540	prescribe	-1	disgrace	-1	salt	-1
sway	shift	-1	revenge	-1	hesitate	240	regroup	-1
puzzle	beat	-1	wholesale	-1	licence	-1	scuttle	-1
puzzle	pose	100	repair	-1	carol	-1	amount	-1
puzzle	gravel	-1	parole	-1	limp	-1	prevent	409
subscribe	pledge	81	tighten	-1	discover	229	rely	-1
subscribe	sign	193	rim	-1	respite	-1	stroke	-1
subscribe	support	267	confess	-1	facilitate	-1	stroll	-1
tumble	topple	-1	lame	-1	issue	355	nod	-1
tumble	collapse	210	dread	-1	spotlight	-1	silhouette	-1
erode	fret	-1	encompass	-1	upgrade	-1	finger	-1
doom	sentence	-1	stabilize	-1	shed	-1	hood	-1
doom	fate	-1	trade	-1	dish	-1	suffice	-1
doom	designate	-1	wake	-1	implant	-1	strand	-1
doom	condemn	-1	tell	-1	bull	-1	cream	-1
dispatch	remove	134	convoy	-1	grudge	-1	default	-1
dispatch	hit	-1	circulate	-1	patent	-1	discriminate	-1
dispatch	murder	-1	debate	-1	snake	-1	refuse	-1
dispatch	complete	-1	cool	-1	renegotiate	-1	moderate	-1
thunder	roar	-1	continue	221	reduce	-1	restructure	-1
thunder	boom	60	dawn	-1	portion	-1	comprise	-1
thwart	foil	15	decide	247	clown	-1	husband	-1
thwart	cross	-1	yield	-1	miss	-1	accumulate	-1
thwart	scotch	-1	wee	-1	rain	-1	allocate	-1
thwart	spoil	126	baa	-1	fade	-1	seine	-1
thwart	frustrate	1	spit	-1	reflect	97	arrange	-1
withstand	defy	-1	belong	-1	pace	-1	institute	-1
withstand	resist	31	libel	-1	blueprint	-1	tail	16
withstand	hold	-1	ridge	-1	inherit	-1	gin	-1
temper	moderate	-1	mouse	-1	resonate	-1	free-lance	-1
temper	season	-1	terminate	-1	probe	-1	zone	-1
temper	normalize	-1	consolidate	-1	pepper	-1	garnish	-1
temper	harden	-1	dunk	-1	tool	-1	pass	-1
slope	pitch	-1	straw	-1	prize	-1	gentle	-1
expel	rout	-1	hull	-1	parallel	-1	crusade	-1
expel	discharge	-1	madden	-1	conceive	-1	detour	-1
expel	oust	-1	segment	-1	execute	-1	tackle	-1
expel	release	119	thread	-1	reinforce	-1	spur	-1
expel	exclude	75	swoop	-1	tube	-1	wring	-1
quell	stay	-1	determine	-1	download	-1	wash	-1
quell	appease	-1	cement	-1	school	-1	audition	-1
hail	acclaim	-1	ripple	-1	poke	-1	enable	-1
pinch	cabbage	-1	legislate	-1	account	-1	mirror	86
pinch	squeeze	209	exceed	-1	hope	-1	evict	-1
pinch	lift	169	chase	-1	pluck	-1	author	-1
pinch	top	-1	apologize	-1	robe	-1	settle	-1
pinch	crimp	-1	purchase	-1	bias	-1	rebound	-1
pinch	sneak	-1	rampage	-1	format	-1	elude	-1
pinch	swipe	-1	read	-1	wonder	-1	bend	153
pinch	abstract	-1	slot	-1	squabble	-1	fork	-1
pinch	hook	58	numb	-1	referee	-1	orient	-1
pretend	affect	-1	ponder	-1	hook	-1	crane	-1
pretend	act	605	incorporate	-1	usher	-1	cannon	-1
pretend	sham	-1	bother	116	walk	308	licence	-1
lag	jail	-1	pump	-1	bitter	-1	sow	-1
stack	heap	-1	blunder	-1	bucket	-1	plague	-1
stack	distribute	-1	sprawl	-1	hound	-1	gather	-1
stack	pile	-1	vie	-1	punt	-1	climb	-1
rack	torment	-1	haze	-1	rig	-1	loaf	-1
rack	extort	-1	curry	-1	bray	-1	ginger	-1
rack	scud	-1	browse	-1	sway	43	subject	123
rack	wring	-1	sock	-1	covenant	-1	tumble	-1
rack	torture	-1	default	-1	sprinkle	-1	stumble	-1
commemorate	mark	4	earth	-1	verge	-1	depress	-1
commemorate	remember	88	orient	-1	seed	-1	intimate	-1
commemorate	record	48	downgrade	-1	hug	-1	carpet	-1
handicap	invalid	-1	establish	739	pardon	-1	look	-1
handicap	hinder	-1	wan	-1	humor	-1	narrow	-1
handicap	hamper	-1	garner	-1	report	829	bruise	-1
erase	delete	-1	wed	-1	pattern	-1	answer	-1
marshal	summon	-1	adhere	-1	stet	-1	donate	-1
marshal	mobilize	-1	opt	-1	complain	-1	wine	-1
intimidate	restrain	-1	dyke	-1	mirror	-1	clue	-1
dot	stud	-1	market	-1	job	-1	purge	-1
dot	sprinkle	-1	dawn	-1	impede	-1	mark	75
dot	disperse	-1	tuck	-1	bog	-1	capitalize	-1
salute	pledge	-1	scud	-1	overhaul	-1	constitute	-1
salute	drink	-1	cable	-1	spend	-1	crown	-1
salute	toast	-1	study	-1	trap	-1	dam	-1
ratify	sign	3	reward	-1	whale	-1	parcel	-1
disperse	dust	-1	blueprint	-1	witch	-1	host	-1
disperse	dot	-1	haul	-1	loop	-1	fox	-1
disperse	circulate	-1	integrate	-1	correspond	434	rebound	-1
disperse	broadcast	-1	whirlpool	-1	mushroom	-1	stable	-1
disperse	sprinkle	-1	strap	-1	milk	-1	bread	-1
endanger	expose	548	intervene	-1	lob	-1	forestall	-1
endanger	threaten	3	loot	-1	garage	-1	glue	-1
endanger	peril	-1	explore	301	string	-1	spit	-1
endanger	jeopardize	-1	upset	422	mortar	-1	browse	-1
authorize	pass	155	refocus	-1	staff	102	tip	-1
authorize	empower	40	exact	-1	penetrate	-1	field	-1
bribe	buy	-1	portion	-1	crib	-1	heat	-1
bribe	corrupt	-1	stomach	-1	cue	-1	course	-1
sneak	creep	-1	dull	-1	sow	-1	enact	-1
sneak	cabbage	-1	capitalize	-1	feel	101	cruise	-1
sneak	lift	-1	sand	-1	compliment	-1	audit	-1
sneak	swipe	-1	beset	-1	nestle	-1	repair	-1
sneak	slip	-1	cartoon	-1	abolish	-1	understand	-1
sneak	mouse	-1	contain	-1	stall	-1	shin	-1
sneak	abstract	-1	slate	-1	wane	-1	defeat	-1
sneak	pinch	-1	tout	-1	discover	-1	descend	-1
sneak	hook	-1	unfold	-1	lecture	-1	corner	-1
whistle	sing	28	humble	-1	cater	-1	prohibit	-1
filter	trickle	99	tame	-1	slalom	-1	tail	-1
filter	strain	-1	discontent	-1	tail	-1	bounce	-1
filter	dribble	-1	drive	331	pierce	107	crawl	-1
disregard	snub	-1	ally	-1	pepper	-1	lift	-1
disregard	ignore	25	bruise	-1	hurt	-1	slit	-1
disregard	dismiss	93	design	-1	lance	-1	arise	-1
disregard	neglect	40	re-examine	-1	alter	80	booze	-1
disregard	discount	48	banquet	-1	range	-1	orient	-1
disregard	cut	-1	matter	-1	dislodge	-1	jab	-1
arch	curve	89	unify	-1	gown	-1	express	-1
articulate	pronounce	118	name	-1	ensure	-1	organize	-1
articulate	joint	-1	bind	456	shut	-1	rein	-1
articulate	word	-1	garnish	-1	dent	-1	voice	147
articulate	phrase	-1	block	351	affront	-1	torture	-1
curtail	clip	-1	list	312	suit	-1	audition	-1
curtail	restrict	15	accompany	315	rave	-1	reign	-1
roar	thunder	-1	damp	-1	excerpt	-1	dwarf	-1
stray	swan	-1	plump	-1	torment	-1	feature	-1
stray	range	-1	combat	-1	rerun	-1	peak	-1
stray	wander	16	harbour	-1	move	225	deal	-1
stray	depart	-1	fate	-1	mortgage	-1	release	311
stray	drift	69	thin	-1	facilitate	-1	tumble	128
stray	cast	-1	await	-1	whack	-1	bracket	-1
stray	roam	45	posture	-1	sanction	-1	moonlight	-1
alleviate	ease	3	lead	-1	palm	-1	quit	-1
alleviate	relieve	2	outbid	-1	withstand	112	peer	-1
alleviate	assuage	-1	thwart	-1	dictate	-1	crush	-1
dart	fleet	-1	propel	-1	toss	-1	tango	-1
dart	flash	26	aggravate	-1	surface	-1	nut	-1
dart	scud	-1	unlock	-1	jet	-1	clamp	-1
dart	shoot	49	consummate	-1	eat	217	home	-1
dart	dash	-1	verge	-1	witch	-1	drain	-1
relinquish	waive	42	stale	-1	apologize	-1	ready	-1
relinquish	renounce	32	inch	-1	calendar	-1	swan	-1
relinquish	resign	14	refund	-1	disagree	-1	accelerate	-1
relinquish	release	148	gash	-1	spar	-1	chip	-1
relinquish	free	-1	cure	-1	fog	-1	downgrade	-1
relinquish	surrender	39	discover	436	lull	-1	rust	-1
relinquish	forgo	-1	ease	419	troop	-1	dam	-1
relinquish	quit	83	redeploy	-1	blink	-1	fracture	-1
reclaim	reform	-1	stream	-1	lash	-1	scramble	-1
reclaim	recover	23	rafter	-1	outcry	-1	trash	-1
reclaim	tame	-1	vote	327	front	-1	seat	-1
flourish	wave	-1	screw	-1	book	-1	tie	-1
flourish	thrive	3	obstruct	-1	telephone	-1	mess	-1
flourish	boom	5	steer	-1	cone	-1	home	-1
flourish	expand	26	cox	-1	nerve	-1	dash	-1
flourish	prosper	1	bush	-1	grill	-1	quarantine	-1
peck	smack	-1	sag	-1	candy	-1	telecast	-1
worsen	exacerbate	12	dissent	-1	perfect	-1	white	-1
worsen	aggravate	4	sketch	-1	poke	-1	substitute	-1
worsen	decline	429	hustle	-1	clean	-1	forward	-1
adhere	stick	404	perfume	-1	contain	432	eye	-1
adhere	bind	186	damage	334	claim	569	press	393
adhere	bond	-1	bust	-1	fall	-1	indicate	516
adhere	cling	508	mold	-1	grill	-1	format	-1
sketch	outline	11	breeze	-1	tick	-1	antique	-1
sanction	okay	-1	qualify	-1	affiliate	-1	fan	-1
sanction	approve	97	deflect	-1	author	-1	aggregate	-1
overrun	invade	-1	penalize	-1	eliminate	-1	anger	-1
heed	listen	-1	barrel	-1	swing	-1	blind	-1
heed	mind	-1	court	-1	cool	-1	corrupt	-1
bump	break	247	regain	-1	submarine	-1	reshape	-1
bump	happen	313	chronicle	-1	realise	-1	chair	-1
bump	knock	207	taboo	-1	compile	-1	poise	-1
bump	encounter	-1	advocate	432	infiltrate	-1	kill	469
bump	dislodge	-1	drum	50	sip	-1	surface	-1
bump	chance	-1	finalize	-1	refuse	431	defend	-1
dampen	soften	-1	slug	-1	brook	-1	recall	-1
dampen	break	39	respond	-1	persuade	-1	broadcast	-1
dampen	dull	-1	output	-1	string	-1	lecture	-1
dampen	mute	-1	breaststroke	-1	mask	-1	quicken	-1
dampen	wash	-1	render	-1	recreate	-1	price	-1
dampen	stifle	-1	surpass	-1	battle	-1	mushroom	-1
dampen	weaken	-1	stir	-1	fragment	-1	judge	-1
sprinkle	dust	-1	react	-1	confederate	-1	offset	-1
sprinkle	spit	-1	descend	-1	bunch	-1	blast	-1
sprinkle	splash	1	voyage	-1	uncover	-1	stamp	-1
sprinkle	dot	-1	focus	-1	ally	-1	divert	66
sprinkle	disperse	-1	read	-1	canton	-1	modernize	-1
dispose	qualify	261	host	-1	dump	4	gum	-1
dispose	toss	-1	con	-1	digest	-1	booze	-1
dispose	fling	-1	baby	-1	declare	676	marshal	-1
dispose	discard	-1	survive	623	duplicate	-1	mix	582
hug	squeeze	52	trick	-1	renew	-1	stress	-1
hug	embrace	79	employ	-1	fret	-1	unfit	-1
surpass	transcend	-1	chalk	-1	earn	-1	bob	-1
surpass	excel	-1	embark	-1	harden	-1	bug	-1
surpass	exceed	9	practice	-1	boot	-1	burden	-1
escalate	intensify	-1	branch	-1	fall	197	umpire	-1
duplicate	parallel	-1	phase	-1	inventory	-1	bond	-1
duplicate	twin	-1	sow	-1	dice	-1	smart	-1
duplicate	repeat	179	capture	-1	bull	-1	embargo	-1
intrigue	scheme	-1	dash	-1	wall	-1	conform	-1
chop	hack	-1	stack	-1	sack	-1	cue	-1
certify	endorse	-1	brain	-1	soften	-1	title	-1
certify	licence	-1	collide	-1	retreat	-1	eddy	-1
certify	manifest	-1	shelter	-1	berry	-1	deal	-1
certify	demonstrate	-1	wharf	-1	elicit	-1	clout	-1
certify	evidence	-1	shock	-1	unleash	-1	hat	-1
certify	attest	-1	ax	-1	halve	-1	salvage	-1
certify	license	-1	forge	-1	esquire	-1	kiss	-1
rip	pull	100	wow	-1	prepare	-1	dissolve	-1
rip	tear	48	poke	-1	accomplish	-1	invent	-1
brace	stabilize	-1	attract	-1	witch	-1	ramp	-1
brace	steady	-1	soften	-1	slow	-1	rubber	-1
brace	poise	-1	scar	-1	invite	-1	crawl	-1
brace	stimulate	-1	rebuild	-1	cub	-1	resist	-1
curse	swear	144	transfer	513	counter	-1	center	-1
curse	damn	127	pin	-1	jack	-1	depend	-1
pinpoint	nail	-1	award	-1	blockade	-1	quarterback	-1
abound	burst	-1	mix	-1	videotape	-1	delay	-1
thread	string	-1	cover	-1	sublime	-1	clutch	112
thread	wind	110	plead	-1	endure	-1	fruit	-1
thread	draw	235	manifest	-1	dash	-1	travel	236
thread	wander	-1	ship	-1	field	-1	bat	-1
thread	weave	164	doubt	-1	picture	-1	lend	-1
redeem	ransom	-1	appease	-1	till	-1	shirt	-1
redeem	save	-1	purge	-1	disk	-1	budge	-1
redeem	deliver	51	re-examine	-1	bet	-1	racketeer	-1
swamp	flood	-1	frighten	-1	shave	-1	stampede	-1
swamp	deluge	-1	grip	-1	lobby	-1	stoke	-1
peel	strip	-1	budge	-1	rebate	-1	mirror	96
peel	pare	-1	doctor	-1	respond	-1	glimmer	-1
peel	skin	-1	pulse	-1	salute	-1	damp	-1
vest	robe	-1	slot	-1	rendezvous	-1	look	-1
specialize	narrow	-1	programme	-1	faint	-1	burst	-1
specialize	differentiate	-1	stoke	-1	thaw	-1	picnic	-1
swear	bank	-1	revere	-1	sit	227	reform	-1
swear	trust	297	invade	-1	crank	-1	throw	435
swear	curse	71	honor	-1	despair	-1	flame	-1
swear	affirm	-1	emerge	578	kill	143	caucus	-1
swear	verify	-1	refrain	-1	spruce	-1	tally	-1
swear	rely	467	underline	-1	rescue	168	train	358
lessen	fall	-1	jockey	-1	trickle	-1	guarantee	-1
lessen	diminish	26	negative	-1	applaud	-1	pearl	-1
lessen	decrease	62	shower	-1	contrast	-1	pension	-1
defer	table	-1	curl	-1	flee	-1	peel	-1
defer	bow	-1	limp	-1	stint	-1	affect	126
defer	submit	-1	vacate	-1	fleet	-1	panic	-1
defer	postpone	6	respond	-1	promenade	-1	tube	-1
disgust	repel	-1	concern	726	store	565	queen	-1
disgust	revolt	-1	override	-1	deluge	-1	company	-1
stroll	promenade	-1	seize	400	creep	-1	nod	640
splash	sprinkle	9	outbid	-1	scuffle	-1	jazz	-1
waive	forfeit	1	saute	-1	stroke	-1	translate	-1
waive	forgo	-1	style	-1	reprise	-1	drill	-1
waive	relinquish	18	character	-1	gift	-1	swim	-1
decay	crumble	16	quash	-1	remain	210	sequence	-1
eradicate	extinguish	-1	trade	-1	refuse	-1	separate	-1
unravel	run	-1	bush	-1	rape	-1	orient	-1
strive	endeavour	15	pace	-1	cherish	-1	hate	287
strive	endeavor	-1	darn	-1	list	-1	sunday	-1
strive	reach	-1	route	-1	advocate	397	whine	-1
spit	sprinkle	-1	yen	-1	riddle	-1	opt	-1
unload	discharge	7	establish	-1	facilitate	-1	reform	-1
unload	drop	-1	aggravate	-1	encourage	-1	arrange	144
gaze	stare	28	belong	443	bolt	-1	ebb	-1
crawl	creep	-1	persist	-1	harbor	-1	adventure	-1
deduct	withhold	7	subject	-1	listen	-1	anger	-1
deduct	derive	211	distinguish	235	count	132	announce	300
deduct	recoup	23	pig	-1	port	-1	reinforce	193
cater	supply	344	fare	-1	accumulate	-1	peek	-1
cater	provide	207	stalk	-1	enlarge	-1	junk	-1
kidnap	snatch	74	soldier	-1	shell	-1	negative	-1
hamper	hinder	1	kit	-1	scale	-1	station	-1
hamper	handicap	-1	pitch	-1	invade	-1	drop	-1
bundle	compact	-1	marvel	-1	widen	-1	mouse	-1
bundle	pack	-1	carry	109	scar	-1	snail	-1
bundle	cluster	-1	floor	-1	spirit	-1	distinguish	-1
loosen	tease	20	pencil	-1	dart	12	load	-1
loosen	relax	30	slur	-1	centre	-1	relate	-1
loosen	undo	41	spotlight	-1	discover	-1	despair	-1
propel	move	73	quadruple	-1	blanket	-1	forge	-1
propel	motivate	18	shift	-1	snatch	-1	renounce	-1
propel	incite	-1	gazette	-1	shuttle	-1	orphan	-1
cheat	screw	-1	fade	-1	prey	-1	surrender	-1
cheat	wander	-1	flank	-1	farrow	-1	bite	640
cheat	betray	269	crib	-1	wield	-1	camouflage	-1
cheat	jockey	-1	scrape	403	stalemate	-1	bench	-1
fracture	break	8	cooperate	-1	suggest	-1	pad	-1
bless	sign	-1	scout	-1	unify	-1	placate	-1
quicken	accelerate	6	suffice	-1	sorrow	-1	slant	-1
quicken	speed	-1	labor	-1	extend	237	ace	-1
quicken	repair	-1	horse	-1	slam	-1	ebb	-1
quicken	recreate	-1	witness	-1	mistrust	-1	jimmy	-1
quicken	revive	82	subordinate	-1	erode	-1	light	-1
quicken	renovate	-1	sabotage	-1	delegate	-1	compare	177
shave	trim	-1	bath	-1	romance	-1	suspend	-1
shave	plane	-1	bitch	-1	brown	-1	offend	-1
erupt	break	45	lag	-1	steer	-1	roof	-1
erupt	flare	4	towel	-1	hound	-1	awe	-1
erupt	burst	-1	cube	-1	short	-1	caw	-1
erupt	ignite	-1	gentle	-1	alleviate	-1	spoof	-1
flap	beat	90	pinnacle	-1	unravel	-1	turf	-1
flap	wave	50	spring	-1	reef	-1	undergo	-1
revoke	vacate	-1	robe	-1	fare	-1	pig	-1
revoke	repeal	36	admire	-1	cane	-1	cheer	-1
revoke	lift	212	snake	-1	render	98	slur	-1
revoke	rescind	21	shrine	-1	swoop	-1	blind	-1
revoke	overturn	52	ripple	-1	complete	-1	vacuum	-1
ignite	erupt	-1	embark	-1	follow	50	allege	-1
ignite	wake	-1	haze	-1	offend	-1	develop	-1
ignite	heat	-1	war	-1	groom	-1	syndicate	-1
discriminate	separate	-1	trick	-1	supply	634	inflict	-1
evade	fudge	-1	cooper	-1	faint	-1	forget	162
evade	dodge	5	hoot	-1	joint	-1	pale	-1
evade	sidestep	1	scalp	-1	seed	-1	collaborate	-1
evade	circumvent	56	cease	-1	alibi	-1	yield	257
evade	parry	-1	heel	-1	stampede	-1	evoke	-1
evade	duck	4	tutor	-1	tug	-1	inquire	-1
evade	skirt	36	yen	-1	fall	-1	foil	-1
stab	dig	265	crab	-1	indulge	107	con	-1
stab	knife	-1	nest	-1	thunder	-1	junk	-1
stab	prod	-1	offset	-1	wedge	-1	cue	-1
stab	poke	75	bogey	-1	witch	-1	pirate	-1
tilt	angle	-1	deem	-1	mushroom	-1	starve	-1
tilt	lean	29	dice	-1	qualify	-1	chagrin	-1
tilt	pitch	-1	consume	-1	utter	-1	depress	-1
tilt	slant	-1	curtain	-1	crease	185	carpenter	-1
tilt	shift	89	fiddle	-1	bash	15	arc	-1
tilt	sway	144	devalue	-1	award	339	heap	-1
foresee	counter	216	mastermind	-1	bravo	-1	coast	-1
foresee	envision	-1	couple	-1	gaze	-1	till	79
foresee	anticipate	2	exclude	162	determine	241	grab	-1
conform	adjust	393	schedule	-1	oil	-1	lumber	-1
conform	adapt	202	canton	-1	pine	-1	chase	573
hinder	impede	2	skid	-1	lust	-1	conceive	-1
hinder	blockade	-1	co-author	-1	shuttle	-1	supervise	80
hinder	obstruct	45	golf	-1	sunday	-1	monkey	-1
hinder	embarrass	-1	uniform	-1	abandon	172	defect	-1
hinder	handicap	-1	breath	-1	fire	-1	certify	-1
hinder	hamper	1	surf	-1	slate	-1	hassle	-1
hinder	block	115	disappoint	-1	repay	-1	originate	-1
mend	bushel	-1	usher	-1	interpret	406	ally	-1
mend	heal	-1	center	-1	plaster	-1	button	-1
mend	repair	1	prosper	-1	worship	-1	regard	-1
mend	doctor	-1	bash	-1	rubbish	-1	divide	436
mend	restore	-1	exempt	-1	trip	-1	urge	-1
mend	fix	285	rage	-1	game	-1	veneer	-1
dilute	stretch	-1	lament	-1	reference	-1	scream	-1
dilute	reduce	137	reiterate	-1	roam	-1	influence	133
dilute	cut	-1	bitch	-1	jacket	-1	poise	-1
dilute	thin	-1	fingerprint	-1	jolly	-1	bankrupt	-1
ponder	muse	-1	sub	-1	shove	-1	cheer	-1
ponder	contemplate	16	thunder	-1	grasp	462	blind	-1
ponder	reflect	-1	capture	249	waste	31	toe	-1
ponder	speculate	65	lime	-1	undo	-1	perk	-1
ascend	rise	-1	hush	-1	farm	-1	type	-1
purge	flush	-1	coal	-1	disarm	-1	solicit	-1
purge	cat	-1	wrest	-1	array	-1	manufacture	-1
purge	sick	-1	home	-1	dateline	-1	envy	-1
purge	cast	-1	extort	-1	bunch	-1	surprise	-1
purge	chuck	-1	touch	-1	condition	-1	recover	-1
deteriorate	drop	-1	fringe	-1	dirty	-1	booze	-1
symbolize	represent	-1	exact	-1	diagnose	-1	bash	-1
underwrite	cover	95	bind	-1	tongue	-1	flight	-1
underwrite	insure	-1	shuffle	-1	blend	-1	evade	61
relish	enjoy	265	razor	-1	succumb	-1	stay	-1
relish	savor	-1	bleed	-1	reign	-1	founder	-1
roam	swan	-1	dial	-1	telex	-1	capsule	-1
roam	range	-1	undo	-1	model	-1	field	-1
roam	wander	4	prod	-1	lance	-1	retain	-1
roam	drift	280	flute	-1	bud	-1	depict	401
roam	cast	-1	divine	-1	sprinkle	-1	fathom	-1
roam	stray	13	label	-1	creep	365	eddy	-1
stumble	blunder	-1	reunite	-1	identify	-1	stuff	-1
stumble	falter	-1	sketch	-1	dissuade	-1	web	-1
stumble	hit	119	scoop	-1	beacon	-1	badge	-1
stumble	trip	-1	bully	-1	esquire	-1	augment	-1
mobilize	rally	4	vent	-1	cannon	-1	canal	-1
mobilize	summon	53	water	-1	demo	-1	savor	-1
mobilize	marshal	-1	possess	87	commemorate	-1	sugar	-1
mobilize	circulate	-1	cool	-1	carp	-1	blanco	-1
choke	foul	-1	rat	-1	nudge	-1	fork	-1
choke	gag	-1	indulge	-1	enable	-1	muddy	-1
choke	fret	-1	wee	-1	saddle	-1	shame	-1
choke	throttle	-1	celebrate	-1	floor	-1	minimize	-1
scoop	trump	-1	rob	-1	crust	-1	cart	-1
applaud	acclaim	-1	chuck	-1	vow	-1	alert	-1
scent	perfume	-1	fee	-1	garland	-1	ink	-1
scent	wind	-1	grind	-1	canal	-1	nail	-1
scent	nose	-1	hold	114	monkey	-1	pose	-1
rejoin	repay	-1	perch	-1	rescind	-1	tidy	-1
rejoin	return	322	doctor	-1	stem	-1	bottom	-1
detain	stay	366	convene	-1	vanish	375	reconstruct	-1
embark	ship	176	underwrite	-1	hoot	-1	accession	-1
embark	enter	277	wrestle	-1	shut	-1	huddle	-1
embark	venture	-1	rig	-1	jolly	-1	curtain	-1
ripple	bubble	64	foray	-1	mill	-1	cover	146
allay	ease	40	shark	-1	search	-1	dream	-1
allay	relieve	41	jaw	-1	voyage	-1	haunt	28
allay	assuage	-1	madden	-1	threaten	-1	restrain	-1
harbour	entertain	3	cheer	-1	mock	-1	infiltrate	-1
harbour	hold	229	acquire	363	wing	-1	jar	-1
harbour	nurse	85	terrace	-1	league	-1	baby	-1
harbour	shield	-1	nap	-1	leach	-1	slim	-1
beware	mind	-1	leaf	-1	flame	-1	stalemate	-1
tidy	straighten	61	nurture	-1	slur	-1	amnesty	-1
screw	love	100	eddy	-1	grave	-1	perpetuate	-1
screw	shaft	-1	approve	-1	drain	-1	frustrate	-1
screw	bed	-1	doom	-1	shrink	-1	avail	-1
screw	cheat	-1	matter	-1	fuel	-1	fair	-1
screw	bang	-1	rocket	-1	originate	-1	address	-1
screw	jockey	-1	string	-1	breach	-1	cable	-1
screw	jazz	-1	shroud	-1	issue	-1	dress	-1
bark	skin	-1	concert	-1	revise	-1	bench	-1
deepen	change	335	look	-1	flip	-1	pink	-1
deepen	compound	-1	dump	-1	rescue	-1	rear	-1
deepen	intensify	-1	tangle	-1	hoot	-1	continue	100
deepen	heighten	-1	shanghai	-1	bath	-1	influence	-1
unleash	loose	-1	assemble	45	renounce	-1	overlap	-1
tug	push	113	probe	-1	contrast	-1	scourge	-1
tug	labour	-1	quash	-1	research	-1	certify	-1
tug	drive	249	slip	80	moonlight	-1	zone	-1
tug	labor	-1	fake	-1	tune	-1	split	194
conquer	appropriate	-1	shower	-1	club	-1	record	-1
conquer	subdue	-1	dig	589	lower	652	shrink	72
conquer	suppress	-1	horn	-1	qualify	723	mill	-1
conquer	seize	205	surge	-1	result	-1	grow	310
conquer	capture	112	rumble	-1	saint	-1	skin	-1
conquer	inhibit	-1	maximize	-1	tolerate	405	fire	735
cripple	lame	-1	intermediate	-1	reschedule	-1	mislead	-1
blur	dim	-1	brake	-1	crest	-1	rethink	-1
blur	smear	-1	spell	-1	march	-1	rinse	-1
blur	confuse	-1	brigade	-1	head	-1	mind	-1
shuffle	mix	-1	nickel	-1	saute	-1	focus	-1
chew	jaw	-1	outlaw	-1	penetrate	-1	towel	-1
tailor	style	-1	emerge	223	trouble	-1	ginger	-1
tailor	cut	251	ease	-1	compare	335	tongue	-1
endeavour	strive	4	fold	-1	dispute	-1	image	-1
undo	loosen	34	land	-1	ignore	357	coax	-1
deflect	avert	-1	propel	-1	compound	-1	revoke	-1
deflect	bend	-1	quadruple	-1	saddle	-1	gravel	-1
deflect	parry	4	forestall	-1	honey	-1	stint	-1
deflect	distract	8	hustle	-1	taxi	-1	smuggle	-1
deflect	avoid	90	document	-1	dilute	-1	gauge	-1
deflect	block	26	boycott	-1	quarrel	-1	landscape	-1
impede	obstruct	3	tax	-1	flaw	-1	clamor	-1
impede	hinder	2	tangle	-1	train	-1	dun	-1
impede	jam	-1	hug	-1	visit	-1	paint	-1
impede	block	23	chair	-1	examine	98	hatch	-1
wield	handle	710	perch	-1	bring	319	flurry	-1
wield	exert	12	extort	-1	assuage	-1	pot	-1
wield	maintain	497	minister	-1	plow	-1	hook	-1
preach	advocate	-1	conflict	104	research	-1	rush	-1
unfold	stretch	26	reopen	-1	shark	-1	prevent	-1
unfold	extend	200	distress	-1	reference	-1	yellow	-1
unfold	spread	40	pink	-1	motor	-1	train	-1
unfold	blossom	-1	witness	-1	cure	-1	worship	-1
dread	fear	-1	normalize	-1	triumph	-1	arrive	-1
vie	compete	69	forecast	-1	starch	-1	compensate	-1
vie	contend	19	caucus	-1	guard	-1	impress	-1
distract	trouble	31	welcome	-1	weight	-1	airlift	-1
distract	deflect	5	falter	-1	replenish	-1	favour	-1
distract	disorder	-1	libel	-1	railroad	-1	poison	16
smear	blur	-1	clone	-1	cool	-1	espy	-1
smear	slander	-1	glow	56	feel	144	gong	-1
enlist	engage	35	proof	-1	mature	-1	wing	-1
enlist	draft	198	legislate	-1	raid	-1	mask	-1
yell	scream	7	metal	-1	intervene	-1	care	224
yell	shout	10	blend	-1	slick	-1	sigh	-1
yell	call	245	originate	-1	jeopardize	-1	address	254
renounce	vacate	-1	share	512	succeed	405	allay	-1
renounce	resign	-1	counterfeit	-1	re-enter	14	proportion	-1
renounce	relinquish	18	contain	-1	fulfil	328	shuffle	-1
renounce	quit	-1	restrict	99	chip	-1	quarter	-1
hasten	race	-1	scratch	-1	tie	151	avenge	18
hasten	expedite	-1	punt	-1	flaw	-1	thread	-1
hasten	speed	31	network	-1	merchandise	-1	spill	-1
hasten	induce	191	slow	94	harp	-1	charm	-1
hasten	rush	-1	threaten	-1	combine	174	debut	-1
hasten	stimulate	-1	claim	-1	corner	-1	anchor	-1
hasten	hurry	-1	prescribe	-1	rubber	-1	saute	-1
indulge	baby	-1	mind	202	flank	-1	crisp	-1
indulge	spoil	-1	solicit	-1	continue	-1	poison	-1
contradict	oppose	101	shock	-1	confuse	-1	mute	-1
overtake	pass	164	worsen	-1	spoil	-1	tissue	-1
overtake	catch	237	caricature	-1	ship	-1	imprint	-1
nurture	foster	6	insulate	-1	blueprint	-1	correct	-1
nurture	parent	-1	press	-1	descend	-1	pierce	-1
nurture	sustain	-1	message	-1	bach	-1	modernize	-1
nurture	raise	-1	ponder	-1	circulate	-1	consent	-1
nurture	rear	-1	entice	-1	splinter	-1	bicycle	-1
confiscate	attach	-1	hamper	-1	clock	-1	cave	-1
confiscate	seize	24	repay	-1	consummate	-1	renegade	-1
cradle	rock	104	pride	-1	cycle	-1	structure	-1
hack	chop	-1	cling	-1	worry	-1	clutter	-1
hack	cut	-1	crisp	-1	hang	285	reinforce	-1
soak	pluck	-1	capsule	-1	meet	216	thirst	-1
soak	plume	-1	arch	-1	jazz	-1	officer	-1
soak	pawn	-1	parent	-1	motivate	-1	sock	-1
soak	rob	-1	barricade	-1	pain	-1	circle	-1
soak	hook	54	sole	-1	spruce	-1	wrest	-1
soak	surcharge	-1	appreciate	-1	dispute	-1	channel	-1
liberate	loose	-1	imply	-1	field	-1	damp	-1
liberate	free	172	whack	-1	people	-1	rush	-1
dwell	harp	-1	jack	-1	rape	-1	crawl	-1
dwell	people	-1	augment	-1	rebuke	-1	inflate	-1
dwell	inhabit	-1	rim	-1	express	-1	condone	-1
dwell	consist	-1	effect	-1	buffalo	-1	bare	-1
dwell	lie	-1	stash	-1	reorganize	-1	unravel	-1
dwell	reside	-1	stalk	-1	station	-1	reel	18
dwell	live	-1	deposit	-1	rot	-1	drown	-1
dwell	shack	-1	reinstate	-1	disk	-1	stale	-1
dwell	belong	-1	shadow	47	chauffeur	-1	trail	-1
dwell	worry	113	turtle	-1	circuit	-1	caricature	-1
revert	return	114	gaze	-1	motor	-1	about-face	-1
harness	rule	215	glimpse	-1	arrest	-1	shack	-1
harness	rein	-1	hoot	-1	barter	-1	limit	70
circumvent	fudge	-1	heel	-1	steam	-1	defuse	-1
circumvent	beat	-1	protest	-1	swoop	-1	sabotage	-1
circumvent	hedge	-1	shape	-1	distort	-1	overturn	-1
circumvent	surround	148	affiliate	-1	stint	-1	stack	-1
circumvent	dodge	-1	caw	-1	oyster	-1	obscure	-1
circumvent	sidestep	5	lace	-1	complicate	70	develop	-1
circumvent	elude	-1	cluster	-1	seed	-1	swat	-1
circumvent	parry	-1	snatch	-1	diagnose	34	hijack	-1
circumvent	duck	-1	discern	-1	cooperate	-1	babbitt	-1
circumvent	evade	52	reassure	-1	jewel	-1	accent	-1
circumvent	skirt	-1	craft	-1	allure	-1	clarify	61
fuse	blend	-1	roll	-1	amend	-1	stabilize	-1
fuse	combine	-1	inspire	-1	skipper	-1	debut	-1
fuse	merge	-1	repair	-1	plummet	-1	spirit	-1
fuse	mix	-1	budge	-1	loathe	-1	wash	-1
scrape	skin	-1	root	-1	veneer	-1	expand	-1
tick	beat	658	harbor	-1	transit	-1	lumber	-1
congratulate	plume	-1	dampen	-1	whirlpool	-1	reunite	-1
congratulate	compliment	-1	reel	-1	accomplish	-1	scrimmage	-1
congratulate	pride	-1	snail	-1	compensate	-1	fix	-1
smack	taste	-1	grass	-1	secede	-1	motor	-1
smack	peck	-1	brag	-1	develop	-1	surf	-1
quash	subdue	-1	shield	-1	stale	-1	head	-1
quash	void	-1	mar	-1	inquire	11	tango	-1
quash	reduce	302	purchase	215	bard	-1	invite	-1
quash	avoid	299	screw	-1	read	164	lure	-1
disband	dissolve	147	allay	-1	halt	-1	wish	212
lament	regret	4	fade	-1	stump	-1	pose	-1
lament	keen	-1	lure	-1	bet	-1	separate	97
rouse	wake	-1	refine	-1	commit	-1	equip	-1
rouse	charge	-1	recapture	-1	inhibit	-1	fling	-1
rouse	excite	57	homestead	-1	re-enter	-1	convince	-1
harass	provoke	260	caricature	-1	triple	-1	tinker	-1
harass	tease	-1	request	-1	cooperate	-1	savor	-1
harass	plague	-1	trip	-1	legalize	-1	cox	-1
harass	beset	-1	remedy	-1	fall	-1	pillow	-1
harass	chevy	-1	fill	-1	inject	-1	kid	-1
harass	bug	-1	grab	-1	build	-1	allege	-1
blossom	flower	-1	rebuild	-1	write	-1	buckle	-1
blossom	unfold	-1	contend	-1	dictate	-1	lick	-1
discard	toss	-1	cup	-1	menace	-1	hijack	-1
discard	dispose	-1	hire	-1	solve	-1	compass	-1
discard	fling	-1	gross	-1	pine	-1	rebel	-1
spawn	breed	-1	screen	-1	endanger	-1	boss	-1
reel	spin	23	pyramid	-1	archive	-1	humble	-1
poke	pound	-1	head	-1	tree	-1	blueprint	-1
poke	dig	85	elicit	-1	screen	-1	play	244
poke	stab	32	list	-1	shock	-1	rush	-1
poke	prod	-1	poise	-1	tame	-1	slight	-1
poke	jab	20	court	-1	maximize	-1	grease	-1
poke	nose	-1	covenant	-1	explore	-1	trick	-1
reside	dwell	-1	kill	336	whiff	-1	lipstick	-1
reside	people	-1	reunite	-1	sunday	-1	lot	-1
reside	inhabit	-1	sled	-1	bump	-1	spiral	-1
reside	occupy	74	rubbish	-1	mouth	-1	reform	-1
reside	live	203	exhale	-1	harness	10	lose	512
reside	shack	-1	fix	-1	shred	-1	reply	-1
elevate	lift	298	evoke	-1	chagrin	-1	coat	-1
elevate	upgrade	24	gloss	-1	slander	-1	float	-1
elevate	raise	41	undo	-1	favour	121	obtain	178
elevate	promote	306	warp	-1	parcel	-1	honour	-1
elevate	advance	139	limit	-1	fit	-1	retain	72
conserve	maintain	153	net	-1	reshuffle	-1	override	-1
conserve	husband	-1	overthrow	-1	harbor	-1	preach	-1
shorten	contract	-1	chronicle	6	disappoint	-1	leach	-1
shorten	reduce	365	instruct	-1	canvas	-1	implement	615
shorten	cut	311	card	-1	hollow	-1	acknowledge	-1
obstruct	impede	1	joy	-1	base	343	welsh	-1
obstruct	blockade	-1	yen	-1	warn	-1	nod	-1
obstruct	hinder	25	decorate	-1	lose	-1	ambition	-1
obstruct	embarrass	-1	trumpet	-1	pen	-1	flaw	-1
obstruct	jam	-1	witness	-1	advise	-1	continue	131
obstruct	block	11	hare	-1	barter	-1	recognize	467
soothe	solace	-1	invoke	-1	beetle	-1	booze	-1
soothe	console	-1	win	-1	blanket	-1	sap	-1
soothe	comfort	57	dose	-1	dope	-1	crumb	-1
blink	flash	52	converge	-1	beacon	-1	doctor	-1
converge	meet	524	telecast	-1	rub	-1	close	235
tread	step	356	void	-1	accomplish	-1	resolve	-1
perch	roost	-1	shade	-1	deposit	-1	represent	-1
perch	light	-1	lever	-1	fate	-1	disappoint	-1
perch	rest	-1	accelerate	-1	caddie	-1	certificate	-1
inquire	wonder	-1	discourage	-1	deliver	142	eclipse	-1
inquire	investigate	163	cable	-1	torpedo	-1	tide	-1
delete	erase	-1	argue	-1	hike	-1	eagle	-1
delete	cancel	240	quantify	-1	access	11	cite	-1
heighten	rise	102	finalize	-1	copy	-1	flag	-1
heighten	enhance	46	render	-1	dust	-1	certificate	-1
heighten	deepen	-1	bite	-1	raid	-1	hear	-1
heighten	compound	58	voice	2	wish	-1	frequent	-1
heighten	raise	45	smuggle	-1	hire	-1	ax	-1
heighten	sharpen	53	eradicate	-1	draft	-1	nitrate	-1
heighten	intensify	24	sack	-1	black	-1	guy	-1
multiply	reproduce	-1	tighten	-1	strain	-1	link	430
multiply	breed	-1	mimic	-1	cotton	-1	jog	-1
unify	mingle	-1	hike	-1	scrap	-1	bid	-1
unify	merge	-1	plaster	-1	brand	-1	graft	-1
unify	mix	-1	probe	-1	address	433	crash	-1
forfeit	waive	3	smash	-1	chauffeur	-1	record	-1
forfeit	forgo	-1	compare	-1	idle	-1	invent	-1
drown	overwhelm	-1	pause	283	preview	-1	cripple	-1
flare	erupt	15	sweep	176	digest	-1	glue	13
differentiate	mark	-1	jog	-1	brag	-1	tee	-1
differentiate	specialize	-1	bucket	-1	riot	-1	stack	-1
differentiate	tell	337	market	52	tend	245	boil	-1
differentiate	separate	-1	curry	-1	lend	-1	hide	-1
differentiate	distinguish	56	entice	-1	lecture	-1	segment	-1
reconstruct	rebuild	24	renegade	-1	refine	-1	gum	-1
crumble	decay	84	pencil	-1	co-author	-1	envy	-1
crumble	collapse	6	contour	-1	kick	-1	bar	-1
swirl	eddy	-1	torpedo	-1	manure	-1	fiddle	-1
suffice	serve	39	plow	-1	wander	-1	buffalo	-1
suffice	answer	-1	ray	-1	omen	-1	pearl	-1
rot	waste	-1	reshuffle	-1	mother	-1	cascade	-1
falter	stumble	-1	corset	-1	ration	-1	hit	-1
inflate	expand	-1	sweep	-1	feather	-1	infringe	-1
inflate	balloon	-1	restart	-1	carpet	-1	swat	-1
simulate	assume	70	except	-1	integrate	191	shred	-1
simulate	model	8	ray	-1	hover	-1	save	358
simulate	copy	-1	mortar	-1	attest	-1	thank	-1
simulate	sham	-1	retail	-1	front	-1	evoke	-1
enlarge	expand	7	row	-1	churn	-1	mourn	-1
aspire	aim	-1	assess	-1	shaft	-1	legitimate	-1
shove	squeeze	87	sum	-1	firm	-1	divide	376
shove	thrust	50	racketeer	-1	improve	-1	implement	-1
shove	stuff	128	gray	-1	reconcile	-1	tucker	-1
recount	tell	31	rally	-1	collar	-1	panic	-1
recount	spin	28	jacket	-1	ruin	-1	collide	-1
empower	authorize	82	wrestle	-1	espy	-1	floor	-1
empower	gift	-1	buffalo	-1	greet	529	vent	-1
empower	invest	564	exclude	167	sleek	-1	bucket	-1
chatter	jaw	-1	collar	-1	deaf	-1	justify	-1
chatter	visit	-1	renounce	-1	church	-1	scrimmage	-1
chatter	gossip	-1	adopt	-1	sandwich	-1	spiral	-1
chatter	click	19	knock	29	sag	-1	evade	-1
hover	linger	117	screen	-1	slap	152	drum	77
hover	loom	66	taboo	-1	vanish	86	endorse	-1
comprehend	dig	-1	pulp	-1	pause	-1	refrigerate	-1
comprehend	cover	-1	forearm	-1	letter	-1	pad	-1
comprehend	encompass	-1	career	-1	admire	192	pardon	-1
comprehend	grasp	104	ham	-1	nick	-1	boil	-1
comprehend	compass	-1	bully	-1	machine	-1	lamb	-1
comprehend	perceive	187	endanger	139	border	-1	rattle	-1
comprehend	savvy	-1	lick	-1	cycle	-1	retrieve	-1
comprehend	embrace	-1	premier	-1	symbolize	-1	swallow	-1
bulge	bag	-1	fullback	-1	ponder	-1	tally	-1
bulge	pop	69	dine	-1	roost	-1	free-lance	-1
grieve	sorrow	-1	feather	-1	command	-1	labor	-1
poise	brace	-1	judge	-1	push	-1	card	-1
poise	balance	-1	depart	-1	recap	-1	backlash	-1
manifest	certify	-1	allege	-1	notice	-1	court-martial	-1
manifest	demonstrate	-1	adopt	-1	prepare	-1	film	-1
manifest	evidence	-1	jingle	-1	contract	-1	damage	143
replicate	double	-1	compile	-1	convince	-1	conflict	21
replicate	copy	8	cherish	-1	thrill	-1	contract	-1
recreate	quicken	-1	throne	-1	hood	-1	arm	-1
recreate	repair	-1	coat	-1	nurture	-1	adopt	-1
recreate	cheer	-1	believe	-1	elbow	-1	dimension	-1
recreate	revive	-1	gesture	-1	hate	-1	con	-1
recreate	play	275	mate	-1	numb	-1	confess	-1
sow	seed	-1	brook	-1	insulate	-1	cabin	-1
inhabit	dwell	-1	throng	212	fin	-1	sight	-1
inhabit	people	-1	materialize	-1	herald	-1	gag	-1
inhabit	occupy	33	blunder	-1	scam	-1	talk	483
inhabit	reside	-1	abolish	455	bull	-1	renovate	48
inhabit	live	252	dance	514	disagree	204	sketch	-1
inhabit	shack	-1	dominate	78	ash	-1	blow	-1
harden	temper	-1	add	475	subdue	96	jolly	-1
harden	season	-1	eye	-1	cradle	-1	parent	-1
aggravate	worsen	2	plane	-1	muscle	-1	wreak	-1
forestall	forbid	-1	quicken	-1	airlift	-1	blossom	-1
forestall	prevent	-1	receive	-1	fulfill	-1	bard	-1
forestall	counter	-1	moot	-1	partner	-1	firm	-1
forestall	preclude	-1	grind	-1	tax	-1	honor	-1
forestall	anticipate	-1	rage	-1	fail	-1	hunger	-1
refine	elaborate	-1	picnic	-1	imagine	-1	cut	570
refine	polish	198	conflict	428	slalom	-1	help	354
refine	complicate	182	flow	191	tutor	-1	lend	-1
intercept	tap	-1	section	-1	caddie	-1	rape	-1
intercept	bug	-1	lift	-1	drink	-1	oust	-1
intercept	stop	-1	castle	-1	mimic	-1	herd	-1
straighten	tidy	85	crimp	-1	tolerate	-1	crest	-1
strap	whip	-1	reprimand	-1	consolidate	-1	govern	-1
strap	lash	-1	surge	-1	approximate	-1	plant	-1
strap	slash	-1	preheat	-1	ridge	-1	succeed	351
flex	bend	72	fool	-1	overload	-1	outline	-1
affirm	swan	-1	tattoo	-1	fate	-1	format	-1
affirm	assert	52	bicycle	-1	score	-1	dog	-1
affirm	swear	-1	condition	-1	par	-1	score	-1
affirm	sustain	154	skipper	-1	market	-1	refer	265
affirm	support	217	pluck	-1	provoke	229	founder	-1
affirm	verify	-1	cartoon	-1	decree	-1	delegate	172
disqualify	unfit	-1	attribute	32	assign	-1	exempt	-1
utilize	employ	46	ebb	-1	maneuver	-1	curse	-1
utilize	apply	41	alternate	-1	gee	-1	wake	-1
skim	scan	152	measure	-1	club	-1	recycle	-1
skim	cream	-1	revisit	-1	colour	-1	sue	-1
skim	plane	-1	confirm	-1	edge	-1	service	-1
skim	rake	102	win	-1	persist	-1	excel	-1
tuck	insert	50	coke	-1	author	-1	licence	-1
tuck	gather	-1	garner	-1	crop	-1	branch	-1
overshadow	eclipse	-1	tussle	-1	plate	-1	crown	-1
overshadow	dwarf	-1	peak	-1	needle	-1	single	-1
wane	decline	7	annex	-1	thin	-1	ready	-1
reassert	confirm	253	sequence	-1	bust	-1	clown	-1
gasp	puff	-1	bracket	-1	signal	-1	formulate	-1
sharpen	focus	265	shrink	-1	bum	-1	seal	-1
sharpen	heighten	58	railroad	-1	re-enter	-1	delight	-1
collide	clash	-1	revert	-1	leverage	-1	root	-1
collide	jar	-1	streak	-1	whiff	-1	scheme	-1
starve	lust	-1	recapture	-1	poise	-1	cheek	-1
starve	hunger	-1	strain	-1	avenge	-1	trust	120
starve	thirst	-1	nitrate	-1	dock	-1	oyster	-1
lash	whip	32	screw	-1	sequence	-1	surprise	-1
lash	strap	-1	involve	-1	pan	-1	afford	-1
dispense	distribute	-1	automobile	-1	flour	-1	sprawl	-1
dispense	lot	-1	answer	-1	cache	-1	canoe	-1
dispense	deal	-1	stereotype	-1	indulge	-1	shield	-1
overload	surcharge	-1	cloak	-1	remainder	-1	shift	-1
condone	excuse	2	expedite	-1	father	-1	output	-1
bleed	run	87	putter	-1	razor	-1	toll	-1
exacerbate	worsen	14	toss	-1	recognise	80	climax	-1
hiss	boo	-1	seine	-1	shower	-1	fox	-1
recite	tell	-1	hoover	-1	rejoin	-1	entice	-1
recite	spin	-1	disrespect	-1	funk	-1	patronage	-1
incite	move	269	stash	-1	crave	-1	imply	-1
incite	prompt	229	paper	-1	mortgage	-1	rouse	-1
incite	motivate	68	rue	-1	weary	-1	ford	-1
incite	propel	-1	contest	-1	lyric	-1	erupt	-1
incite	prod	-1	recap	-1	identify	297	curb	-1
elicit	provoke	18	congratulate	-1	slush	-1	recognize	-1
elicit	evoke	4	reprimand	-1	investigate	197	lash	-1
elicit	extract	97	copyright	-1	mail	-1	clash	-1
elicit	raise	202	improve	-1	pine	-1	redesign	-1
elicit	fire	-1	soar	-1	claim	458	institute	-1
implicate	entail	-1	weed	-1	hum	-1	true	-1
query	question	-1	clone	-1	multiply	-1	aid	-1
quantify	measure	68	card	-1	expose	-1	trace	330
cherish	treasure	2	blow	-1	slang	-1	debate	-1
deceive	betray	120	swoop	-1	quarrel	-1	teach	326
imitate	copy	31	dwell	-1	measure	211	cannon	-1
stalk	haunt	88	defy	-1	voodoo	-1	cartoon	-1
infringe	conflict	-1	crush	-1	mention	-1	crow	-1
mingle	jumble	-1	finger	-1	rough	-1	reinvent	-1
mingle	unify	-1	bribe	-1	rat	-1	bobsled	-1
mingle	mix	-1	dip	-1	nitrate	-1	preclude	-1
glaze	candy	-1	x-ray	-1	fox	-1	store	-1
blush	crimson	-1	submit	-1	resolve	-1	visit	-1
emit	breathe	-1	stand	418	savvy	-1	oyster	-1
emit	utter	105	reconcile	-1	doom	-1	instill	-1
jog	clip	-1	surrender	-1	result	-1	blue	-1
elude	dodge	-1	tire	-1	fate	-1	cheese	-1
elude	sidestep	-1	duel	-1	reverse	-1	blunt	-1
elude	circumvent	-1	hire	-1	derail	-1	amount	-1
elude	parry	-1	mob	-1	format	-1	loft	-1
elude	escape	-1	include	-1	homer	-1	joy	-1
elude	duck	-1	encore	-1	mill	-1	apologize	-1
elude	skirt	-1	raise	-1	hijack	-1	enlist	-1
align	adjust	-1	diet	-1	butterfly	-1	confirm	-1
align	array	-1	distance	-1	credit	-1	officer	-1
align	coordinate	-1	ping	-1	burst	-1	chart	-1
wrinkle	purse	-1	water	-1	staunch	-1	compliment	-1
wrinkle	crisp	-1	assert	-1	scrape	-1	step	-1
wrinkle	crease	2	prod	-1	quake	-1	poise	-1
discern	recognize	203	mourn	-1	article	-1	hinge	-1
discern	recognise	227	stint	-1	forget	-1	champion	-1
discern	distinguish	-1	experiment	-1	frame	-1	cabin	-1
repel	snub	-1	channel	-1	rope	-1	hide	-1
repel	rebuff	-1	smile	-1	soot	-1	account	-1
repel	drive	-1	brad	-1	racketeer	-1	join	60
repel	disgust	-1	insulate	-1	stock	-1	reign	-1
subdue	overcome	-1	deck	-1	acknowledge	-1	fit	166
subdue	tame	-1	condone	-1	shell	-1	encore	-1
subdue	reduce	-1	shower	-1	canton	-1	jelly	-1
subdue	suppress	-1	perfect	-1	prosecute	-1	anger	-1
subdue	master	-1	update	-1	licence	-1	purpose	-1
subdue	curb	-1	battle	-1	crawl	-1	brook	-1
subdue	quash	-1	slim	-1	sabre	-1	wolf	-1
subdue	conquer	-1	parry	-1	scratch	-1	buckle	-1
subdue	inhibit	-1	commission	-1	smoke	-1	warrant	-1
bruise	spite	-1	disrupt	-1	autopsy	-1	offset	-1
bruise	offend	-1	smash	145	plot	-1	repeal	-1
bruise	injure	-1	party	-1	groom	-1	graduate	-1
bruise	hurt	133	harass	-1	rack	-1	protest	-1
tease	rally	-1	anchor	-1	edit	-1	oversupply	-1
tease	bait	-1	dictate	-1	sandwich	-1	class	-1
tease	harass	-1	chuck	-1	install	-1	dump	-1
tease	ride	-1	bomb	-1	whittle	-1	cube	-1
tease	loosen	20	articulate	-1	fat	-1	shark	-1
tease	cod	-1	correspond	-1	compensate	-1	haul	-1
tease	card	-1	assess	-1	jolt	-1	gazette	-1
tease	bug	-1	flare	-1	rail	-1	cox	-1
transcend	surpass	-1	blink	-1	cradle	-1	contribute	-1
transcend	top	55	stomach	-1	ponder	-1	include	-1
transcend	pass	-1	transplant	-1	dilute	-1	soften	-1
transcend	exceed	-1	inquire	-1	lamb	-1	cloak	-1
crouch	bend	184	begin	-1	addict	-1	revisit	-1
crouch	bow	165	stet	-1	steady	-1	deposit	-1
hum	buzz	-1	scratch	-1	move	108	encourage	-1
furnish	render	-1	reshape	-1	secure	293	grease	-1
furnish	supply	267	ace	-1	deem	-1	horn	-1
furnish	provide	139	preview	-1	stun	-1	medicine	-1
slant	tilt	-1	fit	-1	announce	-1	groove	-1
slant	tip	-1	spin	-1	divorce	-1	perch	-1
slant	angle	-1	enjoy	-1	sentence	-1	burn	130
slant	pitch	-1	loot	-1	flare	121	gear	-1
slant	weight	-1	jail	-1	trace	265	devil	-1
pluck	pull	113	shoot	-1	bobsled	-1	tap	-1
pluck	soak	-1	teach	-1	crop	-1	brief	-1
pluck	roll	-1	groove	-1	position	-1	test	-1
pluck	hustle	-1	commission	-1	winter	-1	picture	-1
pluck	rob	-1	glut	-1	waltz	-1	jump	-1
pluck	tear	90	exile	-1	backstroke	-1	demonstrate	-1
pluck	hook	-1	provision	-1	disgrace	-1	enact	-1
pluck	surcharge	-1	contemplate	-1	ware	-1	implement	-1
extinguish	eradicate	-1	company	-1	proportion	-1	section	-1
extinguish	eliminate	326	tongue	-1	okay	-1	falcon	-1
wring	extort	-1	shape	-1	knit	200	chrome	-1
wring	rack	-1	scheme	-1	equip	-1	peer	-1
wring	distort	-1	hiss	-1	curb	-1	beef	-1
