people	inhabit	-1	lower	-1	near	-1	spill	-1	target_not_found
people	dwell	-1	blush	-1	blanket	-1	conclude	-1	target_not_found
people	live	-1	sex	-1	expose	-1	jacket	-1	target_not_found
people	reside	-1	pollard	-1	stunt	-1	worm	-1	target_not_found
people	shack	-1	bush	-1	slave	-1	merge	-1	target_not_found
bill	charge	-1	concert	-1	repatriate	-1	discount	-1	target_not_found
center	focus	-1	esteem	-1	ease	-1	excuse	-1	target_not_found
lot	distribute	-1	exaggerate	-1	poke	-1	wow	-1	target_not_found
lot	deal	-1	nitrate	-1	joint	-1	ridicule	-1	target_not_found
lot	dispense	-1	pain	-1	swear	-1	demand	-1	target_not_found
lot	administer	-1	motley	-1	alienate	-1	fox	-1	target_not_found
yen	pine	-1	bach	-1	libel	-1	yell	-1	target_not_found
job	speculate	-1	sue	-1	bray	-1	tile	-1	target_not_found
drug	dose	-1	remember	-1	swarm	-1	loathe	-1	target_not_found
labor	grind	-1	live	-1	attain	-1	libel	-1	target_not_found
labor	push	-1	slum	-1	disorder	-1	resign	-1	target_not_found
labor	dig	-1	outline	-1	emit	-1	recoup	-1	target_not_found
labor	drive	-1	dissent	-1	dye	-1	articulate	-1	target_not_found
labor	tug	-1	burden	-1	set	-1	clip	-1	target_not_found
course	flow	-1	tango	-1	dust	-1	wing	-1	target_not_found
course	run	-1	ferry	-1	rim	-1	focus	-1	target_not_found
evidence	testify	-1	dunk	-1	brew	-1	announce	-1	target_not_found
evidence	prove	-1	christmas	-1	winter	-1	bob	-1	target_not_found
evidence	tell	-1	licence	-1	boot	-1	whisk	-1	target_not_found
evidence	certify	-1	intuit	-1	speculate	-1	enlarge	-1	target_not_found
evidence	demonstrate	-1	jade	-1	carve	-1	brake	-1	target_not_found
evidence	attest	-1	collaborate	-1	proceed	-1	brain	-1	target_not_found
evidence	manifest	-1	syndicate	-1	safeguard	-1	mortgage	-1	target_not_found
pressure	blackmail	-1	barrel	-1	fake	-1	mouse	-1	target_not_found
pressure	hale	-1	blind	-1	bracket	-1	rack	-1	target_not_found
pressure	force	-1	debut	-1	parole	-1	sin	-1	target_not_found
mother	fuss	-1	spring	-1	tack	-1	oyster	-1	target_not_found
mother	generate	-1	consolidate	-1	trek	-1	outbid	-1	target_not_found
joint	articulate	-1	soothe	-1	bald	-1	hoover	-1	target_not_found
district	zone	-1	type	-1	swamp	-1	buffalo	-1	target_not_found
age	mature	-1	pawn	-1	metal	-1	binge	-1	target_not_found
gas	blow	-1	mitigate	-1	babbitt	-1	gang	-1	target_not_found
gas	boast	-1	finalize	-1	maximize	-1	adhere	-1	target_not_found
gas	brag	-1	judge	-1	stab	-1	prescribe	-1	target_not_found
gas	tout	-1	gift	-1	house	-1	cart	-1	target_not_found
ready	cook	-1	deport	-1	begin	-1	veil	-1	target_not_found
ready	set	-1	dispatch	-1	mother	-1	mourn	-1	target_not_found
ready	prepare	-1	simplify	-1	mitigate	-1	delete	-1	target_not_found
ready	fix	-1	whip	-1	bruise	-1	groove	-1	target_not_found
plane	skim	-1	read	-1	junk	-1	impede	-1	target_not_found
plane	shave	-1	prop	-1	rush	-1	thwart	-1	target_not_found
husband	conserve	-1	drive	-1	prostitute	-1	dun	-1	target_not_found
cable	wire	-1	view	-1	bark	-1	wharf	-1	target_not_found
cable	telegraph	-1	default	-1	capsule	-1	steal	-1	target_not_found
package	box	-1	captain	-1	flip	-1	sow	-1	target_not_found
practice	exercise	-1	support	-1	sin	-1	spiral	-1	target_not_found
practice	drill	-1	marry	-1	hinder	-1	sanction	-1	target_not_found
practice	apply	-1	quote	-1	ditch	-1	firm	-1	target_not_found
impact	affect	-1	barber	-1	blunt	-1	rig	-1	target_not_found
impact	touch	-1	breach	-1	hunt	-1	fare	-1	target_not_found
worst	whip	-1	esteem	-1	bash	-1	sunday	-1	target_not_found
guy	ridicule	-1	seek	-1	reprimand	-1	code	-1	target_not_found
guy	rib	-1	pocket	-1	port	-1	groin	-1	target_not_found
web	net	-1	miss	-1	straw	-1	stomach	-1	target_not_found
rival	match	-1	pen	-1	stale	-1	hole	-1	target_not_found
rival	touch	-1	broker	-1	project	-1	spawn	-1	target_not_found
rival	equal	-1	spar	-1	afford	-1	renew	-1	target_not_found
portion	assign	-1	bronze	-1	employ	-1	foster	-1	target_not_found
card	tease	-1	contain	-1	creep	-1	whittle	-1	target_not_found
baby	indulge	-1	crowd	-1	deem	-1	click	-1	target_not_found
baby	spoil	-1	stir	-1	hug	-1	study	-1	target_not_found
favor	prefer	-1	invoke	-1	exercise	-1	shadow	-1	target_not_found
favor	privilege	-1	re-enter	-1	brisk	-1	assess	-1	target_not_found
steel	nerve	-1	conquer	-1	accuse	-1	relate	-1	target_not_found
slug	idle	-1	flush	-1	interact	-1	marinade	-1	target_not_found
bottom	fathom	-1	mouse	-1	shepherd	-1	sample	-1	target_not_found
bottom	penetrate	-1	undo	-1	stream	-1	censor	-1	target_not_found
fox	throw	-1	smear	-1	peach	-1	lower	-1	target_not_found
fox	confuse	-1	orbit	-1	affect	-1	enforce	-1	target_not_found
fox	trick	-1	exploit	-1	trickle	-1	backlog	-1	target_not_found
color	gloss	-1	menace	-1	confiscate	-1	grave	-1	target_not_found
color	distort	-1	test	-1	convoy	-1	soften	-1	target_not_found
motor	drive	-1	castle	-1	trek	-1	spam	-1	target_not_found
shop	rat	-1	box	-1	orphan	-1	gap	-1	target_not_found
shop	grass	-1	spotlight	-1	unfit	-1	wish	-1	target_not_found
shop	frequent	-1	clock	-1	crave	-1	rake	-1	target_not_found
shop	denounce	-1	bow	-1	wish	-1	expect	-1	target_not_found
shop	betray	-1	improve	-1	derive	-1	screw	-1	target_not_found
shop	browse	-1	claim	-1	chuckle	-1	hoax	-1	target_not_found
shop	peach	-1	defraud	-1	crimp	-1	revere	-1	target_not_found
shop	sponsor	-1	proposition	-1	needle	-1	cork	-1	target_not_found
trend	curve	-1	boat	-1	transform	-1	repair	-1	target_not_found
trend	cut	-1	auction	-1	heap	-1	breakfast	-1	target_not_found
trend	sheer	-1	implant	-1	die	-1	lower	-1	target_not_found
negative	veto	-1	intimidate	-1	bounce	-1	wind	-1	target_not_found
parent	nurture	-1	bond	-1	company	-1	swap	-1	target_not_found
parent	raise	-1	section	-1	pyramid	-1	clutch	-1	target_not_found
parent	rear	-1	deck	-1	cushion	-1	deliberate	-1	target_not_found
honor	observe	-1	beach	-1	regiment	-1	champion	-1	target_not_found
honor	respect	-1	distress	-1	ax	-1	motivate	-1	target_not_found
honor	reward	-1	firm	-1	harvest	-1	audit	-1	target_not_found
quiet	calm	-1	gain	-1	numb	-1	darn	-1	target_not_found
quiet	lull	-1	adapt	-1	conserve	-1	blueprint	-1	target_not_found
quiet	hush	-1	hurdle	-1	aim	-1	screw	-1	target_not_found
gap	breach	-1	tunnel	-1	lull	-1	involve	-1	target_not_found
ticket	fine	-1	report	-1	alert	-1	forearm	-1	target_not_found
fat	plump	-1	stumble	-1	band	-1	wander	-1	target_not_found
birth	deliver	-1	dump	-1	counter	-1	savvy	-1	target_not_found
birth	bear	-1	scrutinize	-1	delegate	-1	avenge	-1	target_not_found
motion	gesture	-1	patrol	-1	retire	-1	cut	-1	target_not_found
fee	sign	-1	loosen	-1	inject	-1	deserve	-1	target_not_found
fee	contract	-1	web	-1	quarry	-1	merchandise	-1	target_not_found
purpose	aim	-1	hire	-1	discipline	-1	fat	-1	target_not_found
purpose	resolve	-1	seat	-1	time	-1	waltz	-1	target_not_found
fate	doom	-1	jacket	-1	mediate	-1	bust	-1	target_not_found
fate	designate	-1	sympathize	-1	turf	-1	forearm	-1	target_not_found
busy	occupy	-1	hunger	-1	pin	-1	omen	-1	target_not_found
background	downplay	-1	candle	-1	wheel	-1	sustain	-1	target_not_found
sick	cat	-1	spiral	-1	believe	-1	poke	-1	target_not_found
sick	cast	-1	dun	-1	conceal	-1	crumble	-1	target_not_found
sick	purge	-1	swipe	-1	stalk	-1	target	-1	target_not_found
sick	chuck	-1	tolerate	-1	blueprint	-1	jail	-1	target_not_found
fleet	pass	-1	kid	-1	divulge	-1	align	-1	target_not_found
fleet	fade	-1	re-enter	-1	author	-1	view	-1	target_not_found
fleet	dart	-1	indicate	-1	stalemate	-1	toast	-1	target_not_found
vacation	holiday	-1	prospect	-1	grudge	-1	chevy	-1	target_not_found
boss	stamp	-1	study	-1	fork	-1	wind	-1	target_not_found
jimmy	lever	-1	fathom	-1	chase	-1	pain	-1	target_not_found
jimmy	prize	-1	exhibit	-1	bully	-1	reference	-1	target_not_found
jazz	love	-1	evacuate	-1	merchandise	-1	snow	-1	target_not_found
jazz	screw	-1	form	-1	transfer	-1	converse	-1	target_not_found
jazz	bed	-1	trust	-1	lash	-1	spike	-1	target_not_found
jazz	bang	-1	implant	-1	branch	-1	rear	-1	target_not_found
gift	invest	-1	preach	-1	recruit	-1	rave	-1	target_not_found
gift	empower	-1	bundle	-1	defraud	-1	heat	-1	target_not_found
wire	cable	-1	lessen	-1	franchise	-1	toe	-1	target_not_found
wire	telegraph	-1	hurdle	-1	rabbit	-1	file	-1	target_not_found
breast	front	-1	prompt	-1	loan	-1	exile	-1	target_not_found
palm	handle	-1	chance	-1	praise	-1	send	-1	target_not_found
rebound	rally	-1	locate	-1	taste	-1	re-examine	-1	target_not_found
rebound	spring	-1	dent	-1	bus	-1	gang	-1	target_not_found
cream	skim	-1	frank	-1	sip	-1	renegade	-1	target_not_found
grave	sculpture	-1	plunge	-1	ambush	-1	embark	-1	target_not_found
grade	mark	-1	educate	-1	staff	-1	barbecue	-1	target_not_found
grade	score	-1	cone	-1	park	-1	dust	-1	target_not_found
grade	rank	-1	envision	-1	return	-1	surcharge	-1	target_not_found
shore	prop	-1	entertain	-1	reprimand	-1	thunder	-1	target_not_found
shore	land	-1	experience	-1	interact	-1	lame	-1	target_not_found
shanghai	impress	-1	award	-1	teach	-1	school	-1	target_not_found
quake	tremor	-1	referee	-1	modify	-1	hint	-1	target_not_found
pride	plume	-1	respond	-1	wilt	-1	harry	-1	target_not_found
pride	congratulate	-1	caddie	-1	breaststroke	-1	generate	-1	target_not_found
troop	parade	-1	withstand	-1	jar	-1	josh	-1	target_not_found
troop	promenade	-1	gang	-1	motorcycle	-1	imagine	-1	target_not_found
loose	liberate	-1	love	-1	thread	-1	glory	-1	target_not_found
loose	relax	-1	smash	-1	boo	-1	foam	-1	target_not_found
loose	release	-1	suppress	-1	husband	-1	remake	-1	target_not_found
loose	free	-1	bunk	-1	focus	-1	plant	-1	target_not_found
loose	unleash	-1	melt	-1	cut	-1	hitch	-1	target_not_found
rough	outline	-1	dateline	-1	jockey	-1	proceed	-1	target_not_found
rough	draft	-1	drink	-1	batter	-1	sponge	-1	target_not_found
harbor	entertain	-1	rack	-1	descend	-1	chance	-1	target_not_found
harbor	hold	-1	veil	-1	warm	-1	exchange	-1	target_not_found
harbor	nurse	-1	hasten	-1	process	-1	pose	-1	target_not_found
harbor	shield	-1	relate	-1	quake	-1	envision	-1	target_not_found
testify	prove	-1	equal	-1	triumph	-1	stun	-1	target_not_found
testify	evidence	-1	pet	-1	level	-1	practice	-1	target_not_found
bull	fake	-1	care	-1	sex	-1	hinge	-1	target_not_found
toy	fiddle	-1	practice	-1	rage	-1	kid	-1	target_not_found
toy	play	-1	wonder	-1	compose	-1	sprawl	-1	target_not_found
entrance	capture	-1	blossom	-1	write	-1	schedule	-1	target_not_found
entrance	charm	-1	frame	-1	time	-1	touch	-1	target_not_found
entrance	catch	-1	hoop	-1	dice	-1	pop	-1	target_not_found
triumph	crow	-1	shrug	-1	fox	-1	donate	-1	target_not_found
triumph	prevail	-1	punish	-1	inflate	-1	race	-1	target_not_found
bronze	tan	-1	protect	-1	bargain	-1	woo	-1	target_not_found
grass	rat	-1	quash	-1	foul	-1	appease	-1	target_not_found
grass	denounce	-1	scrutinize	-1	rake	-1	exacerbate	-1	target_not_found
grass	betray	-1	brisk	-1	pardon	-1	darn	-1	target_not_found
grass	peach	-1	web	-1	engage	-1	manifest	-1	target_not_found
grass	shop	-1	pocket	-1	abstain	-1	placate	-1	target_not_found
plain	kick	-1	excite	-1	seal	-1	abandon	-1	target_not_found
bone	drum	-1	linger	-1	shampoo	-1	penalize	-1	target_not_found
merchandise	trade	-1	demand	-1	peek	-1	shoulder	-1	target_not_found
bunch	cluster	-1	reward	-1	prohibit	-1	con	-1	target_not_found
cat	sick	-1	ping	-1	fare	-1	perceive	-1	target_not_found
cat	purge	-1	bunk	-1	maneuver	-1	evaporate	-1	target_not_found
cat	chuck	-1	mantle	-1	putt	-1	partition	-1	target_not_found
fault	blame	-1	backlog	-1	burr	-1	depend	-1	target_not_found
quest	bay	-1	outrage	-1	resent	-1	counter	-1	target_not_found
hunger	crave	-1	contribute	-1	short	-1	grind	-1	target_not_found
hunger	starve	-1	forgo	-1	throttle	-1	halve	-1	target_not_found
hunger	lust	-1	burke	-1	void	-1	rate	-1	target_not_found
hunger	thirst	-1	reshuffle	-1	initiate	-1	temper	-1	target_not_found
nerve	steel	-1	add	-1	surge	-1	shop	-1	target_not_found
gamble	hazard	-1	elicit	-1	cement	-1	confirm	-1	target_not_found
gamble	adventure	-1	roam	-1	cube	-1	conceive	-1	target_not_found
gamble	risk	-1	avert	-1	transmit	-1	overshadow	-1	target_not_found
gamble	chance	-1	churn	-1	withhold	-1	reshape	-1	target_not_found
revenge	retaliate	-1	ret	-1	mingle	-1	bet	-1	target_not_found
pink	knock	-1	bitch	-1	sidestep	-1	par	-1	target_not_found
pink	rap	-1	convince	-1	bed	-1	note	-1	target_not_found
pink	tap	-1	partition	-1	swell	-1	breed	-1	target_not_found
fence	debate	-1	leave	-1	cache	-1	dunk	-1	target_not_found
fence	surround	-1	pan	-1	poll	-1	offend	-1	target_not_found
fence	wall	-1	devote	-1	renounce	-1	rewrite	-1	target_not_found
fence	argue	-1	ramp	-1	outline	-1	stuff	-1	target_not_found
fence	contend	-1	eye	-1	venture	-1	connect	-1	target_not_found
steep	absorb	-1	strain	-1	encore	-1	strike	-1	target_not_found
steep	plunge	-1	mend	-1	till	-1	prevail	-1	target_not_found
referee	umpire	-1	drag	-1	quarry	-1	distance	-1	target_not_found
adventure	gamble	-1	tremor	-1	forward	-1	alien	-1	target_not_found
adventure	hazard	-1	simmer	-1	hook	-1	race	-1	target_not_found
adventure	stake	-1	import	-1	shape	-1	rebuke	-1	target_not_found
adventure	risk	-1	climax	-1	dice	-1	gather	-1	target_not_found
adventure	jeopardize	-1	interfere	-1	perfume	-1	buffet	-1	target_not_found
adventure	chance	-1	retail	-1	defend	-1	defect	-1	target_not_found
apparel	garment	-1	tender	-1	bode	-1	birdie	-1	target_not_found
apparel	dress	-1	oblige	-1	banquet	-1	spark	-1	target_not_found
apparel	garb	-1	bode	-1	hamper	-1	gun	-1	target_not_found
romance	solicit	-1	sled	-1	tongue	-1	casket	-1	target_not_found
romance	woo	-1	aid	-1	result	-1	overflow	-1	target_not_found
romance	court	-1	track	-1	falcon	-1	jewel	-1	target_not_found
romance	butterfly	-1	soothe	-1	divulge	-1	rival	-1	target_not_found
slaughter	butcher	-1	convince	-1	compose	-1	shove	-1	target_not_found
slaughter	massacre	-1	grease	-1	circulate	-1	heal	-1	target_not_found
rifle	strip	-1	construct	-1	bolster	-1	pirate	-1	target_not_found
rifle	foray	-1	perform	-1	merit	-1	bay	-1	target_not_found
rifle	loot	-1	flush	-1	enhance	-1	cage	-1	target_not_found
array	align	-1	admire	-1	blow	-1	exit	-1	target_not_found
array	range	-1	refocus	-1	flower	-1	duel	-1	target_not_found
pole	punt	-1	infiltrate	-1	trim	-1	manipulate	-1	target_not_found
junk	trash	-1	center	-1	scan	-1	roar	-1	target_not_found
junk	scrap	-1	dine	-1	title	-1	retrospect	-1	target_not_found
tucker	beat	-1	strike	-1	ante	-1	restructure	-1	target_not_found
tucker	exhaust	-1	blockade	-1	delegate	-1	wait	-1	target_not_found
chuck	pat	-1	castle	-1	question	-1	crack	-1	target_not_found
chuck	cat	-1	steel	-1	grab	-1	transmit	-1	target_not_found
chuck	toss	-1	manifest	-1	recognise	-1	spruce	-1	target_not_found
chuck	ditch	-1	tender	-1	outlaw	-1	outfit	-1	target_not_found
chuck	sick	-1	tariff	-1	sweep	-1	precondition	-1	target_not_found
chuck	cast	-1	colour	-1	strive	-1	flop	-1	target_not_found
chuck	purge	-1	sham	-1	undo	-1	devil	-1	target_not_found
stomach	endure	-1	advocate	-1	flavor	-1	critique	-1	target_not_found
stomach	suffer	-1	combat	-1	jeopardize	-1	whiz	-1	target_not_found
stomach	brook	-1	castle	-1	glance	-1	spike	-1	target_not_found
stomach	bear	-1	voice	-1	carol	-1	clout	-1	target_not_found
stomach	stand	-1	notice	-1	utilize	-1	darn	-1	target_not_found
stomach	abide	-1	receipt	-1	bring	-1	wander	-1	target_not_found
stomach	support	-1	dictate	-1	cake	-1	pale	-1	target_not_found
stomach	tolerate	-1	bulge	-1	converge	-1	sway	-1	target_not_found
compact	squeeze	-1	invent	-1	needle	-1	outfit	-1	target_not_found
compact	press	-1	circuit	-1	deflect	-1	exile	-1	target_not_found
compact	bundle	-1	trade	-1	mistrust	-1	confirm	-1	target_not_found
mouse	creep	-1	exhale	-1	flour	-1	mutiny	-1	target_not_found
mouse	steal	-1	pursue	-1	joint	-1	zoom	-1	target_not_found
mouse	sneak	-1	cabin	-1	putter	-1	cap	-1	target_not_found
twin	parallel	-1	buffet	-1	camp	-1	japan	-1	target_not_found
twin	match	-1	malfunction	-1	glimmer	-1	house	-1	target_not_found
twin	mate	-1	scrape	-1	envy	-1	fuse	-1	target_not_found
twin	couple	-1	activate	-1	wake	-1	recreate	-1	target_not_found
twin	pair	-1	tolerate	-1	withdraw	-1	purple	-1	target_not_found
twin	duplicate	-1	care	-1	transfer	-1	cash	-1	target_not_found
knife	stab	-1	dust	-1	school	-1	crimp	-1	target_not_found
tide	surge	-1	disregard	-1	deduct	-1	result	-1	target_not_found
hike	boost	-1	ace	-1	subscribe	-1	postpone	-1	target_not_found
cake	coat	-1	mold	-1	club	-1	proceed	-1	target_not_found
photograph	shoot	-1	visa	-1	repel	-1	putter	-1	target_not_found
photograph	snap	-1	curtain	-1	liberate	-1	install	-1	target_not_found
slim	reduce	-1	thrill	-1	smash	-1	mortgage	-1	target_not_found
slim	thin	-1	honour	-1	haul	-1	shin	-1	target_not_found
keen	lament	-1	scheme	-1	entertain	-1	bet	-1	target_not_found
trash	pan	-1	parole	-1	search	-1	twin	-1	target_not_found
trash	junk	-1	marshal	-1	authorize	-1	tease	-1	target_not_found
trash	scrap	-1	beg	-1	streak	-1	shuffle	-1	target_not_found
bankrupt	break	-1	motivate	-1	coordinate	-1	generate	-1	target_not_found
bankrupt	ruin	-1	date	-1	sneak	-1	pinch	-1	target_not_found
fake	fudge	-1	dose	-1	disgust	-1	choir	-1	target_not_found
fake	cook	-1	groom	-1	pressure	-1	rip	-1	target_not_found
fake	bull	-1	abort	-1	retreat	-1	refer	-1	target_not_found
fake	forge	-1	retain	-1	request	-1	camp	-1	target_not_found
fake	manipulate	-1	lick	-1	ticket	-1	browse	-1	target_not_found
fake	counterfeit	-1	flock	-1	ascend	-1	manure	-1	target_not_found
sheer	trend	-1	whisper	-1	crank	-1	comprehend	-1	target_not_found
sheer	curve	-1	negotiate	-1	desire	-1	reinforce	-1	target_not_found
sheer	cut	-1	shrine	-1	spite	-1	frequent	-1	target_not_found
tissue	weave	-1	intervene	-1	digest	-1	sack	-1	target_not_found
disorder	trouble	-1	observe	-1	defend	-1	treasure	-1	target_not_found
disorder	distract	-1	levy	-1	school	-1	cluster	-1	target_not_found
flavor	season	-1	razor	-1	mint	-1	glare	-1	target_not_found
inter	bury	-1	reiterate	-1	season	-1	stale	-1	target_not_found
deck	floor	-1	flop	-1	relinquish	-1	lump	-1	target_not_found
deck	grace	-1	sober	-1	challenge	-1	horn	-1	target_not_found
deck	dump	-1	blank	-1	infect	-1	assure	-1	target_not_found
deck	decorate	-1	brand	-1	discover	-1	act	-1	target_not_found
mob	throng	-1	sponge	-1	gap	-1	flight	-1	target_not_found
mob	pile	-1	wine	-1	torture	-1	edit	-1	target_not_found
mob	pack	-1	drown	-1	straighten	-1	bridge	-1	target_not_found
mob	jam	-1	wield	-1	ferry	-1	whip	-1	target_not_found
hint	suggest	-1	cart	-1	torture	-1	adhere	-1	target_not_found
bushel	repair	-1	fling	-1	shuttle	-1	whip	-1	target_not_found
bushel	doctor	-1	sponge	-1	co-star	-1	whittle	-1	target_not_found
bushel	restore	-1	indict	-1	backfire	-1	bypass	-1	target_not_found
bushel	fix	-1	grill	-1	shorten	-1	wield	-1	target_not_found
bushel	mend	-1	crisp	-1	leave	-1	roost	-1	target_not_found
devil	bother	-1	repeat	-1	lift	-1	sentence	-1	target_not_found
devil	gravel	-1	converge	-1	reside	-1	relieve	-1	target_not_found
candy	glaze	-1	rake	-1	convince	-1	lam	-1	target_not_found
conglomerate	accumulate	-1	wade	-1	chin	-1	turtle	-1	target_not_found
conglomerate	gather	-1	stew	-1	breath	-1	champ	-1	target_not_found
absent	remove	-1	mold	-1	duck	-1	grieve	-1	target_not_found
revolt	disgust	-1	glide	-1	resonate	-1	clean	-1	target_not_found
trump	scoop	-1	cone	-1	weld	-1	spend	-1	target_not_found
ace	nail	-1	vent	-1	fast	-1	redeploy	-1	target_not_found
cop	arrest	-1	dive	-1	bash	-1	chase	-1	target_not_found
cop	collar	-1	implement	-1	align	-1	wreak	-1	target_not_found
cop	nail	-1	love	-1	clerk	-1	paint	-1	target_not_found
cop	hook	-1	lavish	-1	dizzy	-1	slice	-1	target_not_found
balloon	inflate	-1	fade	-1	beaver	-1	attribute	-1	target_not_found
tent	camp	-1	entrance	-1	stunt	-1	experiment	-1	target_not_found
frost	ice	-1	butter	-1	slate	-1	alarm	-1	target_not_found
plight	pledge	-1	lighten	-1	achieve	-1	forfeit	-1	target_not_found
plight	engage	-1	materialize	-1	sick	-1	snatch	-1	target_not_found
fraction	divide	-1	capture	-1	bolt	-1	reschedule	-1	target_not_found
fog	mist	-1	racketeer	-1	credit	-1	frank	-1	target_not_found
fog	obscure	-1	void	-1	check	-1	poll	-1	target_not_found
fog	cloud	-1	poison	-1	swat	-1	squabble	-1	target_not_found
pine	yen	-1	glide	-1	sun	-1	race	-1	target_not_found
blockade	bar	-1	mislead	-1	lunch	-1	regiment	-1	target_not_found
blockade	obstruct	-1	oil	-1	wrinkle	-1	hunt	-1	target_not_found
blockade	hinder	-1	ambition	-1	toss	-1	experiment	-1	target_not_found
blockade	embarrass	-1	skim	-1	stabilize	-1	perpetuate	-1	target_not_found
leaf	flip	-1	smooth	-1	counterattack	-1	clamor	-1	target_not_found
leaf	flick	-1	steep	-1	automobile	-1	glass	-1	target_not_found
leaf	thumb	-1	capture	-1	recognise	-1	retreat	-1	target_not_found
hale	pressure	-1	score	-1	author	-1	cashier	-1	target_not_found
hale	drag	-1	crumb	-1	inhibit	-1	tease	-1	target_not_found
hale	cart	-1	spit	-1	answer	-1	script	-1	target_not_found
hale	force	-1	represent	-1	low	-1	die	-1	target_not_found
gentle	appease	-1	revert	-1	locate	-1	practice	-1	target_not_found
gentle	assuage	-1	rumor	-1	control	-1	lease	-1	target_not_found
gentle	placate	-1	tally	-1	borrow	-1	amount	-1	target_not_found
patch	piece	-1	calculate	-1	labour	-1	diversify	-1	target_not_found
chunk	lump	-1	team	-1	enlarge	-1	idle	-1	target_not_found
berth	wharf	-1	toe	-1	peck	-1	trump	-1	target_not_found
lumber	pound	-1	flush	-1	moot	-1	flank	-1	target_not_found
lumber	log	-1	levy	-1	whip	-1	bog	-1	target_not_found
shin	struggle	-1	owe	-1	swear	-1	book	-1	target_not_found
shin	scramble	-1	resign	-1	spring	-1	haul	-1	target_not_found
cart	drag	-1	tide	-1	deaf	-1	rear	-1	target_not_found
cart	haul	-1	revive	-1	track	-1	catalog	-1	target_not_found
cart	hale	-1	set	-1	cushion	-1	glance	-1	target_not_found
deliberate	consider	-1	interview	-1	sublime	-1	stoke	-1	target_not_found
deliberate	moot	-1	telex	-1	thumb	-1	avalanche	-1	target_not_found
flurry	confuse	-1	win	-1	treat	-1	align	-1	target_not_found
bicycle	pedal	-1	boss	-1	raid	-1	mate	-1	target_not_found
bicycle	wheel	-1	spot	-1	consist	-1	port	-1	target_not_found
vacuum	hoover	-1	document	-1	rack	-1	pit	-1	target_not_found
ghost	haunt	-1	husband	-1	array	-1	sock	-1	target_not_found
dose	drug	-1	finalize	-1	flop	-1	inflict	-1	target_not_found
sin	blunder	-1	vie	-1	receive	-1	provoke	-1	target_not_found
apologize	justify	-1	bush	-1	shame	-1	foul	-1	target_not_found
apologize	excuse	-1	bracket	-1	prevail	-1	cater	-1	target_not_found
refrain	abstain	-1	stash	-1	merit	-1	stick	-1	target_not_found
bike	pedal	-1	josh	-1	stalk	-1	tender	-1	target_not_found
bike	cycle	-1	expand	-1	hope	-1	saint	-1	target_not_found
bike	wheel	-1	quilt	-1	lobby	-1	roof	-1	target_not_found
sculpture	grave	-1	charter	-1	surf	-1	establish	-1	target_not_found
renegade	rebel	-1	allocate	-1	delete	-1	blanket	-1	target_not_found
spite	bruise	-1	starve	-1	season	-1	programme	-1	target_not_found
spite	offend	-1	tango	-1	contribute	-1	pet	-1	target_not_found
spite	injure	-1	discard	-1	pledge	-1	realise	-1	target_not_found
spite	hurt	-1	wade	-1	reopen	-1	motley	-1	target_not_found
shower	lavish	-1	desire	-1	cap	-1	facilitate	-1	target_not_found
backlash	backfire	-1	preclude	-1	rinse	-1	perch	-1	target_not_found
telegraph	cable	-1	settle	-1	licence	-1	subject	-1	target_not_found
telegraph	wire	-1	carpenter	-1	skim	-1	knife	-1	target_not_found
ransom	redeem	-1	sip	-1	plane	-1	oblige	-1	target_not_found
pig	farrow	-1	flag	-1	blanket	-1	spite	-1	target_not_found
accent	stress	-1	raft	-1	marvel	-1	appreciate	-1	target_not_found
accent	emphasize	-1	slit	-1	charm	-1	catalog	-1	target_not_found
cave	undermine	-1	con	-1	snub	-1	pad	-1	target_not_found
savvy	dig	-1	pay	-1	revere	-1	smuggle	-1	target_not_found
savvy	grasp	-1	sip	-1	vault	-1	hatch	-1	target_not_found
savvy	compass	-1	spree	-1	defuse	-1	lessen	-1	target_not_found
savvy	comprehend	-1	mourn	-1	bias	-1	sick	-1	target_not_found
rein	harness	-1	boil	-1	sample	-1	launch	-1	target_not_found
rein	rule	-1	convict	-1	stall	-1	wink	-1	target_not_found
jockey	screw	-1	preserve	-1	appeal	-1	outlaw	-1	target_not_found
jockey	shaft	-1	christmas	-1	conserve	-1	adopt	-1	target_not_found
jockey	cheat	-1	quarry	-1	negotiate	-1	inject	-1	target_not_found
rout	groove	-1	notch	-1	observe	-1	rib	-1	target_not_found
rout	expel	-1	declare	-1	bronze	-1	posture	-1	target_not_found
weary	tire	-1	encore	-1	conflict	-1	garner	-1	target_not_found
weary	pall	-1	bite	-1	venture	-1	collapse	-1	target_not_found
weary	fatigue	-1	collaborate	-1	wharf	-1	span	-1	target_not_found
weary	jade	-1	disdain	-1	send	-1	deceive	-1	target_not_found
fatigue	weary	-1	garrison	-1	preside	-1	compound	-1	target_not_found
fatigue	pall	-1	dice	-1	farrow	-1	flock	-1	target_not_found
fatigue	jade	-1	bog	-1	hit	-1	hassle	-1	target_not_found
fatigue	wear	-1	blitz	-1	whack	-1	centre	-1	target_not_found
espy	spot	-1	fumble	-1	soar	-1	mingle	-1	target_not_found
blueprint	draft	-1	certify	-1	intervene	-1	tie	-1	target_not_found
abide	endure	-1	forfeit	-1	tone	-1	unload	-1	target_not_found
abide	stay	-1	fill	-1	disclose	-1	splash	-1	target_not_found
abide	suffer	-1	fee	-1	ebb	-1	elevate	-1	target_not_found
abide	brook	-1	prohibit	-1	stunt	-1	verge	-1	target_not_found
abide	bear	-1	exploit	-1	bargain	-1	graft	-1	target_not_found
abide	stand	-1	sliver	-1	skate	-1	petition	-1	target_not_found
abide	support	-1	troop	-1	serve	-1	query	-1	target_not_found
abide	tolerate	-1	cut	-1	legislate	-1	herd	-1	target_not_found
abide	stomach	-1	cede	-1	anticipate	-1	rue	-1	target_not_found
pad	bolster	-1	buck	-1	chairman	-1	lamb	-1	target_not_found
maneuver	steer	-1	vote	-1	caddie	-1	fog	-1	target_not_found
maneuver	head	-1	service	-1	vary	-1	originate	-1	target_not_found
maneuver	guide	-1	defy	-1	whine	-1	tell	-1	target_not_found
maneuver	direct	-1	barter	-1	oyster	-1	bridge	-1	target_not_found
maneuver	operate	-1	salute	-1	price	-1	retain	-1	target_not_found
dull	dampen	-1	wander	-1	handle	-1	wholesale	-1	target_not_found
dull	numb	-1	frame	-1	thin	-1	produce	-1	target_not_found
dull	mute	-1	slush	-1	plummet	-1	gel	-1	target_not_found
dull	blunt	-1	issue	-1	flock	-1	crouch	-1	target_not_found
dull	damp	-1	e-mail	-1	reprieve	-1	flip	-1	target_not_found
dull	pall	-1	counter	-1	crouch	-1	concede	-1	target_not_found
voyage	navigate	-1	initiate	-1	brain	-1	motion	-1	target_not_found
voyage	sail	-1	realize	-1	water	-1	cream	-1	target_not_found
bug	tease	-1	slack	-1	revitalize	-1	shallow	-1	target_not_found
bug	harass	-1	deck	-1	condone	-1	convert	-1	target_not_found
bug	tap	-1	settle	-1	overrun	-1	assign	-1	target_not_found
bug	intercept	-1	nominate	-1	radio	-1	inhabit	-1	target_not_found
marvel	wonder	-1	summer	-1	ratify	-1	visit	-1	target_not_found
crusade	fight	-1	dive	-1	scale	-1	premise	-1	target_not_found
crusade	campaign	-1	infringe	-1	limp	-1	loaf	-1	target_not_found
crusade	press	-1	bless	-1	discourse	-1	wade	-1	target_not_found
crusade	push	-1	canal	-1	declare	-1	confirm	-1	target_not_found
premise	introduce	-1	replete	-1	avail	-1	bluff	-1	target_not_found
crisp	wrinkle	-1	subscribe	-1	siphon	-1	volley	-1	target_not_found
crisp	toast	-1	surface	-1	profile	-1	relay	-1	target_not_found
tally	sum	-1	railroad	-1	bunk	-1	boycott	-1	target_not_found
tally	fit	-1	wrest	-1	vein	-1	appeal	-1	target_not_found
tally	match	-1	deepen	-1	circulate	-1	kit	-1	target_not_found
tally	agree	-1	run	-1	heap	-1	delay	-1	target_not_found
tally	correspond	-1	storm	-1	program	-1	cube	-1	target_not_found
tally	add	-1	trick	-1	shuttle	-1	fake	-1	target_not_found
tally	hit	-1	sue	-1	pitch	-1	overhaul	-1	target_not_found
tally	check	-1	massage	-1	bunker	-1	surround	-1	target_not_found
tally	score	-1	encompass	-1	shuffle	-1	scrub	-1	target_not_found
alternate	flip	-1	sick	-1	spirit	-1	harm	-1	target_not_found
alternate	switch	-1	gorge	-1	develop	-1	sink	-1	target_not_found
alternate	jump	-1	birth	-1	fragment	-1	liquidate	-1	target_not_found
alternate	interchange	-1	gear	-1	broker	-1	hat	-1	target_not_found
alternate	tack	-1	absorb	-1	budge	-1	squash	-1	target_not_found
curry	dress	-1	intervene	-1	tax	-1	bench	-1	target_not_found
curry	groom	-1	hoover	-1	incite	-1	exclude	-1	target_not_found
butcher	slaughter	-1	concord	-1	launch	-1	dial	-1	target_not_found
outfit	equip	-1	discredit	-1	trail	-1	canal	-1	target_not_found
umpire	referee	-1	wrest	-1	spurt	-1	punish	-1	target_not_found
garment	dress	-1	clutch	-1	fight	-1	shoe	-1	target_not_found
garment	apparel	-1	coast	-1	succumb	-1	register	-1	target_not_found
approximate	judge	-1	headline	-1	conceive	-1	plead	-1	target_not_found
approximate	guess	-1	tally	-1	humor	-1	chuck	-1	target_not_found
approximate	gauge	-1	loot	-1	blunder	-1	chrome	-1	target_not_found
essay	test	-1	reassess	-1	hoot	-1	commune	-1	target_not_found
essay	attempt	-1	humor	-1	admit	-1	foil	-1	target_not_found
essay	prove	-1	limit	-1	preclude	-1	race	-1	target_not_found
essay	examine	-1	recap	-1	free	-1	exhibit	-1	target_not_found
essay	seek	-1	suspect	-1	aggravate	-1	clutch	-1	target_not_found
herd	crowd	-1	harvest	-1	manifest	-1	voodoo	-1	target_not_found
derail	jump	-1	illustrate	-1	quarrel	-1	batter	-1	target_not_found
void	quash	-1	whiz	-1	implicate	-1	vacuum	-1	target_not_found
void	evacuate	-1	freeze	-1	redeem	-1	supervise	-1	target_not_found
void	empty	-1	change	-1	muddy	-1	mention	-1	target_not_found
abstract	cabbage	-1	pilot	-1	consummate	-1	dateline	-1	target_not_found
abstract	lift	-1	squeeze	-1	fuss	-1	spotlight	-1	target_not_found
abstract	sneak	-1	peck	-1	kiss	-1	dive	-1	target_not_found
abstract	swipe	-1	repeal	-1	square	-1	appear	-1	target_not_found
abstract	pinch	-1	freak	-1	wine	-1	bulletin	-1	target_not_found
abstract	hook	-1	slate	-1	persist	-1	render	-1	target_not_found
couch	frame	-1	contest	-1	cork	-1	prescribe	-1	target_not_found
couch	cast	-1	access	-1	cox	-1	pat	-1	target_not_found
surf	browse	-1	company	-1	shuttle	-1	doubt	-1	target_not_found
retaliate	avenge	-1	remove	-1	truck	-1	coax	-1	target_not_found
retaliate	revenge	-1	edge	-1	square	-1	equip	-1	target_not_found
feast	banquet	-1	flaw	-1	essay	-1	neighbor	-1	target_not_found
feast	feed	-1	crisp	-1	hush	-1	tremor	-1	target_not_found
ladder	run	-1	fraction	-1	couple	-1	retire	-1	target_not_found
prey	feed	-1	abide	-1	spell	-1	attire	-1	target_not_found
tame	moderate	-1	enrich	-1	amend	-1	class	-1	target_not_found
tame	subdue	-1	tool	-1	frank	-1	worry	-1	target_not_found
tame	reclaim	-1	premier	-1	hoop	-1	inquire	-1	target_not_found
tame	cultivate	-1	speculate	-1	clarify	-1	terminate	-1	target_not_found
concord	agree	-1	railroad	-1	copy	-1	premise	-1	target_not_found
concord	hold	-1	suck	-1	topple	-1	whiz	-1	target_not_found
leach	strip	-1	nest	-1	contour	-1	write	-1	target_not_found
rat	grass	-1	buzz	-1	snake	-1	monitor	-1	target_not_found
rat	denounce	-1	regroup	-1	merit	-1	aid	-1	target_not_found
rat	betray	-1	dam	-1	lobby	-1	riot	-1	target_not_found
rat	peach	-1	dong	-1	intuit	-1	minimize	-1	target_not_found
rat	shop	-1	change	-1	collaborate	-1	entertain	-1	target_not_found
butt	march	-1	stir	-1	bulk	-1	affect	-1	target_not_found
butt	edge	-1	facilitate	-1	black	-1	conjure	-1	target_not_found
butt	border	-1	remark	-1	kidnap	-1	accompany	-1	target_not_found
spice	zest	-1	excite	-1	catalogue	-1	dissent	-1	target_not_found
dismay	alarm	-1	debate	-1	reason	-1	refinance	-1	target_not_found
dismay	depress	-1	peril	-1	multiply	-1	alter	-1	target_not_found
sub	substitute	-1	assign	-1	ferry	-1	potter	-1	target_not_found
hoover	vacuum	-1	crab	-1	dynamite	-1	jump	-1	target_not_found
punt	pole	-1	freight	-1	buzz	-1	supplement	-1	target_not_found
punt	game	-1	attempt	-1	channel	-1	prelude	-1	target_not_found
punt	stake	-1	dwarf	-1	shut	-1	gift	-1	target_not_found
glamour	witch	-1	affirm	-1	phase	-1	flag	-1	target_not_found
underscore	emphasize	-1	tower	-1	bed	-1	counter	-1	target_not_found
canvas	poll	-1	emerge	-1	wee	-1	plan	-1	target_not_found
potter	tinker	-1	index	-1	drown	-1	result	-1	target_not_found
potter	monkey	-1	ham	-1	cruise	-1	wharf	-1	target_not_found
hawk	peddle	-1	loot	-1	gore	-1	bluff	-1	target_not_found
hawk	pitch	-1	treat	-1	paragraph	-1	blackmail	-1	target_not_found
funk	shrink	-1	busy	-1	mushroom	-1	debate	-1	target_not_found
mold	form	-1	wade	-1	disperse	-1	recapture	-1	target_not_found
mold	regulate	-1	corn	-1	postpone	-1	dress	-1	target_not_found
mold	influence	-1	hitch	-1	race	-1	overlap	-1	target_not_found
mold	shape	-1	promenade	-1	huddle	-1	reeve	-1	target_not_found
mold	cast	-1	offer	-1	limit	-1	aim	-1	target_not_found
mold	forge	-1	pair	-1	scent	-1	ship	-1	target_not_found
mold	determine	-1	rout	-1	mass	-1	assassinate	-1	target_not_found
canton	quarter	-1	disappoint	-1	veneer	-1	harness	-1	target_not_found
butterfly	romance	-1	starve	-1	dislodge	-1	crew	-1	target_not_found
fend	resist	-1	recommend	-1	nap	-1	detail	-1	target_not_found
fend	stand	-1	alien	-1	comment	-1	pattern	-1	target_not_found
arc	curve	-1	breath	-1	companion	-1	correspond	-1	target_not_found
cod	tease	-1	site	-1	erode	-1	sing	-1	target_not_found
cod	rally	-1	endorse	-1	noose	-1	champ	-1	target_not_found
cod	bait	-1	wade	-1	premier	-1	garland	-1	target_not_found
cod	ride	-1	educate	-1	fish	-1	instance	-1	target_not_found
cod	slang	-1	advance	-1	shuffle	-1	message	-1	target_not_found
cod	fool	-1	tan	-1	carve	-1	forgo	-1	target_not_found
wedge	stick	-1	unify	-1	task	-1	evert	-1	target_not_found
wedge	squeeze	-1	nominate	-1	chuck	-1	process	-1	target_not_found
wedge	deposit	-1	undermine	-1	credit	-1	erode	-1	target_not_found
wedge	force	-1	lie	-1	stamp	-1	exact	-1	target_not_found
collar	cop	-1	mother	-1	nickel	-1	butt	-1	target_not_found
collar	arrest	-1	binge	-1	rotate	-1	grapple	-1	target_not_found
collar	nail	-1	override	-1	stride	-1	reel	-1	target_not_found
mint	strike	-1	celebrate	-1	rejoin	-1	endorse	-1	target_not_found
mint	coin	-1	storm	-1	furnish	-1	capitalize	-1	target_not_found
fork	branch	-1	table	-1	abort	-1	rap	-1	target_not_found
fork	separate	-1	test	-1	delegate	-1	slope	-1	target_not_found
monkey	tinker	-1	prevent	-1	originate	-1	programme	-1	target_not_found
monkey	potter	-1	publicize	-1	battle	-1	damage	-1	target_not_found
monkey	putter	-1	slump	-1	send	-1	pronounce	-1	target_not_found
hollow	dig	-1	encompass	-1	pronounce	-1	feed	-1	target_not_found
lull	calm	-1	transit	-1	lapse	-1	bulk	-1	target_not_found
lull	quiet	-1	clamor	-1	ladder	-1	school	-1	target_not_found
sorrow	grieve	-1	hustle	-1	mess	-1	heap	-1	target_not_found
scam	con	-1	build	-1	cashier	-1	bull	-1	target_not_found
scam	defraud	-1	warn	-1	examine	-1	patrol	-1	target_not_found
lump	chunk	-1	assuage	-1	target	-1	marshal	-1	target_not_found
staunch	halt	-1	intercept	-1	ret	-1	muddy	-1	target_not_found
staunch	stem	-1	casket	-1	quilt	-1	travel	-1	target_not_found
slack	abate	-1	beg	-1	ride	-1	terminate	-1	target_not_found
slack	relax	-1	bud	-1	rue	-1	resist	-1	target_not_found
slack	slow	-1	sting	-1	spear	-1	persist	-1	target_not_found
tar	asphalt	-1	confiscate	-1	commit	-1	enlist	-1	target_not_found
witch	glamour	-1	loan	-1	believe	-1	belt	-1	target_not_found
banquet	feast	-1	select	-1	turf	-1	proportion	-1	target_not_found
menace	threaten	-1	cloud	-1	explode	-1	ticket	-1	target_not_found
menace	peril	-1	pump	-1	eye	-1	coach	-1	target_not_found
menace	jeopardize	-1	rave	-1	function	-1	sprinkle	-1	target_not_found
allure	tempt	-1	download	-1	corrupt	-1	loose	-1	target_not_found
glut	flood	-1	quantify	-1	sneak	-1	mislead	-1	target_not_found
glut	oversupply	-1	boycott	-1	straighten	-1	shake	-1	target_not_found
glut	gorge	-1	squeeze	-1	divine	-1	associate	-1	target_not_found
glut	stuff	-1	supply	-1	shirt	-1	veil	-1	target_not_found
glut	binge	-1	approximate	-1	flow	-1	ratify	-1	target_not_found
acclaim	applaud	-1	dent	-1	merge	-1	foray	-1	target_not_found
acclaim	herald	-1	visit	-1	quarterback	-1	drown	-1	target_not_found
acclaim	hail	-1	starve	-1	nose	-1	neutralize	-1	target_not_found
okay	approve	-1	skirt	-1	chin	-1	overtake	-1	target_not_found
okay	sanction	-1	cooper	-1	dash	-1	bloom	-1	target_not_found
chevy	provoke	-1	headline	-1	win	-1	turtle	-1	target_not_found
chevy	plague	-1	spoof	-1	raise	-1	propel	-1	target_not_found
chevy	hassle	-1	cooperate	-1	cost	-1	exploit	-1	target_not_found
chevy	harass	-1	reinstate	-1	parole	-1	din	-1	target_not_found
chevy	beset	-1	house	-1	happen	-1	terrace	-1	target_not_found
chevy	harry	-1	consume	-1	diet	-1	sabotage	-1	target_not_found
disgrace	shame	-1	heap	-1	bid	-1	foot	-1	target_not_found
extradite	deliver	-1	mask	-1	position	-1	trickle	-1	target_not_found
extradite	deport	-1	handicap	-1	collide	-1	type	-1	target_not_found
extradite	surrender	-1	eliminate	-1	pinnacle	-1	curry	-1	target_not_found
fuss	fret	-1	veneer	-1	step	-1	low	-1	target_not_found
fuss	mother	-1	gray	-1	laugh	-1	strain	-1	target_not_found
anguish	pain	-1	record	-1	shuffle	-1	encourage	-1	target_not_found
anguish	hurt	-1	nap	-1	orphan	-1	brave	-1	target_not_found
foray	strip	-1	dig	-1	circulate	-1	sample	-1	target_not_found
foray	rifle	-1	field	-1	rescind	-1	lull	-1	target_not_found
foray	loot	-1	milk	-1	sleek	-1	heighten	-1	target_not_found
posture	sit	-1	skipper	-1	bump	-1	march	-1	target_not_found
posture	model	-1	thumb	-1	ghost	-1	cage	-1	target_not_found
cue	prompt	-1	treasure	-1	cradle	-1	bach	-1	target_not_found
cue	remind	-1	sprint	-1	tap	-1	moonlight	-1	target_not_found
peril	expose	-1	arch	-1	slit	-1	fling	-1	target_not_found
peril	endanger	-1	cease	-1	sabre	-1	neck	-1	target_not_found
peril	menace	-1	schedule	-1	gate	-1	abort	-1	target_not_found
peril	threaten	-1	bed	-1	quit	-1	sprint	-1	target_not_found
peril	jeopardize	-1	filter	-1	nick	-1	impede	-1	target_not_found
invalid	handicap	-1	bode	-1	bum	-1	annex	-1	target_not_found
partition	zone	-1	prospect	-1	sit	-1	stress	-1	target_not_found
groom	curry	-1	salt	-1	whip	-1	develop	-1	target_not_found
groom	train	-1	falcon	-1	overwhelm	-1	invent	-1	target_not_found
groom	dress	-1	fix	-1	rouse	-1	rot	-1	target_not_found
groom	prepare	-1	job	-1	caddie	-1	heal	-1	target_not_found
bully	hector	-1	endeavour	-1	barter	-1	hat	-1	target_not_found
excel	surpass	-1	hug	-1	warn	-1	perform	-1	target_not_found
receipt	acknowledge	-1	bench	-1	involve	-1	season	-1	target_not_found
plank	plump	-1	keen	-1	tin	-1	sketch	-1	target_not_found
dice	cube	-1	shack	-1	renounce	-1	crumble	-1	target_not_found
swan	range	-1	alien	-1	commit	-1	pressure	-1	target_not_found
swan	affirm	-1	creep	-1	free	-1	guard	-1	target_not_found
swan	assert	-1	mention	-1	mastermind	-1	telephone	-1	target_not_found
swan	drift	-1	impact	-1	reimburse	-1	eat	-1	target_not_found
swan	cast	-1	rumor	-1	advance	-1	disclose	-1	target_not_found
swan	roam	-1	undo	-1	risk	-1	seize	-1	target_not_found
swan	verify	-1	rumble	-1	pedal	-1	lure	-1	target_not_found
swan	stray	-1	picnic	-1	keynote	-1	exhaust	-1	target_not_found
hector	bully	-1	fiddle	-1	gauge	-1	perceive	-1	target_not_found
whirlpool	eddy	-1	recover	-1	scramble	-1	modernize	-1	target_not_found
josh	jolly	-1	jeopardize	-1	lust	-1	concern	-1	target_not_found
josh	kid	-1	crash	-1	endanger	-1	pink	-1	target_not_found
wax	rise	-1	copyright	-1	diversify	-1	espy	-1	target_not_found
wax	mount	-1	couple	-1	stress	-1	exceed	-1	target_not_found
wax	climb	-1	salvage	-1	compose	-1	counterattack	-1	target_not_found
crest	cap	-1	fix	-1	prevent	-1	job	-1	target_not_found
cache	stash	-1	suffer	-1	approve	-1	revere	-1	target_not_found
mastermind	engineer	-1	dare	-1	fulfil	-1	zero	-1	target_not_found
mastermind	direct	-1	rough	-1	color	-1	crunch	-1	target_not_found
mastermind	organize	-1	quash	-1	rib	-1	object	-1	target_not_found
blackmail	pressure	-1	assist	-1	closet	-1	confuse	-1	target_not_found
stockpile	carry	-1	permit	-1	quarantine	-1	buzz	-1	target_not_found
dunk	plunge	-1	contract	-1	razor	-1	pinnacle	-1	target_not_found
dunk	dip	-1	consume	-1	notify	-1	coach	-1	target_not_found
jaw	chatter	-1	beset	-1	worship	-1	network	-1	target_not_found
jaw	visit	-1	commune	-1	allocate	-1	form	-1	target_not_found
jaw	chew	-1	remake	-1	burn	-1	echo	-1	target_not_found
jaw	rebuke	-1	accomplish	-1	co-author	-1	credit	-1	target_not_found
jaw	lecture	-1	fragment	-1	fiddle	-1	arrive	-1	target_not_found
jaw	gossip	-1	break	-1	cream	-1	machine	-1	target_not_found
jaw	reprimand	-1	disrespect	-1	swat	-1	canton	-1	target_not_found
jaw	chat	-1	aggregate	-1	redesign	-1	settle	-1	target_not_found
damp	soften	-1	orbit	-1	avalanche	-1	reimburse	-1	target_not_found
damp	break	-1	publish	-1	seize	-1	unlock	-1	target_not_found
damp	dull	-1	regain	-1	preheat	-1	smuggle	-1	target_not_found
damp	mute	-1	vacation	-1	greet	-1	bite	-1	target_not_found
damp	weaken	-1	occupy	-1	spawn	-1	convert	-1	target_not_found
shack	dwell	-1	mutiny	-1	thrive	-1	note	-1	target_not_found
shack	people	-1	charter	-1	tool	-1	chauffeur	-1	target_not_found
shack	inhabit	-1	dock	-1	fast	-1	add	-1	target_not_found
shack	reside	-1	hawk	-1	happen	-1	disperse	-1	target_not_found
shack	live	-1	subsidize	-1	recreate	-1	lance	-1	target_not_found
shack	trail	-1	range	-1	forward	-1	eclipse	-1	target_not_found
perfume	scent	-1	revert	-1	confront	-1	respond	-1	target_not_found
buffet	batter	-1	temper	-1	costume	-1	ticket	-1	target_not_found
stereotype	stamp	-1	symbolize	-1	snake	-1	engage	-1	target_not_found
disdain	scorn	-1	meet	-1	star	-1	move	-1	target_not_found
disdain	reject	-1	muck	-1	round	-1	lace	-1	target_not_found
pirate	hijack	-1	tube	-1	ballot	-1	overlap	-1	target_not_found
paste	glue	-1	detail	-1	rescue	-1	crest	-1	target_not_found
lam	bunk	-1	gas	-1	weld	-1	erupt	-1	target_not_found
lam	run	-1	symbolize	-1	bitch	-1	age	-1	target_not_found
gag	fret	-1	press	-1	tunnel	-1	compass	-1	target_not_found
gag	choke	-1	discord	-1	seat	-1	tenant	-1	target_not_found
wharf	berth	-1	keel	-1	master	-1	supervise	-1	target_not_found
sham	affect	-1	veneer	-1	seed	-1	whirlpool	-1	target_not_found
sham	pretend	-1	attach	-1	support	-1	shroud	-1	target_not_found
sham	simulate	-1	nickname	-1	observe	-1	delay	-1	target_not_found
sham	assume	-1	plummet	-1	tend	-1	scuffle	-1	target_not_found
jolt	jar	-1	whip	-1	savvy	-1	oyster	-1	target_not_found
ditch	dump	-1	perk	-1	placate	-1	bell	-1	target_not_found
ditch	chuck	-1	rust	-1	prompt	-1	antique	-1	target_not_found
jar	collide	-1	romp	-1	peak	-1	stomach	-1	target_not_found
jar	clash	-1	echo	-1	scud	-1	punt	-1	target_not_found
jar	jolt	-1	tool	-1	rap	-1	sugar	-1	target_not_found
counterfeit	fake	-1	harbor	-1	ignore	-1	honey	-1	target_not_found
counterfeit	forge	-1	crop	-1	overthrow	-1	weather	-1	target_not_found
cabbage	lift	-1	structure	-1	trust	-1	wrong	-1	target_not_found
cabbage	sneak	-1	bull	-1	drive	-1	deteriorate	-1	target_not_found
cabbage	swipe	-1	hose	-1	spray	-1	hush	-1	target_not_found
cabbage	abstract	-1	win	-1	grain	-1	devise	-1	target_not_found
cabbage	pinch	-1	replenish	-1	approximate	-1	whittle	-1	target_not_found
cabbage	hook	-1	slope	-1	trump	-1	graduate	-1	target_not_found
binge	gorge	-1	trouble	-1	support	-1	dodge	-1	target_not_found
binge	stuff	-1	finalize	-1	weekend	-1	please	-1	target_not_found
binge	glut	-1	invent	-1	dwell	-1	consider	-1	target_not_found
censure	reprimand	-1	deny	-1	play	-1	form	-1	target_not_found
lapse	sink	-1	dominate	-1	abstain	-1	clone	-1	target_not_found
lapse	pass	-1	decay	-1	portion	-1	retrospect	-1	target_not_found
pare	whittle	-1	diagram	-1	rubber	-1	attest	-1	target_not_found
pare	trim	-1	hoover	-1	await	-1	wink	-1	target_not_found
pare	skin	-1	nick	-1	scoop	-1	racketeer	-1	target_not_found
pare	peel	-1	disarm	-1	lyric	-1	result	-1	target_not_found
tremor	quake	-1	overrun	-1	xerox	-1	compound	-1	target_not_found
stew	grudge	-1	defuse	-1	videotape	-1	chalk	-1	target_not_found
asphalt	tar	-1	tenant	-1	slam	-1	upgrade	-1	target_not_found
secede	splinter	-1	rise	-1	smack	-1	lag	-1	target_not_found
lame	cripple	-1	debate	-1	muddy	-1	devote	-1	target_not_found
endeavor	strive	-1	mob	-1	wage	-1	boil	-1	target_not_found
shun	ban	-1	plaster	-1	cause	-1	plunge	-1	target_not_found
madden	craze	-1	tower	-1	loan	-1	conn	-1	target_not_found
enroll	recruit	-1	japan	-1	usher	-1	taxi	-1	target_not_found
compass	dig	-1	batch	-1	rap	-1	hint	-1	target_not_found
compass	grasp	-1	clerk	-1	overlook	-1	emphasize	-1	target_not_found
compass	savvy	-1	handle	-1	prejudice	-1	rumor	-1	target_not_found
compass	comprehend	-1	seat	-1	lull	-1	dissolve	-1	target_not_found
craze	madden	-1	wine	-1	conglomerate	-1	fall	-1	target_not_found
parody	spoof	-1	alibi	-1	narrow	-1	negotiate	-1	target_not_found
peach	rat	-1	damn	-1	gas	-1	keynote	-1	target_not_found
peach	grass	-1	sanction	-1	poke	-1	lumber	-1	target_not_found
peach	denounce	-1	dizzy	-1	hunt	-1	influence	-1	target_not_found
peach	talk	-1	disqualify	-1	till	-1	shoe	-1	target_not_found
peach	sing	-1	swipe	-1	rough	-1	mellow	-1	target_not_found
peach	betray	-1	conserve	-1	avert	-1	dyke	-1	target_not_found
peach	shop	-1	spot	-1	erect	-1	partner	-1	target_not_found
retrospect	review	-1	crack	-1	wait	-1	merit	-1	target_not_found
patronage	support	-1	condone	-1	appeal	-1	harbour	-1	target_not_found
envision	figure	-1	scan	-1	kit	-1	butter	-1	target_not_found
envision	foresee	-1	bach	-1	dull	-1	sin	-1	target_not_found
envision	fancy	-1	incur	-1	adventure	-1	induce	-1	target_not_found
envision	image	-1	marcel	-1	shop	-1	prod	-1	target_not_found
envision	project	-1	reconsider	-1	remove	-1	marry	-1	target_not_found
envision	picture	-1	leave	-1	avail	-1	disregard	-1	target_not_found
materialize	happen	-1	fetch	-1	hassle	-1	wink	-1	target_not_found
ramp	storm	-1	default	-1	excite	-1	patent	-1	target_not_found
ramp	rage	-1	prize	-1	redeem	-1	rate	-1	target_not_found
addict	hook	-1	salt	-1	communicate	-1	scuffle	-1	target_not_found
pillow	rest	-1	reverse	-1	partner	-1	dunk	-1	target_not_found
lust	crave	-1	alarm	-1	endanger	-1	presume	-1	target_not_found
lust	starve	-1	converge	-1	wonder	-1	freeze	-1	target_not_found
lust	hunger	-1	negative	-1	canopy	-1	refrigerate	-1	target_not_found
lust	thirst	-1	pack	-1	concert	-1	ramp	-1	target_not_found
rust	eat	-1	trash	-1	audition	-1	soap	-1	target_not_found
compassionate	pity	-1	closure	-1	spit	-1	proposition	-1	target_not_found
expatriate	deport	-1	porter	-1	surpass	-1	enhance	-1	target_not_found
peek	glance	-1	espy	-1	sign	-1	powder	-1	target_not_found
groove	rout	-1	seine	-1	mound	-1	chairman	-1	target_not_found
compliment	congratulate	-1	endure	-1	wine	-1	endeavor	-1	target_not_found
prod	dig	-1	ax	-1	bind	-1	horn	-1	target_not_found
prod	stab	-1	prove	-1	attack	-1	crumb	-1	target_not_found
prod	jab	-1	rebound	-1	refer	-1	prelude	-1	target_not_found
prod	nudge	-1	commemorate	-1	gather	-1	cheat	-1	target_not_found
prod	incite	-1	spare	-1	stale	-1	mend	-1	target_not_found
prod	poke	-1	soften	-1	barrel	-1	bully	-1	target_not_found
solace	soothe	-1	explode	-1	succeed	-1	communicate	-1	target_not_found
solace	comfort	-1	divine	-1	flaw	-1	elect	-1	target_not_found
bode	omen	-1	clown	-1	clip	-1	duel	-1	target_not_found
bode	predict	-1	plate	-1	litter	-1	thwart	-1	target_not_found
bode	forecast	-1	cooper	-1	revert	-1	lure	-1	target_not_found
tinker	monkey	-1	shake	-1	razor	-1	overtake	-1	target_not_found
tinker	potter	-1	pack	-1	assure	-1	lumber	-1	target_not_found
tinker	putter	-1	emphasize	-1	orient	-1	bray	-1	target_not_found
loaf	linger	-1	enroll	-1	overturn	-1	choose	-1	target_not_found
loaf	lounge	-1	react	-1	straw	-1	throng	-1	target_not_found
harp	dwell	-1	flap	-1	chew	-1	carpet	-1	target_not_found
budge	stir	-1	butterfly	-1	wage	-1	conceal	-1	target_not_found
budge	shift	-1	ambition	-1	demo	-1	treat	-1	target_not_found
scorn	disdain	-1	trump	-1	ship	-1	cheat	-1	target_not_found
scorn	reject	-1	savor	-1	contrast	-1	stud	-1	target_not_found
gravel	bother	-1	peril	-1	gross	-1	couch	-1	target_not_found
gravel	beat	-1	explain	-1	crib	-1	blight	-1	target_not_found
gravel	pose	-1	relay	-1	leaf	-1	balance	-1	target_not_found
gravel	devil	-1	lure	-1	replicate	-1	track	-1	target_not_found
gravel	puzzle	-1	match	-1	gong	-1	numb	-1	target_not_found
crimson	flush	-1	renovate	-1	police	-1	fray	-1	target_not_found
crimson	blush	-1	investigate	-1	subdue	-1	pull	-1	target_not_found
nudge	prod	-1	repeal	-1	attribute	-1	snag	-1	target_not_found
rebuke	jaw	-1	bogey	-1	palm	-1	tongue	-1	target_not_found
rebuke	lecture	-1	gather	-1	spawn	-1	beacon	-1	target_not_found
rebuke	reprimand	-1	commune	-1	footnote	-1	caution	-1	target_not_found
rib	guy	-1	proposition	-1	blossom	-1	rid	-1	target_not_found
rib	ridicule	-1	soap	-1	gap	-1	bach	-1	target_not_found
spurt	forge	-1	blitz	-1	format	-1	job	-1	target_not_found
inconvenience	bother	-1	brad	-1	harass	-1	ash	-1	target_not_found
inconvenience	trouble	-1	earth	-1	caw	-1	picnic	-1	target_not_found
publicize	bare	-1	labour	-1	oblige	-1	form	-1	target_not_found
publicize	advertise	-1	soup	-1	cede	-1	size	-1	target_not_found
publicize	air	-1	paste	-1	moonlight	-1	hawk	-1	target_not_found
critique	review	-1	multiply	-1	bow	-1	purchase	-1	target_not_found
mesh	lock	-1	needle	-1	tick	-1	regard	-1	target_not_found
mesh	operate	-1	coat	-1	skirt	-1	rib	-1	target_not_found
mesh	engage	-1	alienate	-1	hue	-1	cure	-1	target_not_found
shaft	screw	-1	interpret	-1	bunt	-1	mutiny	-1	target_not_found
shaft	jockey	-1	dance	-1	lamb	-1	rain	-1	target_not_found
lever	prize	-1	loathe	-1	colour	-1	accept	-1	target_not_found
lever	jimmy	-1	stick	-1	wrest	-1	shaft	-1	target_not_found
pawn	soak	-1	frank	-1	bias	-1	claim	-1	target_not_found
divest	strip	-1	tease	-1	subpoena	-1	voice	-1	target_not_found
thirst	crave	-1	choir	-1	overrun	-1	fatigue	-1	target_not_found
thirst	starve	-1	milk	-1	firm	-1	torpedo	-1	target_not_found
thirst	lust	-1	capsule	-1	rejoin	-1	arch	-1	target_not_found
thirst	hunger	-1	commemorate	-1	moot	-1	undermine	-1	target_not_found
mist	fog	-1	overload	-1	form	-1	concrete	-1	target_not_found
mist	obscure	-1	defeat	-1	kill	-1	tow	-1	target_not_found
mist	cloud	-1	dissuade	-1	appreciate	-1	determine	-1	target_not_found
crimp	pinch	-1	advantage	-1	shape	-1	request	-1	target_not_found
unfit	disqualify	-1	tile	-1	cruise	-1	rotate	-1	target_not_found
slang	cod	-1	addict	-1	coffin	-1	commemorate	-1	target_not_found
slang	fool	-1	glow	-1	isolate	-1	queen	-1	target_not_found
reprimand	jaw	-1	crank	-1	articulate	-1	forge	-1	target_not_found
reprimand	censure	-1	brown	-1	widow	-1	bare	-1	target_not_found
reprimand	rebuke	-1	hike	-1	josh	-1	dwell	-1	target_not_found
reprimand	lecture	-1	wine	-1	grade	-1	poll	-1	target_not_found
tout	boast	-1	falter	-1	command	-1	drip	-1	target_not_found
tout	brag	-1	unfold	-1	rap	-1	design	-1	target_not_found
tout	gas	-1	landscape	-1	notch	-1	treat	-1	target_not_found
tout	blow	-1	image	-1	handle	-1	climb	-1	target_not_found
bray	crunch	-1	steal	-1	fate	-1	repair	-1	target_not_found
bray	grind	-1	excite	-1	scrap	-1	spirit	-1	target_not_found
limp	hitch	-1	slot	-1	export	-1	canvas	-1	target_not_found
regroup	reorganize	-1	rabbit	-1	hollow	-1	rig	-1	target_not_found
scuffle	tussle	-1	blend	-1	gun	-1	orbit	-1	target_not_found
dwarf	overshadow	-1	span	-1	peddle	-1	hit	-1	target_not_found
dwarf	shadow	-1	afford	-1	deregulate	-1	asphalt	-1	target_not_found
boo	hiss	-1	forfeit	-1	supply	-1	expand	-1	target_not_found
avail	help	-1	inconvenience	-1	taxi	-1	chatter	-1	target_not_found
putter	tinker	-1	stem	-1	bunt	-1	manage	-1	target_not_found
putter	monkey	-1	flank	-1	seine	-1	regiment	-1	target_not_found
garnish	trim	-1	wing	-1	expel	-1	probe	-1	target_not_found
garnish	dress	-1	rein	-1	brad	-1	flight	-1	target_not_found
penalize	punish	-1	deposit	-1	reverse	-1	drum	-1	target_not_found
robe	vest	-1	boycott	-1	treasure	-1	survey	-1	target_not_found
scud	dart	-1	flight	-1	yacht	-1	gash	-1	target_not_found
scud	flash	-1	people	-1	shuttle	-1	hasten	-1	target_not_found
scud	shoot	-1	stun	-1	adhere	-1	major	-1	target_not_found
scud	rack	-1	fence	-1	pillow	-1	premier	-1	target_not_found
scud	dash	-1	peel	-1	ranch	-1	fringe	-1	target_not_found
sock	bash	-1	dog	-1	solve	-1	cash	-1	target_not_found
blunder	stumble	-1	stun	-1	review	-1	answer	-1	target_not_found
blunder	sin	-1	brave	-1	attribute	-1	read	-1	target_not_found
din	boom	-1	medicine	-1	judge	-1	abandon	-1	target_not_found
deluge	flood	-1	budge	-1	hack	-1	herald	-1	target_not_found
deluge	overwhelm	-1	plume	-1	perform	-1	rabbit	-1	target_not_found
deluge	swamp	-1	freight	-1	isolate	-1	slant	-1	target_not_found
swipe	cabbage	-1	garment	-1	gun	-1	record	-1	target_not_found
swipe	lift	-1	boss	-1	host	-1	remove	-1	target_not_found
swipe	sneak	-1	chorus	-1	pace	-1	repay	-1	target_not_found
swipe	abstract	-1	neutralize	-1	telex	-1	trickle	-1	target_not_found
swipe	pinch	-1	backlog	-1	sled	-1	discount	-1	target_not_found
swipe	hook	-1	cap	-1	mandate	-1	campaign	-1	target_not_found
surcharge	soak	-1	zip	-1	channel	-1	expire	-1	target_not_found
surcharge	pluck	-1	low	-1	probe	-1	die	-1	target_not_found
surcharge	plume	-1	chunk	-1	remember	-1	robe	-1	target_not_found
surcharge	overload	-1	opt	-1	address	-1	wreck	-1	target_not_found
surcharge	rob	-1	weave	-1	taste	-1	sentence	-1	target_not_found
surcharge	hook	-1	whine	-1	shack	-1	market	-1	target_not_found
imprint	form	-1	combat	-1	bluff	-1	creep	-1	target_not_found
motley	vary	-1	shred	-1	harass	-1	answer	-1	target_not_found
pall	tire	-1	trumpet	-1	affirm	-1	word	-1	target_not_found
pall	dull	-1	abandon	-1	loom	-1	bulge	-1	target_not_found
pall	weary	-1	dissent	-1	ping	-1	visa	-1	target_not_found
pall	die	-1	matter	-1	tour	-1	beat	-1	target_not_found
pall	scare	-1	flock	-1	lyric	-1	note	-1	target_not_found
pall	dash	-1	deploy	-1	patent	-1	twist	-1	target_not_found
pall	fatigue	-1	diversify	-1	slide	-1	buffer	-1	target_not_found
pall	jade	-1	unfit	-1	strengthen	-1	revive	-1	target_not_found
buff	flush	-1	recount	-1	rebate	-1	caricature	-1	target_not_found
harbinger	announce	-1	belly	-1	telescope	-1	limp	-1	target_not_found
harbinger	herald	-1	grace	-1	level	-1	postpone	-1	target_not_found
ping	knock	-1	whittle	-1	materialize	-1	pluck	-1	target_not_found
desolate	abandon	-1	sit	-1	layer	-1	storm	-1	target_not_found
desolate	waste	-1	dig	-1	pave	-1	sort	-1	target_not_found
censor	ban	-1	input	-1	rust	-1	officer	-1	target_not_found
licence	certify	-1	ghost	-1	fodder	-1	jacket	-1	target_not_found
revere	worship	-1	deduct	-1	restore	-1	piece	-1	target_not_found
revere	fear	-1	stimulate	-1	ought	-1	hinder	-1	target_not_found
diagram	plot	-1	score	-1	panic	-1	refrigerate	-1	target_not_found
garb	dress	-1	shack	-1	constitute	-1	milk	-1	target_not_found
garb	apparel	-1	bin	-1	confuse	-1	bed	-1	target_not_found
balk	resist	-1	refund	-1	fingerprint	-1	invoke	-1	target_not_found
roost	perch	-1	wharf	-1	spawn	-1	fat	-1	target_not_found
jolly	kid	-1	eclipse	-1	crank	-1	recover	-1	target_not_found
jolly	josh	-1	bolt	-1	cede	-1	realise	-1	target_not_found
fudge	fake	-1	appropriate	-1	gorge	-1	beacon	-1	target_not_found
fudge	cook	-1	pose	-1	awe	-1	gut	-1	target_not_found
fudge	sidestep	-1	overthrow	-1	commune	-1	telegraph	-1	target_not_found
fudge	circumvent	-1	seize	-1	stimulate	-1	bare	-1	target_not_found
fudge	parry	-1	flip	-1	pray	-1	defraud	-1	target_not_found
fudge	duck	-1	footnote	-1	focus	-1	crusade	-1	target_not_found
fudge	evade	-1	connect	-1	erupt	-1	mastermind	-1	target_not_found
fudge	skirt	-1	quantify	-1	command	-1	depend	-1	target_not_found
fudge	manipulate	-1	bomb	-1	earth	-1	patrol	-1	target_not_found
wrestle	worm	-1	mentor	-1	soar	-1	slaughter	-1	target_not_found
wrestle	twist	-1	eclipse	-1	unify	-1	idle	-1	target_not_found
zest	spice	-1	shove	-1	debit	-1	steer	-1	target_not_found
savor	relish	-1	ding	-1	yield	-1	reconcile	-1	target_not_found
savor	taste	-1	dispel	-1	happen	-1	collaborate	-1	target_not_found
savor	enjoy	-1	major	-1	ace	-1	prefer	-1	target_not_found
snub	ignore	-1	groom	-1	sip	-1	reunite	-1	target_not_found
snub	rebuff	-1	fleet	-1	abate	-1	dismiss	-1	target_not_found
snub	disregard	-1	re-enter	-1	shadow	-1	school	-1	target_not_found
snub	repel	-1	stress	-1	exhibit	-1	outweigh	-1	target_not_found
snub	cut	-1	nominate	-1	unfold	-1	front	-1	target_not_found
dislodge	shift	-1	game	-1	lull	-1	blend	-1	target_not_found
dislodge	free	-1	hoover	-1	venture	-1	blossom	-1	target_not_found
dislodge	bump	-1	snag	-1	sober	-1	carpet	-1	target_not_found
plume	dress	-1	mind	-1	abolish	-1	tunnel	-1	target_not_found
plume	soak	-1	champion	-1	quadruple	-1	position	-1	target_not_found
plume	pride	-1	supervise	-1	debut	-1	experience	-1	target_not_found
plume	rob	-1	collar	-1	serve	-1	bust	-1	target_not_found
plume	congratulate	-1	manipulate	-1	preheat	-1	amnesty	-1	target_not_found
plume	hook	-1	dent	-1	predict	-1	move	-1	target_not_found
plume	surcharge	-1	shoot	-1	brush	-1	resurrect	-1	target_not_found
puree	strain	-1	reform	-1	shut	-1	desolate	-1	target_not_found
eddy	swirl	-1	nudge	-1	dwarf	-1	obtain	-1	target_not_found
eddy	whirlpool	-1	boast	-1	malfunction	-1	jeopardize	-1	target_not_found
pedal	cycle	-1	caddie	-1	solve	-1	breathe	-1	target_not_found
pedal	bicycle	-1	conjure	-1	label	-1	reveal	-1	target_not_found
pedal	bike	-1	plummet	-1	provision	-1	dope	-1	target_not_found
pedal	wheel	-1	rubber	-1	wax	-1	bear	-1	target_not_found
cube	dice	-1	flourish	-1	weigh	-1	march	-1	target_not_found
esteem	respect	-1	article	-1	bug	-1	cave	-1	target_not_found
esteem	prize	-1	wreath	-1	discharge	-1	bode	-1	target_not_found
esteem	value	-1	barge	-1	tidy	-1	enter	-1	target_not_found
downplay	minimize	-1	caption	-1	blow	-1	fix	-1	target_not_found
downplay	background	-1	reduce	-1	mushroom	-1	spell	-1	target_not_found
dun	torment	-1	blood	-1	hue	-1	rope	-1	target_not_found
dun	frustrate	-1	revenge	-1	ease	-1	touch	-1	target_not_found
succumb	yield	-1	mail	-1	recruit	-1	spoof	-1	target_not_found
slander	smear	-1	feast	-1	forestall	-1	administer	-1	target_not_found
zoom	surge	-1	click	-1	dispel	-1	horn	-1	target_not_found
zoom	soar	-1	fox	-1	restrict	-1	mound	-1	target_not_found
reverence	fear	-1	tremor	-1	inventory	-1	navigate	-1	target_not_found
whittle	pare	-1	sober	-1	foster	-1	recoup	-1	target_not_found
attest	certify	-1	gun	-1	liquidate	-1	pile	-1	target_not_found
attest	demonstrate	-1	franchise	-1	liquidate	-1	clerk	-1	target_not_found
attest	evidence	-1	hide	-1	muster	-1	usher	-1	target_not_found
esquire	escort	-1	beetle	-1	scramble	-1	breast	-1	target_not_found
plow	handle	-1	weigh	-1	involve	-1	publicize	-1	target_not_found
plow	cover	-1	glory	-1	harvest	-1	render	-1	target_not_found
plow	address	-1	bake	-1	earth	-1	mind	-1	target_not_found
plow	treat	-1	caricature	-1	flood	-1	hiss	-1	target_not_found
plow	deal	-1	legislate	-1	hammer	-1	approximate	-1	target_not_found
replete	fill	-1	pledge	-1	implement	-1	quilt	-1	target_not_found
oversupply	flood	-1	harm	-1	neutralize	-1	slush	-1	target_not_found
oversupply	glut	-1	overturn	-1	portion	-1	drown	-1	target_not_found
scrutinize	audit	-1	stock	-1	conserve	-1	respond	-1	target_not_found
scrutinize	inspect	-1	sniff	-1	staff	-1	shadow	-1	target_not_found
whiff	puff	-1	prosper	-1	avalanche	-1	associate	-1	target_not_found
crook	curve	-1	stew	-1	correct	-1	copper	-1	target_not_found
hassle	provoke	-1	crab	-1	ignore	-1	derail	-1	target_not_found
hassle	plague	-1	flow	-1	imprint	-1	overrun	-1	target_not_found
hassle	beset	-1	renovate	-1	neighbor	-1	par	-1	target_not_found
hassle	chevy	-1	slant	-1	skirt	-1	microwave	-1	target_not_found
hassle	harry	-1	squabble	-1	wall	-1	tool	-1	target_not_found
expedite	hasten	-1	page	-1	select	-1	hinder	-1	target_not_found
affront	insult	-1	style	-1	discontent	-1	feather	-1	target_not_found
riddle	screen	-1	disorder	-1	grit	-1	dull	-1	target_not_found
booze	drink	-1	characterize	-1	merit	-1	ante	-1	target_not_found
bum	sponge	-1	result	-1	arc	-1	spend	-1	target_not_found
swarm	pour	-1	reap	-1	moderate	-1	white	-1	target_not_found
instill	impress	-1	spam	-1	brigade	-1	ascend	-1	target_not_found
interchange	flip	-1	bard	-1	prevent	-1	render	-1	target_not_found
interchange	alternate	-1	tin	-1	malfunction	-1	halt	-1	target_not_found
interchange	switch	-1	send	-1	bottom	-1	escort	-1	target_not_found
interchange	tack	-1	rebel	-1	discourse	-1	retire	-1	target_not_found
gloss	color	-1	retake	-1	pour	-1	roost	-1	target_not_found
gloss	colour	-1	saddle	-1	sport	-1	influence	-1	target_not_found
gloss	comment	-1	frighten	-1	nudge	-1	touch	-1	target_not_found
muck	manure	-1	travel	-1	regulate	-1	telex	-1	target_not_found
brag	boast	-1	cede	-1	arrive	-1	edit	-1	target_not_found
brag	gas	-1	shut	-1	climax	-1	evict	-1	target_not_found
brag	tout	-1	dock	-1	chop	-1	postpone	-1	target_not_found
brag	blow	-1	toe	-1	reorganize	-1	rest	-1	target_not_found
manure	muck	-1	drop	-1	minister	-1	breaststroke	-1	target_not_found
pasture	range	-1	telescope	-1	ditto	-1	assuage	-1	target_not_found
pasture	crop	-1	tour	-1	dissuade	-1	slump	-1	target_not_found
pasture	browse	-1	dive	-1	complicate	-1	spear	-1	target_not_found
rebuff	snub	-1	book	-1	feast	-1	par	-1	target_not_found
rebuff	repel	-1	mate	-1	defer	-1	bard	-1	target_not_found
ware	consume	-1	loom	-1	quicken	-1	pardon	-1	target_not_found
sympathize	understand	-1	guy	-1	scramble	-1	fraction	-1	target_not_found
jumble	mingle	-1	rumble	-1	taxi	-1	bitch	-1	target_not_found
jumble	confuse	-1	engage	-1	disdain	-1	advertise	-1	target_not_found
jade	tire	-1	post	-1	voyage	-1	endeavour	-1	target_not_found
jade	weary	-1	sponsor	-1	skipper	-1	resign	-1	target_not_found
jade	pall	-1	tar	-1	limp	-1	tape	-1	target_not_found
jade	fatigue	-1	quarrel	-1	spam	-1	step	-1	target_not_found
jade	wear	-1	install	-1	sway	-1	toss	-1	target_not_found
sponge	bum	-1	notice	-1	budge	-1	dock	-1	target_not_found
stash	cache	-1	counterpoint	-1	communicate	-1	circuit	-1	target_not_found
spoof	parody	-1	flank	-1	bloody	-1	fort	-1	target_not_found
extort	rack	-1	covenant	-1	cashier	-1	smoke	-1	target_not_found
extort	wring	-1	assist	-1	wedge	-1	jam	-1	target_not_found
cloak	mask	-1	desire	-1	buffer	-1	sheer	-1	target_not_found
incense	outrage	-1	proportion	-1	audition	-1	assuage	-1	target_not_found
bunk	lam	-1	romance	-1	certificate	-1	brush	-1	target_not_found
gorge	stuff	-1	brook	-1	flush	-1	lame	-1	target_not_found
gorge	glut	-1	decide	-1	pine	-1	ignite	-1	target_not_found
gorge	binge	-1	rescue	-1	gall	-1	seek	-1	target_not_found
tussle	scuffle	-1	meter	-1	bless	-1	frank	-1	target_not_found
stud	dot	-1	echo	-1	medicine	-1	stunt	-1	target_not_found
farrow	pig	-1	scarf	-1	contemplate	-1	affront	-1	target_not_found
promenade	stroll	-1	blanco	-1	flee	-1	tussle	-1	target_not_found
promenade	troop	-1	speak	-1	glance	-1	ram	-1	target_not_found
broom	sweep	-1	defer	-1	asphalt	-1	phrase	-1	target_not_found
throttle	restrict	-1	wrestle	-1	tender	-1	scare	-1	target_not_found
throttle	limit	-1	teach	-1	madden	-1	sacrifice	-1	target_not_found
throttle	restrain	-1	kit	-1	blockade	-1	deport	-1	target_not_found
throttle	choke	-1	con	-1	motley	-1	alien	-1	target_not_found
chagrin	humble	-1	log	-1	emphasize	-1	sacrifice	-1	target_not_found
gall	fret	-1	tense	-1	manufacture	-1	hail	-1	target_not_found
demo	exhibit	-1	hover	-1	gall	-1	fee	-1	target_not_found
omen	predict	-1	deflect	-1	spawn	-1	fuss	-1	target_not_found
omen	forecast	-1	revoke	-1	quit	-1	diagram	-1	target_not_found
omen	bode	-1	plight	-1	knit	-1	tug	-1	target_not_found
barricade	bar	-1	progress	-1	ware	-1	quake	-1	target_not_found
barricade	block	-1	reveal	-1	feed	-1	induce	-1	target_not_found
assuage	gentle	-1	restrain	-1	mourn	-1	incur	-1	target_not_found
assuage	alleviate	-1	squabble	-1	plume	-1	divert	-1	target_not_found
assuage	relieve	-1	frequent	-1	please	-1	jacket	-1	target_not_found
assuage	appease	-1	enact	-1	censure	-1	erect	-1	target_not_found
assuage	allay	-1	yield	-1	consume	-1	rush	-1	target_not_found
assuage	placate	-1	accompany	-1	admire	-1	woo	-1	target_not_found
wager	bet	-1	concert	-1	heal	-1	dong	-1	target_not_found
wager	play	-1	garland	-1	dyke	-1	draft	-1	target_not_found
dribble	carry	-1	mouse	-1	hammer	-1	wreck	-1	target_not_found
dribble	filter	-1	beach	-1	admire	-1	evoke	-1	target_not_found
fathom	sound	-1	herd	-1	rejoin	-1	monitor	-1	target_not_found
fathom	bottom	-1	undergo	-1	foul	-1	secure	-1	target_not_found
fathom	penetrate	-1	assemble	-1	dip	-1	haunt	-1	target_not_found
hound	trace	-1	surround	-1	chauffeur	-1	hate	-1	target_not_found
plump	fat	-1	pilot	-1	dance	-1	remark	-1	target_not_found
plump	plank	-1	cheese	-1	rail	-1	lighter	-1	target_not_found
