chance	gamble	-1	widen	-1	replete	-1	iron	-1
chance	adventure	-1	insert	-1	affirm	-1	rev	-1
chance	happen	-1	identify	-1	mimic	-1	mandate	-1
chance	risk	-1	improve	-1	shrine	-1	couple	-1
chance	hazard	-1	gain	-1	apprentice	-1	edit	-1
chance	bump	-1	cushion	-1	toughen	-1	haunt	-1
chance	encounter	-1	jab	-1	park	-1	rubber	-1
father	generate	-1	breath	-1	loaf	-1	care	-1
wall	fence	-1	pioneer	-1	nose	-1	churn	-1
wall	surround	34	pay	-1	bump	-1	discourage	-1
rebel	rise	-1	rescue	-1	canoe	-1	praise	-1
rebel	arise	-1	din	-1	grapple	-1	appoint	-1
rebel	renegade	-1	savvy	-1	calm	-1	aim	-1
bay	quest	-1	capsule	-1	seal	-1	flurry	-1
zone	partition	-1	cricket	-1	indicate	-1	defuse	-1
zone	district	-1	moonlight	-1	own	14	trigger	-1
holiday	vacation	-1	iron	-1	collar	-1	crimson	-1
piece	assemble	-1	class	-1	disperse	-1	sense	-1
piece	patch	-1	bode	-1	bloody	-1	silence	-1
piece	tack	-1	smoke	-1	manipulate	-1	mother	-1
ice	frost	-1	pretend	-1	charcoal	-1	ring	-1
mail	post	-1	hurry	-1	chalk	-1	inter	-1
mail	send	64	excise	-1	tarmac	-1	pierce	-1
crop	trim	-1	crouch	-1	paper	-1	lamb	-1
crop	dress	26	dig	-1	invest	-1	trouble	-1
crop	range	-1	discount	-1	conclude	-1	chord	-1
crop	pasture	-1	tar	-1	inquire	-1	institute	-1
crop	clip	-1	receipt	-1	scar	-1	network	-1
crop	browse	-1	net	-1	ink	-1	index	-1
crop	cultivate	-1	rendezvous	-1	disgust	-1	preach	-1
kid	jolly	-1	puzzle	-1	distract	-1	closet	-1
kid	josh	-1	excel	-1	downplay	-1	motion	-1
founder	break	-1	gap	-1	disdain	-1	reconstruct	-1
founder	flop	-1	assassinate	-1	intrigue	-1	cabin	-1
founder	collapse	-1	flank	-1	jewel	-1	drill	-1
smart	hurt	-1	cheek	-1	peg	-1	undergo	-1
pan	trash	-1	ignore	-1	dump	-1	robe	-1
rick	twist	-1	critique	-1	dive	-1	query	-1
tone	strengthen	-1	confiscate	-1	pioneer	-1	race	-1
reference	cite	-1	strive	-1	perch	-1	bin	-1
pocket	bag	-1	sham	-1	handle	56	sample	-1
frequent	shop	-1	hack	-1	involve	129	excerpt	-1
frequent	sponsor	-1	storm	-1	revolt	-1	trouble	-1
exile	deport	-1	gall	-1	report	-1	fin	-1
massacre	slaughter	-1	knife	-1	stave	-1	switch	125
soil	dirty	-1	chuck	-1	elevate	-1	badge	-1
mouth	talk	-1	counterfeit	-1	borrow	29	pot	-1
mouth	speak	57	feel	-1	trickle	-1	blind	-1
mouth	utter	10	fat	-1	thaw	-1	twist	-1
clock	time	-1	interchange	-1	spoof	-1	embark	-1
overhaul	modernize	-1	intimate	-1	berry	-1	overrun	-1
overhaul	pass	-1	bicycle	-1	manifest	-1	tend	-1
dirty	soil	-1	melt	-1	secede	-1	inventory	-1
nose	wind	48	confirm	-1	carol	-1	require	-1
nose	poke	-1	draft	-1	perfect	-1	effect	-1
nose	scent	-1	co-star	-1	shorten	-1	score	-1
exit	leave	-1	correspond	-1	clone	-1	abort	-1
exit	die	-1	level	-1	throne	-1	partner	-1
exit	pass	-1	perfume	-1	amnesty	-1	probe	-1
exact	claim	-1	defy	-1	abolish	-1	barber	-1
exact	demand	54	depict	-1	evolve	-1	junk	-1
tense	strain	35	apologize	-1	witness	-1	lord	-1
bat	lick	-1	siphon	-1	remind	-1	rob	-1
foul	choke	-1	absorb	52	woo	-1	crib	-1
segment	section	-1	placate	-1	light	-1	infect	-1
corrupt	buy	-1	wharf	-1	orphan	-1	throttle	-1
corrupt	bribe	-1	rehabilitate	-1	survey	-1	learn	-1
corrupt	cloud	-1	sled	-1	isolate	-1	spice	-1
corrupt	spoil	-1	harry	-1	leak	-1	remainder	-1
format	arrange	-1	whine	-1	brief	-1	letter	-1
phrase	articulate	-1	mint	-1	season	-1	diagram	-1
phrase	word	-1	shrine	-1	total	-1	allure	-1
phrase	formulate	8	debut	-1	hack	-1	erupt	-1
tan	bronze	-1	major	-1	crowd	-1	ham	-1
trick	fox	-1	perk	-1	lumber	-1	prolong	-1
con	learn	179	offset	-1	unify	-1	forward	-1
con	scam	-1	consume	-1	interpret	130	click	-1
con	defraud	-1	match	-1	implant	-1	solo	-1
tag	mark	-1	hunger	-1	stride	-1	coin	-1
tag	dog	-1	begin	70	adventure	-1	blossom	-1
tag	trail	-1	flank	-1	decline	23	redeem	-1
tag	chase	-1	expose	-1	telescope	-1	concord	-1
tag	label	-1	knock	-1	exaggerate	-1	propose	-1
tag	track	-1	pasture	-1	bribe	-1	attach	-1
hedge	sidestep	-1	premise	-1	input	-1	star	-1
hedge	circumvent	-1	flush	-1	patrol	-1	busy	-1
hedge	parry	-1	arise	-1	slow	-1	gazette	-1
hedge	duck	-1	curl	-1	steer	-1	lob	-1
hedge	skirt	-1	premiere	-1	character	-1	anchor	-1
buck	hitch	-1	liquidate	-1	materialize	-1	plot	-1
buck	jerk	-1	initial	-1	examine	72	transport	-1
buck	charge	-1	tip	-1	corner	-1	brawl	-1
buck	shoot	-1	top	-1	divulge	-1	madden	-1
buck	tear	-1	cloak	-1	strand	-1	crew	-1
aggregate	combine	-1	pawn	-1	rust	-1	savor	-1
tail	dock	-1	inhibit	-1	sort	-1	stream	-1
tail	dog	-1	queen	-1	migrate	-1	junk	-1
tail	chase	-1	certify	-1	rank	-1	gazette	-1
tail	track	-1	stick	-1	scratch	-1	glass	-1
tail	bob	-1	sauce	-1	harass	-1	sigh	-1
brave	weather	-1	ice	-1	rocket	-1	cook	-1
brave	endure	-1	medicine	-1	abolish	-1	slush	-1
blunt	dull	-1	resume	-1	quarrel	-1	surround	-1
blunt	numb	-1	smack	-1	flop	-1	ferret	-1
bust	raid	-1	lodge	-1	favor	-1	blitz	-1
bust	break	-1	shave	-1	peril	-1	pearl	-1
bust	rupture	-1	upset	-1	brawl	-1	devil	-1
bust	snap	-1	cart	-1	paper	-1	spoof	-1
bust	tear	-1	fluctuate	-1	task	-1	commute	-1
bust	wear	-1	grill	-1	breakfast	-1	deceive	-1
cheer	urge	-1	bronze	-1	phone	-1	thrive	-1
cheer	inspire	-1	listen	-1	restore	-1	adventure	-1
cheer	recreate	-1	thunder	-1	assassinate	-1	peck	-1
buffer	soften	-1	alarm	-1	costume	-1	fodder	-1
buffer	cushion	-1	exhibit	-1	date	-1	whiff	-1
thumb	hitch	2	ponder	-1	tenure	-1	pet	-1
thumb	finger	-1	beard	-1	override	-1	plank	-1
thumb	flip	-1	dawn	-1	exchange	-1	criticize	-1
thumb	flick	-1	torment	-1	leach	-1	mate	-1
thumb	leaf	-1	court	-1	hustle	-1	summon	-1
dock	tail	-1	warn	-1	gain	-1	despair	-1
dock	bob	-1	dun	-1	dissent	-1	harbour	-1
sabotage	weaken	-1	ratify	-1	picture	-1	adjust	-1
sabotage	undermine	-1	alleviate	-1	shock	-1	recapture	-1
idle	slug	-1	stash	-1	police	-1	neighbor	-1
jeopardize	endanger	-1	charge	-1	esquire	-1	risk	-1
jeopardize	menace	-1	abandon	-1	conquer	-1	chauffeur	-1
jeopardize	hazard	-1	counterfeit	-1	notch	-1	debit	-1
jeopardize	adventure	-1	require	-1	mediate	-1	shop	-1
jeopardize	stake	-1	streak	-1	toll	-1	district	-1
jeopardize	threaten	-1	banquet	-1	loot	-1	assure	-1
jeopardize	peril	-1	chagrin	-1	flaw	-1	profile	-1
jeopardize	venture	-1	snail	-1	cherish	-1	resist	-1
crunch	bray	-1	log	-1	harvest	-1	audit	-1
crunch	grind	70	mint	-1	linger	-1	term	-1
zip	speed	-1	blunt	-1	sacrifice	-1	precondition	-1
zip	hurry	-1	butcher	-1	breast	-1	reckon	-1
refund	repay	36	wonder	-1	cake	-1	relate	-1
flip	jerk	-1	bucket	-1	blue	-1	blanket	-1
flip	alternate	-1	result	-1	blank	-1	stew	-1
flip	throw	4	heed	-1	flee	-1	jockey	-1
flip	toss	-1	queen	-1	warp	-1	motorcycle	-1
flip	switch	-1	razor	-1	enter	-1	wee	-1
flip	thumb	-1	mind	-1	map	-1	outcry	-1
flip	pitch	-1	employ	-1	spill	-1	bachelor	-1
flip	leaf	-1	backhand	-1	restrain	-1	mingle	-1
flip	interchange	-1	numb	-1	spree	-1	gun	-1
flip	tack	-1	tread	-1	wrestle	-1	designate	-1
garner	collect	-1	forgive	-1	bag	-1	vest	-1
gossip	chatter	-1	certify	-1	baa	-1	plug	-1
gossip	jaw	-1	blockade	-1	rely	-1	harass	-1
gossip	visit	-1	participate	50	behave	32	swirl	-1
gossip	chat	-1	cane	-1	chair	-1	select	-1
spike	lace	-1	compose	-1	article	-1	salt	-1
cushion	soften	1	deregulate	-1	wet	-1	overturn	-1
cushion	buffer	-1	assume	-1	endure	-1	engineer	-1
crow	triumph	-1	armor	-1	cause	-1	fat	-1
brook	endure	-1	crowd	-1	advise	-1	stifle	-1
brook	suffer	-1	enhance	-1	disorder	-1	whiff	-1
brook	bear	-1	jog	-1	diet	-1	golf	-1
brook	stand	-1	develop	67	fashion	-1	hand	-1
brook	abide	-1	comfort	-1	criticize	-1	carry	70
brook	support	56	dig	-1	lounge	-1	divide	-1
brook	tolerate	-1	review	28	posture	-1	kayak	-1
brook	stomach	-1	flare	-1	communicate	-1	navigate	-1
foil	cross	-1	counsel	-1	grab	-1	reach	30
foil	scotch	-1	war	-1	box	-1	label	-1
foil	frustrate	4	redefine	-1	salaam	-1	sense	-1
foil	thwart	3	bitter	-1	define	-1	worm	-1
hazard	gamble	-1	hire	-1	mantle	-1	balk	-1
hazard	adventure	-1	fold	-1	forge	-1	lever	-1
hazard	stake	-1	bond	-1	outfit	-1	garb	-1
hazard	risk	-1	despair	-1	complicate	-1	warehouse	-1
hazard	guess	-1	garage	-1	jaw	-1	shred	-1
hazard	venture	-1	evidence	-1	curl	-1	outweigh	-1
hazard	chance	-1	deck	-1	tilt	-1	help	-1
hazard	jeopardize	-1	lead	-1	bloody	-1	jazz	-1
pardon	excuse	-1	mend	-1	don	-1	envision	-1
fray	fret	-1	pay	-1	climax	-1	distinguish	-1
fray	rub	-1	putter	-1	delight	-1	jail	-1
fray	scratch	-1	brad	-1	lime	-1	introduce	-1
dim	blur	-1	spruce	-1	plug	-1	flush	-1
dim	slur	-1	rubber	-1	quiet	-1	sprawl	-1
dim	blind	12	dart	-1	berth	-1	ride	-1
loop	curl	-1	disadvantage	-1	demonstrate	-1	phrase	-1
beset	provoke	-1	extort	-1	avenge	-1	avalanche	-1
beset	plague	3	about-face	-1	cashier	-1	ax	-1
beset	hassle	-1	quicken	-1	relocate	-1	progress	-1
beset	harass	-1	falter	-1	sprawl	-1	excite	-1
beset	chevy	-1	evoke	-1	ginger	-1	letter	-1
beset	harry	-1	locate	-1	slack	-1	sauce	-1
rig	set	-1	outfit	-1	surge	-1	merit	-1
rig	manipulate	-1	dash	-1	bias	-1	frank	-1
recoup	withhold	46	disagree	-1	tide	-1	defeat	-1
recoup	reimburse	3	attach	-1	ripple	-1	mute	-1
recoup	deduct	24	encounter	-1	duel	-1	participate	-1
diversify	broaden	-1	shield	-1	assign	-1	matter	-1
sap	tire	-1	brake	-1	revenge	-1	streak	-1
sap	exhaust	-1	voodoo	-1	recommend	-1	reopen	-1
quiz	test	-1	hog	-1	mix	-1	ridge	-1
avenge	retaliate	-1	interrupt	-1	wield	-1	search	-1
lace	spike	-1	fade	-1	bull	-1	compare	-1
fumble	blow	232	limit	-1	conclude	-1	taboo	-1
fumble	spoil	-1	streak	-1	slate	-1	embark	-1
trickle	filter	-1	infect	-1	sway	-1	base	-1
bait	tease	-1	orphan	-1	surrender	-1	rev	-1
bait	rally	-1	envision	-1	wrestle	-1	skin	-1
bait	ride	-1	dump	-1	resent	-1	temper	-1
bait	cod	-1	stockpile	-1	withstand	-1	graduate	-1
navigate	voyage	-1	lick	-1	jar	-1	discourse	-1
navigate	pilot	-1	flex	-1	delete	-1	stampede	-1
navigate	sail	-1	breeze	-1	pare	-1	gross	-1
prosper	thrive	4	waltz	-1	lack	-1	convene	-1
prosper	boom	3	deepen	-1	sorrow	-1	permit	-1
prosper	expand	20	elevate	-1	pit	-1	castle	-1
prosper	flourish	1	move	57	court-martial	-1	rinse	-1
scotch	foil	-1	bake	-1	rifle	-1	perpetuate	-1
scotch	cross	-1	disclose	-1	fluctuate	-1	differentiate	-1
scotch	spoil	-1	glide	-1	jelly	-1	access	-1
scotch	frustrate	-1	slave	-1	alligator	-1	feud	-1
scotch	thwart	-1	glass	-1	drop	-1	noose	-1
glue	paste	-1	flag	-1	counterattack	-1	puree	-1
heap	stack	-1	deceive	-1	grill	-1	slug	-1
heap	pile	-1	graduate	-1	disadvantage	-1	tag	-1
reimburse	recoup	5	brisk	-1	pluck	-1	josh	-1
saddle	burden	-1	malfunction	-1	depend	-1	exchange	-1
saddle	charge	-1	cannon	-1	hat	-1	essay	-1
graft	transplant	-1	rethink	-1	pace	-1	space	-1
mat	tangle	12	microwave	-1	interrupt	-1	image	-1
vent	air	-1	abort	-1	deepen	-1	choke	-1
solicit	woo	-1	exert	-1	park	-1	barrage	-1
solicit	beg	-1	sprawl	-1	exile	-1	seize	-1
solicit	court	-1	caucus	-1	seize	-1	berth	-1
solicit	romance	-1	denounce	-1	overshadow	-1	greet	-1
solicit	tap	-1	stretch	-1	rupture	-1	overcome	-1
peg	nail	-1	print	-1	lick	-1	slit	-1
bash	sock	-1	trick	-1	top	-1	behold	-1
console	soothe	-1	shield	-1	advertise	-1	reshape	-1
console	comfort	-1	volunteer	-1	float	-1	head	-1
commute	change	-1	spurt	-1	exaggerate	-1	extract	-1
commute	exchange	-1	sharpen	-1	pin	-1	expel	-1
commute	convert	-1	rob	-1	bar	-1	defraud	-1
knot	tangle	-1	covenant	-1	dock	-1	bully	-1
flop	founder	-1	profit	-1	canton	-1	poll	-1
hitch	buck	-1	sick	-1	cheat	-1	start	-1
hitch	limp	-1	drain	-1	impact	-1	inch	-1
hitch	jerk	-1	bogey	-1	disqualify	-1	skin	-1
hitch	thumb	1	sliver	-1	fracture	-1	slack	-1
throng	mob	-1	hog	-1	hike	-1	puree	-1
throng	pile	-1	sanction	-1	lance	-1	revere	-1
throng	pack	160	act	240	lock	-1	revisit	-1
throng	jam	-1	strip	-1	front	-1	gorge	-1
renovate	quicken	-1	soothe	-1	quit	-1	bushel	-1
renovate	repair	10	notice	-1	peek	-1	attest	-1
crease	wrinkle	4	pinnacle	-1	uncover	-1	pick	-1
skid	slip	-1	equip	-1	line	-1	defend	-1
tangle	drag	-1	pinch	-1	free-lance	-1	void	-1
tangle	mat	5	paper	-1	chagrin	-1	swing	-1
tangle	sweep	43	query	-1	overlap	-1	embark	-1
tangle	knot	-1	condition	17	abstain	-1	lyric	-1
worm	wrestle	-1	golf	-1	input	-1	mention	113
worm	twist	84	divorce	-1	rush	-1	head	140
redress	correct	-1	deck	-1	insist	-1	snow	-1
redress	compensate	-1	shuttle	-1	snoop	-1	outrage	-1
splinter	secede	-1	revise	-1	loom	-1	total	-1
divulge	expose	-1	railroad	-1	people	-1	lie	-1
divulge	break	-1	budget	-1	belly	-1	style	-1
divulge	reveal	62	drug	-1	block	-1	grow	-1
loot	strip	-1	love	-1	peach	-1	anguish	-1
loot	foray	-1	dip	-1	cradle	-1	beset	-1
loot	rifle	-1	mother	-1	scrimmage	-1	panhandle	-1
defraud	con	-1	coke	-1	shack	-1	weekend	-1
defraud	scam	-1	gift	-1	muse	-1	humble	-1
jab	dig	37	look	-1	fatigue	-1	sequence	-1
jab	prod	-1	calendar	-1	embark	-1	stew	-1
jab	poke	14	hang	-1	loan	-1	mock	-1
rue	regret	-1	dateline	-1	encounter	-1	trade	-1
rescind	vacate	-1	crawl	-1	chat	-1	belly	-1
rescind	repeal	-1	provide	-1	rest	-1	condemn	-1
rescind	lift	103	ferret	-1	spam	-1	ash	-1
rescind	reverse	44	delete	-1	market	-1	verify	-1
rescind	overturn	-1	e-mail	-1	booze	-1	stamp	-1
rescind	revoke	7	intensify	-1	whisk	-1	compete	-1
feather	square	-1	knot	-1	thrill	-1	cap	-1
hush	silence	10	jolly	-1	ensure	-1	happen	-1
hush	quiet	-1	flap	-1	rebate	-1	crash	-1
consummate	perfect	-1	stop	-1	stint	-1	scramble	-1
mute	dampen	-1	audit	-1	tissue	-1	lead	49
mute	dull	-1	monkey	-1	seek	-1	diagram	-1
mute	damp	-1	guard	-1	shop	-1	hash	-1
buckle	warp	-1	dwarf	-1	spam	-1	smash	-1
churn	boil	-1	sketch	-1	roof	-1	bum	-1
moot	debate	-1	bone	-1	curse	-1	tear	-1
moot	consider	81	assign	-1	carpet	-1	woo	-1
moot	deliberate	-1	wrest	-1	blend	-1	pray	-1
rake	skim	70	overshadow	-1	vest	-1	dump	-1
rake	scan	128	wage	-1	pilot	-1	jaw	-1
wink	flash	36	content	-1	happen	51	sunday	-1
sift	strain	-1	resort	-1	border	-1	pause	-1
resurrect	raise	-1	survive	-1	check	-1	bring	-1
normalize	temper	-1	reassess	-1	lunch	-1	combat	-1
wreak	bring	-1	lump	-1	prompt	-1	resemble	-1
wreak	play	4	square	-1	grip	-1	research	-1
hijack	pirate	-1	print	-1	dope	-1	pink	-1
grudge	stew	-1	green	-1	corner	-1	chatter	-1
rupture	bust	-1	backstroke	-1	modify	-1	recycle	-1
rupture	snap	-1	raid	-1	garment	-1	document	-1
rupture	tear	-1	permit	-1	bill	-1	satellite	-1
numb	dull	-1	boost	-1	establish	-1	roast	-1
numb	blunt	-1	tuck	-1	dive	-1	skirt	-1
vacate	repeal	-1	bite	-1	letter	-1	moderate	-1
vacate	abandon	-1	slit	-1	assist	-1	tell	-1
vacate	lift	-1	swat	-1	glare	-1	winter	-1
vacate	renounce	-1	fleet	-1	differentiate	-1	weed	-1
vacate	resign	9	shine	-1	ascend	-1	disqualify	-1
vacate	rescind	-1	chain	-1	wilt	-1	christmas	-1
vacate	reverse	-1	scream	-1	regulate	-1	blitz	-1
vacate	overturn	-1	slander	-1	bronze	-1	whistle	-1
vacate	revoke	-1	water	-1	mourn	-1	rumor	-1
vacate	empty	-1	haunt	-1	arrive	-1	dictate	-1
blight	plague	3	harbinger	-1	league	-1	cycle	-1
exhale	expire	-1	contribute	-1	critique	-1	prejudice	-1
crave	lust	-1	blitz	-1	plight	-1	distort	-1
crave	hunger	-1	allay	-1	slant	-1	yield	-1
crave	thirst	-1	espy	-1	buffet	-1	cluster	-1
abate	slack	-1	destabilize	-1	originate	-1	lease	-1
conjure	evoke	10	sprinkle	-1	beat	-1	slash	-1
conjure	stir	-1	prosecute	-1	aggravate	-1	crib	-1
conjure	press	-1	thrive	-1	quake	-1	mushroom	-1
conjure	bid	-1	march	-1	chase	-1	behave	-1
conjure	raise	50	document	-1	toll	-1	represent	-1
conjure	invoke	-1	jumble	-1	pressure	-1	inspire	-1
sidestep	fudge	-1	chevy	-1	estimate	-1	overlook	-1
sidestep	hedge	-1	filter	-1	enroll	-1	siphon	-1
sidestep	dodge	2	blind	-1	master	-1	obey	-1
sidestep	elude	-1	tick	-1	scream	-1	alert	-1
sidestep	circumvent	-1	forestall	-1	stomach	-1	tango	-1
sidestep	parry	-1	sport	-1	stage	-1	ridge	-1
sidestep	duck	-1	burden	-1	snuff	-1	dose	-1
sidestep	evade	7	belt	-1	pressure	-1	scalp	-1
sidestep	skirt	-1	obstruct	-1	ham	-1	shrug	-1
slur	dim	-1	moot	-1	telecast	-1	net	-1
legislate	pass	209	co-author	-1	bat	-1	coach	-1
