chance	gamble	-1	widen	-1	replete	-1	iron	-1
chance	adventure	-1	insert	-1	affirm	-1	rev	-1
chance	happen	-1	identify	-1	mimic	-1	mandate	-1
chance	risk	-1	improve	-1	shrine	-1	couple	-1
chance	hazard	-1	gain	-1	apprentice	-1	edit	-1
chance	bump	-1	cushion	-1	toughen	-1	haunt	-1
chance	encounter	-1	jab	-1	park	-1	rubber	-1
father	generate	-1	breath	-1	loaf	-1	care	-1
wall	fence	-1	pioneer	-1	nose	-1	churn	-1
wall	surround	-1	pay	-1	bump	-1	discourage	-1
bay	quest	-1	capsule	-1	seal	-1	flurry	-1
ice	frost	-1	pretend	-1	charcoal	-1	ring	-1
mail	post	-1	hurry	-1	chalk	-1	inter	-1
mail	send	33	excise	-1	tarmac	-1	pierce	-1
crop	trim	-1	crouch	-1	paper	-1	lamb	-1
crop	dress	8	dig	-1	invest	-1	trouble	-1
crop	range	-1	discount	-1	conclude	-1	chord	-1
crop	pasture	-1	tar	-1	inquire	-1	institute	-1
crop	clip	-1	receipt	-1	scar	-1	network	-1
crop	browse	-1	net	-1	ink	-1	index	-1
crop	cultivate	-1	rendezvous	-1	disgust	-1	preach	-1
rick	twist	-1	critique	-1	dive	-1	query	-1
tone	strengthen	-1	confiscate	-1	pioneer	-1	race	-1
reference	cite	-1	strive	-1	perch	-1	bin	-1
mouth	talk	-1	counterfeit	-1	borrow	-1	pot	-1
mouth	speak	31	feel	-1	trickle	-1	blind	-1
mouth	utter	8	fat	-1	thaw	-1	twist	-1
exact	claim	-1	defy	-1	abolish	-1	barber	-1
exact	demand	-1	depict	-1	evolve	-1	junk	-1
tense	strain	4	apologize	-1	witness	-1	lord	-1
bat	lick	-1	siphon	-1	remind	-1	rob	-1
segment	section	-1	placate	-1	light	-1	infect	-1
trick	fox	-1	perk	-1	lumber	-1	prolong	-1
hedge	sidestep	-1	premise	-1	input	-1	star	-1
hedge	circumvent	-1	flush	-1	patrol	-1	busy	-1
hedge	parry	-1	arise	-1	slow	-1	gazette	-1
hedge	duck	-1	curl	-1	steer	-1	lob	-1
hedge	skirt	-1	premiere	-1	character	-1	anchor	-1
buck	hitch	-1	liquidate	-1	materialize	-1	plot	-1
buck	jerk	-1	initial	-1	examine	60	transport	-1
buck	charge	-1	tip	-1	corner	-1	brawl	-1
buck	shoot	-1	top	-1	divulge	-1	madden	-1
buck	tear	-1	cloak	-1	strand	-1	crew	-1
buffer	soften	-1	alarm	-1	costume	-1	fodder	-1
buffer	cushion	-1	exhibit	-1	date	-1	whiff	-1
zip	speed	-1	blunt	-1	sacrifice	-1	precondition	-1
zip	hurry	-1	butcher	-1	breast	-1	reckon	-1
refund	repay	3	wonder	-1	cake	-1	relate	-1
flip	jerk	-1	bucket	-1	blue	-1	blanket	-1
flip	alternate	-1	result	-1	blank	-1	stew	-1
flip	throw	-1	heed	-1	flee	-1	jockey	-1
flip	toss	-1	queen	-1	warp	-1	motorcycle	-1
flip	switch	-1	razor	-1	enter	-1	wee	-1
flip	thumb	-1	mind	-1	map	-1	outcry	-1
flip	pitch	-1	employ	-1	spill	-1	bachelor	-1
flip	leaf	-1	backhand	-1	restrain	-1	mingle	-1
flip	interchange	-1	numb	-1	spree	-1	gun	-1
flip	tack	-1	tread	-1	wrestle	-1	designate	-1
crow	triumph	-1	armor	-1	cause	-1	fat	-1
brook	endure	-1	crowd	-1	advise	-1	stifle	-1
brook	suffer	-1	enhance	-1	disorder	-1	whiff	-1
brook	bear	-1	jog	-1	diet	-1	golf	-1
brook	stand	-1	develop	16	fashion	-1	hand	-1
brook	abide	-1	comfort	-1	criticize	-1	carry	-1
brook	support	11	dig	-1	lounge	-1	divide	-1
brook	tolerate	-1	review	-1	posture	-1	kayak	-1
brook	stomach	-1	flare	-1	communicate	-1	navigate	-1
hazard	gamble	-1	hire	-1	mantle	-1	balk	-1
hazard	adventure	-1	fold	-1	forge	-1	lever	-1
hazard	stake	-1	bond	-1	outfit	-1	garb	-1
hazard	risk	-1	despair	-1	complicate	-1	warehouse	-1
hazard	guess	-1	garage	-1	jaw	-1	shred	-1
hazard	venture	-1	evidence	-1	curl	-1	outweigh	-1
hazard	chance	-1	deck	-1	tilt	-1	help	-1
hazard	jeopardize	-1	lead	-1	bloody	-1	jazz	-1
dim	blur	-1	spruce	-1	plug	-1	flush	-1
dim	slur	-1	rubber	-1	quiet	-1	sprawl	-1
dim	blind	-1	dart	-1	berth	-1	ride	-1
beset	provoke	-1	extort	-1	avenge	-1	avalanche	-1
beset	plague	-1	about-face	-1	cashier	-1	ax	-1
beset	hassle	-1	quicken	-1	relocate	-1	progress	-1
beset	harass	-1	falter	-1	sprawl	-1	excite	-1
beset	chevy	-1	evoke	-1	ginger	-1	letter	-1
beset	harry	-1	locate	-1	slack	-1	sauce	-1
recoup	withhold	-1	disagree	-1	tide	-1	defeat	-1
recoup	reimburse	3	attach	-1	ripple	-1	mute	-1
recoup	deduct	-1	encounter	-1	duel	-1	participate	-1
quiz	test	-1	hog	-1	mix	-1	ridge	-1
avenge	retaliate	-1	interrupt	-1	wield	-1	search	-1
reimburse	recoup	2	brisk	-1	pluck	-1	josh	-1
saddle	burden	-1	malfunction	-1	depend	-1	exchange	-1
saddle	charge	-1	cannon	-1	hat	-1	essay	-1
vent	air	-1	abort	-1	deepen	-1	choke	-1
bash	sock	-1	trick	-1	top	-1	behold	-1
commute	change	-1	spurt	-1	exaggerate	-1	extract	-1
commute	exchange	-1	sharpen	-1	pin	-1	expel	-1
commute	convert	-1	rob	-1	bar	-1	defraud	-1
crease	wrinkle	-1	pinnacle	-1	uncover	-1	pick	-1
worm	wrestle	-1	golf	-1	input	-1	mention	-1
worm	twist	-1	divorce	-1	rush	-1	head	65
redress	correct	-1	deck	-1	insist	-1	snow	-1
redress	compensate	-1	shuttle	-1	snoop	-1	outrage	-1
divulge	expose	-1	railroad	-1	people	-1	lie	-1
divulge	break	-1	budget	-1	belly	-1	style	-1
divulge	reveal	52	drug	-1	block	-1	grow	-1
jab	dig	-1	look	-1	fatigue	-1	sequence	-1
jab	prod	-1	calendar	-1	embark	-1	stew	-1
jab	poke	7	hang	-1	loan	-1	mock	-1
rescind	vacate	-1	crawl	-1	chat	-1	belly	-1
rescind	repeal	-1	provide	-1	rest	-1	condemn	-1
rescind	lift	-1	ferret	-1	spam	-1	ash	-1
rescind	reverse	-1	delete	-1	market	-1	verify	-1
rescind	overturn	-1	e-mail	-1	booze	-1	stamp	-1
rescind	revoke	-1	intensify	-1	whisk	-1	compete	-1
feather	square	-1	knot	-1	thrill	-1	cap	-1
hush	silence	-1	jolly	-1	ensure	-1	happen	-1
hush	quiet	-1	flap	-1	rebate	-1	crash	-1
churn	boil	-1	sketch	-1	roof	-1	bum	-1
moot	debate	-1	bone	-1	curse	-1	tear	-1
moot	consider	-1	assign	-1	carpet	-1	woo	-1
moot	deliberate	-1	wrest	-1	blend	-1	pray	-1
sift	strain	-1	resort	-1	border	-1	pause	-1
resurrect	raise	-1	survive	-1	check	-1	bring	-1
normalize	temper	-1	reassess	-1	lunch	-1	combat	-1
wreak	bring	-1	lump	-1	prompt	-1	resemble	-1
wreak	play	1	square	-1	grip	-1	research	-1
vacate	repeal	-1	bite	-1	letter	-1	moderate	-1
vacate	abandon	-1	slit	-1	assist	-1	tell	-1
vacate	lift	-1	swat	-1	glare	-1	winter	-1
vacate	renounce	-1	fleet	-1	differentiate	-1	weed	-1
vacate	resign	-1	shine	-1	ascend	-1	disqualify	-1
vacate	rescind	-1	chain	-1	wilt	-1	christmas	-1
vacate	reverse	-1	scream	-1	regulate	-1	blitz	-1
vacate	overturn	-1	slander	-1	bronze	-1	whistle	-1
vacate	revoke	-1	water	-1	mourn	-1	rumor	-1
vacate	empty	-1	haunt	-1	arrive	-1	dictate	-1
conjure	evoke	-1	sprinkle	-1	beat	-1	slash	-1
conjure	stir	-1	prosecute	-1	aggravate	-1	crib	-1
conjure	press	-1	thrive	-1	quake	-1	mushroom	-1
conjure	bid	-1	march	-1	chase	-1	behave	-1
conjure	raise	-1	document	-1	toll	-1	represent	-1
conjure	invoke	-1	jumble	-1	pressure	-1	inspire	-1
legislate	pass	9	co-author	-1	bat	-1	coach	-1
