k	found_in_th	precision	cv	recall	cv	tokens-opt	types-opt	precision-opt	cv_optimistic	recall-opt	cv_optimistic	f1	total
10	9	0.444444	0.372678	0.000602138	0.499849	3720	1472	0.630376	0.0125548	0.353003	0.0166104	0.452571	6643
20	171	0.538012	0.0708633	0.0138492	0.103533	5783	1711	0.607816	0.0105629	0.529128	0.0115741	0.565749	6643
30	536	0.597015	0.035487	0.048171	0.0545387	6328	1748	0.608249	0.0100886	0.579407	0.0104534	0.593478	6643
40	923	0.6013	0.0268026	0.0835466	0.0406358	6521	1762	0.618157	0.00973276	0.606804	0.00987639	0.612428	6643
50	1270	0.605512	0.0226493	0.115761	0.0339095	6578	1765	0.627546	0.00949875	0.621406	0.00957673	0.624461	6643
100	1835	0.632698	0.0177867	0.17477	0.0266607	6621	1766	0.644465	0.00912809	0.64233	0.00915545	0.643396	6643
200	1952	0.637807	0.0170563	0.187415	0.0255476	6628	1766	0.645142	0.00910979	0.643685	0.00912847	0.644413	6643
500	1983	0.648008	0.0165506	0.193437	0.0250535	6628	1766	0.647405	0.00906481	0.645943	0.00908358	0.646673	6643
1000	1993	0.653287	0.0163185	0.195996	0.0248498	6630	1767	0.652338	0.00896573	0.651061	0.00898218	0.651699	6643
