%!PS-Adobe-2.0
%%Title: toefl-prec-with-bars.eps
%%Creator: gnuplot 4.6 patchlevel 1
%%CreationDate: Fri Oct 18 14:29:37 2013
%%DocumentFonts: (atend)
%%BoundingBox: 50 50 554 770
%%Orientation: Landscape
%%Pages: (atend)
%%EndComments
%%BeginProlog
/gnudict 256 dict def
gnudict begin
%
% The following true/false flags may be edited by hand if desired.
% The unit line width and grayscale image gamma correction may also be changed.
%
/Color false def
/Blacktext false def
/Solid false def
/Dashlength 1 def
/Landscape true def
/Level1 false def
/Rounded false def
/ClipToBoundingBox false def
/SuppressPDFMark false def
/TransparentPatterns false def
/gnulinewidth 5.000 def
/userlinewidth gnulinewidth def
/Gamma 1.0 def
/BackgroundColor {-1.000 -1.000 -1.000} def
%
/vshift -66 def
/dl1 {
  10.0 Dashlength mul mul
  Rounded { currentlinewidth 0.75 mul sub dup 0 le { pop 0.01 } if } if
} def
/dl2 {
  10.0 Dashlength mul mul
  Rounded { currentlinewidth 0.75 mul add } if
} def
/hpt_ 31.5 def
/vpt_ 31.5 def
/hpt hpt_ def
/vpt vpt_ def
/doclip {
  ClipToBoundingBox {
    newpath 50 50 moveto 554 50 lineto 554 770 lineto 50 770 lineto closepath
    clip
  } if
} def
%
% Gnuplot Prolog Version 4.6 (September 2012)
%
%/SuppressPDFMark true def
%
/M {moveto} bind def
/L {lineto} bind def
/R {rmoveto} bind def
/V {rlineto} bind def
/N {newpath moveto} bind def
/Z {closepath} bind def
/C {setrgbcolor} bind def
/f {rlineto fill} bind def
/g {setgray} bind def
/Gshow {show} def   % May be redefined later in the file to support UTF-8
/vpt2 vpt 2 mul def
/hpt2 hpt 2 mul def
/Lshow {currentpoint stroke M 0 vshift R 
	Blacktext {gsave 0 setgray show grestore} {show} ifelse} def
/Rshow {currentpoint stroke M dup stringwidth pop neg vshift R
	Blacktext {gsave 0 setgray show grestore} {show} ifelse} def
/Cshow {currentpoint stroke M dup stringwidth pop -2 div vshift R 
	Blacktext {gsave 0 setgray show grestore} {show} ifelse} def
/UP {dup vpt_ mul /vpt exch def hpt_ mul /hpt exch def
  /hpt2 hpt 2 mul def /vpt2 vpt 2 mul def} def
/DL {Color {setrgbcolor Solid {pop []} if 0 setdash}
 {pop pop pop 0 setgray Solid {pop []} if 0 setdash} ifelse} def
/BL {stroke userlinewidth 2 mul setlinewidth
	Rounded {1 setlinejoin 1 setlinecap} if} def
/AL {stroke userlinewidth 2 div setlinewidth
	Rounded {1 setlinejoin 1 setlinecap} if} def
/UL {dup gnulinewidth mul /userlinewidth exch def
	dup 1 lt {pop 1} if 10 mul /udl exch def} def
/PL {stroke userlinewidth setlinewidth
	Rounded {1 setlinejoin 1 setlinecap} if} def
3.8 setmiterlimit
% Default Line colors
/LCw {1 1 1} def
/LCb {0 0 0} def
/LCa {0 0 0} def
/LC0 {1 0 0} def
/LC1 {0 1 0} def
/LC2 {0 0 1} def
/LC3 {1 0 1} def
/LC4 {0 1 1} def
/LC5 {1 1 0} def
/LC6 {0 0 0} def
/LC7 {1 0.3 0} def
/LC8 {0.5 0.5 0.5} def
% Default Line Types
/LTw {PL [] 1 setgray} def
/LTb {BL [] LCb DL} def
/LTa {AL [1 udl mul 2 udl mul] 0 setdash LCa setrgbcolor} def
/LT0 {PL [] LC0 DL} def
/LT1 {PL [4 dl1 2 dl2] LC1 DL} def
/LT2 {PL [2 dl1 3 dl2] LC2 DL} def
/LT3 {PL [1 dl1 1.5 dl2] LC3 DL} def
/LT4 {PL [6 dl1 2 dl2 1 dl1 2 dl2] LC4 DL} def
/LT5 {PL [3 dl1 3 dl2 1 dl1 3 dl2] LC5 DL} def
/LT6 {PL [2 dl1 2 dl2 2 dl1 6 dl2] LC6 DL} def
/LT7 {PL [1 dl1 2 dl2 6 dl1 2 dl2 1 dl1 2 dl2] LC7 DL} def
/LT8 {PL [2 dl1 2 dl2 2 dl1 2 dl2 2 dl1 2 dl2 2 dl1 4 dl2] LC8 DL} def
/Pnt {stroke [] 0 setdash gsave 1 setlinecap M 0 0 V stroke grestore} def
/Dia {stroke [] 0 setdash 2 copy vpt add M
  hpt neg vpt neg V hpt vpt neg V
  hpt vpt V hpt neg vpt V closepath stroke
  Pnt} def
/Pls {stroke [] 0 setdash vpt sub M 0 vpt2 V
  currentpoint stroke M
  hpt neg vpt neg R hpt2 0 V stroke
 } def
/Box {stroke [] 0 setdash 2 copy exch hpt sub exch vpt add M
  0 vpt2 neg V hpt2 0 V 0 vpt2 V
  hpt2 neg 0 V closepath stroke
  Pnt} def
/Crs {stroke [] 0 setdash exch hpt sub exch vpt add M
  hpt2 vpt2 neg V currentpoint stroke M
  hpt2 neg 0 R hpt2 vpt2 V stroke} def
/TriU {stroke [] 0 setdash 2 copy vpt 1.12 mul add M
  hpt neg vpt -1.62 mul V
  hpt 2 mul 0 V
  hpt neg vpt 1.62 mul V closepath stroke
  Pnt} def
/Star {2 copy Pls Crs} def
/BoxF {stroke [] 0 setdash exch hpt sub exch vpt add M
  0 vpt2 neg V hpt2 0 V 0 vpt2 V
  hpt2 neg 0 V closepath fill} def
/TriUF {stroke [] 0 setdash vpt 1.12 mul add M
  hpt neg vpt -1.62 mul V
  hpt 2 mul 0 V
  hpt neg vpt 1.62 mul V closepath fill} def
/TriD {stroke [] 0 setdash 2 copy vpt 1.12 mul sub M
  hpt neg vpt 1.62 mul V
  hpt 2 mul 0 V
  hpt neg vpt -1.62 mul V closepath stroke
  Pnt} def
/TriDF {stroke [] 0 setdash vpt 1.12 mul sub M
  hpt neg vpt 1.62 mul V
  hpt 2 mul 0 V
  hpt neg vpt -1.62 mul V closepath fill} def
/DiaF {stroke [] 0 setdash vpt add M
  hpt neg vpt neg V hpt vpt neg V
  hpt vpt V hpt neg vpt V closepath fill} def
/Pent {stroke [] 0 setdash 2 copy gsave
  translate 0 hpt M 4 {72 rotate 0 hpt L} repeat
  closepath stroke grestore Pnt} def
/PentF {stroke [] 0 setdash gsave
  translate 0 hpt M 4 {72 rotate 0 hpt L} repeat
  closepath fill grestore} def
/Circle {stroke [] 0 setdash 2 copy
  hpt 0 360 arc stroke Pnt} def
/CircleF {stroke [] 0 setdash hpt 0 360 arc fill} def
/C0 {BL [] 0 setdash 2 copy moveto vpt 90 450 arc} bind def
/C1 {BL [] 0 setdash 2 copy moveto
	2 copy vpt 0 90 arc closepath fill
	vpt 0 360 arc closepath} bind def
/C2 {BL [] 0 setdash 2 copy moveto
	2 copy vpt 90 180 arc closepath fill
	vpt 0 360 arc closepath} bind def
/C3 {BL [] 0 setdash 2 copy moveto
	2 copy vpt 0 180 arc closepath fill
	vpt 0 360 arc closepath} bind def
/C4 {BL [] 0 setdash 2 copy moveto
	2 copy vpt 180 270 arc closepath fill
	vpt 0 360 arc closepath} bind def
/C5 {BL [] 0 setdash 2 copy moveto
	2 copy vpt 0 90 arc
	2 copy moveto
	2 copy vpt 180 270 arc closepath fill
	vpt 0 360 arc} bind def
/C6 {BL [] 0 setdash 2 copy moveto
	2 copy vpt 90 270 arc closepath fill
	vpt 0 360 arc closepath} bind def
/C7 {BL [] 0 setdash 2 copy moveto
	2 copy vpt 0 270 arc closepath fill
	vpt 0 360 arc closepath} bind def
/C8 {BL [] 0 setdash 2 copy moveto
	2 copy vpt 270 360 arc closepath fill
	vpt 0 360 arc closepath} bind def
/C9 {BL [] 0 setdash 2 copy moveto
	2 copy vpt 270 450 arc closepath fill
	vpt 0 360 arc closepath} bind def
/C10 {BL [] 0 setdash 2 copy 2 copy moveto vpt 270 360 arc closepath fill
	2 copy moveto
	2 copy vpt 90 180 arc closepath fill
	vpt 0 360 arc closepath} bind def
/C11 {BL [] 0 setdash 2 copy moveto
	2 copy vpt 0 180 arc closepath fill
	2 copy moveto
	2 copy vpt 270 360 arc closepath fill
	vpt 0 360 arc closepath} bind def
/C12 {BL [] 0 setdash 2 copy moveto
	2 copy vpt 180 360 arc closepath fill
	vpt 0 360 arc closepath} bind def
/C13 {BL [] 0 setdash 2 copy moveto
	2 copy vpt 0 90 arc closepath fill
	2 copy moveto
	2 copy vpt 180 360 arc closepath fill
	vpt 0 360 arc closepath} bind def
/C14 {BL [] 0 setdash 2 copy moveto
	2 copy vpt 90 360 arc closepath fill
	vpt 0 360 arc} bind def
/C15 {BL [] 0 setdash 2 copy vpt 0 360 arc closepath fill
	vpt 0 360 arc closepath} bind def
/Rec {newpath 4 2 roll moveto 1 index 0 rlineto 0 exch rlineto
	neg 0 rlineto closepath} bind def
/Square {dup Rec} bind def
/Bsquare {vpt sub exch vpt sub exch vpt2 Square} bind def
/S0 {BL [] 0 setdash 2 copy moveto 0 vpt rlineto BL Bsquare} bind def
/S1 {BL [] 0 setdash 2 copy vpt Square fill Bsquare} bind def
/S2 {BL [] 0 setdash 2 copy exch vpt sub exch vpt Square fill Bsquare} bind def
/S3 {BL [] 0 setdash 2 copy exch vpt sub exch vpt2 vpt Rec fill Bsquare} bind def
/S4 {BL [] 0 setdash 2 copy exch vpt sub exch vpt sub vpt Square fill Bsquare} bind def
/S5 {BL [] 0 setdash 2 copy 2 copy vpt Square fill
	exch vpt sub exch vpt sub vpt Square fill Bsquare} bind def
/S6 {BL [] 0 setdash 2 copy exch vpt sub exch vpt sub vpt vpt2 Rec fill Bsquare} bind def
/S7 {BL [] 0 setdash 2 copy exch vpt sub exch vpt sub vpt vpt2 Rec fill
	2 copy vpt Square fill Bsquare} bind def
/S8 {BL [] 0 setdash 2 copy vpt sub vpt Square fill Bsquare} bind def
/S9 {BL [] 0 setdash 2 copy vpt sub vpt vpt2 Rec fill Bsquare} bind def
/S10 {BL [] 0 setdash 2 copy vpt sub vpt Square fill 2 copy exch vpt sub exch vpt Square fill
	Bsquare} bind def
/S11 {BL [] 0 setdash 2 copy vpt sub vpt Square fill 2 copy exch vpt sub exch vpt2 vpt Rec fill
	Bsquare} bind def
/S12 {BL [] 0 setdash 2 copy exch vpt sub exch vpt sub vpt2 vpt Rec fill Bsquare} bind def
/S13 {BL [] 0 setdash 2 copy exch vpt sub exch vpt sub vpt2 vpt Rec fill
	2 copy vpt Square fill Bsquare} bind def
/S14 {BL [] 0 setdash 2 copy exch vpt sub exch vpt sub vpt2 vpt Rec fill
	2 copy exch vpt sub exch vpt Square fill Bsquare} bind def
/S15 {BL [] 0 setdash 2 copy Bsquare fill Bsquare} bind def
/D0 {gsave translate 45 rotate 0 0 S0 stroke grestore} bind def
/D1 {gsave translate 45 rotate 0 0 S1 stroke grestore} bind def
/D2 {gsave translate 45 rotate 0 0 S2 stroke grestore} bind def
/D3 {gsave translate 45 rotate 0 0 S3 stroke grestore} bind def
/D4 {gsave translate 45 rotate 0 0 S4 stroke grestore} bind def
/D5 {gsave translate 45 rotate 0 0 S5 stroke grestore} bind def
/D6 {gsave translate 45 rotate 0 0 S6 stroke grestore} bind def
/D7 {gsave translate 45 rotate 0 0 S7 stroke grestore} bind def
/D8 {gsave translate 45 rotate 0 0 S8 stroke grestore} bind def
/D9 {gsave translate 45 rotate 0 0 S9 stroke grestore} bind def
/D10 {gsave translate 45 rotate 0 0 S10 stroke grestore} bind def
/D11 {gsave translate 45 rotate 0 0 S11 stroke grestore} bind def
/D12 {gsave translate 45 rotate 0 0 S12 stroke grestore} bind def
/D13 {gsave translate 45 rotate 0 0 S13 stroke grestore} bind def
/D14 {gsave translate 45 rotate 0 0 S14 stroke grestore} bind def
/D15 {gsave translate 45 rotate 0 0 S15 stroke grestore} bind def
/DiaE {stroke [] 0 setdash vpt add M
  hpt neg vpt neg V hpt vpt neg V
  hpt vpt V hpt neg vpt V closepath stroke} def
/BoxE {stroke [] 0 setdash exch hpt sub exch vpt add M
  0 vpt2 neg V hpt2 0 V 0 vpt2 V
  hpt2 neg 0 V closepath stroke} def
/TriUE {stroke [] 0 setdash vpt 1.12 mul add M
  hpt neg vpt -1.62 mul V
  hpt 2 mul 0 V
  hpt neg vpt 1.62 mul V closepath stroke} def
/TriDE {stroke [] 0 setdash vpt 1.12 mul sub M
  hpt neg vpt 1.62 mul V
  hpt 2 mul 0 V
  hpt neg vpt -1.62 mul V closepath stroke} def
/PentE {stroke [] 0 setdash gsave
  translate 0 hpt M 4 {72 rotate 0 hpt L} repeat
  closepath stroke grestore} def
/CircE {stroke [] 0 setdash 
  hpt 0 360 arc stroke} def
/Opaque {gsave closepath 1 setgray fill grestore 0 setgray closepath} def
/DiaW {stroke [] 0 setdash vpt add M
  hpt neg vpt neg V hpt vpt neg V
  hpt vpt V hpt neg vpt V Opaque stroke} def
/BoxW {stroke [] 0 setdash exch hpt sub exch vpt add M
  0 vpt2 neg V hpt2 0 V 0 vpt2 V
  hpt2 neg 0 V Opaque stroke} def
/TriUW {stroke [] 0 setdash vpt 1.12 mul add M
  hpt neg vpt -1.62 mul V
  hpt 2 mul 0 V
  hpt neg vpt 1.62 mul V Opaque stroke} def
/TriDW {stroke [] 0 setdash vpt 1.12 mul sub M
  hpt neg vpt 1.62 mul V
  hpt 2 mul 0 V
  hpt neg vpt -1.62 mul V Opaque stroke} def
/PentW {stroke [] 0 setdash gsave
  translate 0 hpt M 4 {72 rotate 0 hpt L} repeat
  Opaque stroke grestore} def
/CircW {stroke [] 0 setdash 
  hpt 0 360 arc Opaque stroke} def
/BoxFill {gsave Rec 1 setgray fill grestore} def
/Density {
  /Fillden exch def
  currentrgbcolor
  /ColB exch def /ColG exch def /ColR exch def
  /ColR ColR Fillden mul Fillden sub 1 add def
  /ColG ColG Fillden mul Fillden sub 1 add def
  /ColB ColB Fillden mul Fillden sub 1 add def
  ColR ColG ColB setrgbcolor} def
/BoxColFill {gsave Rec PolyFill} def
/PolyFill {gsave Density fill grestore grestore} def
/h {rlineto rlineto rlineto gsave closepath fill grestore} bind def
%
% PostScript Level 1 Pattern Fill routine for rectangles
% Usage: x y w h s a XX PatternFill
%	x,y = lower left corner of box to be filled
%	w,h = width and height of box
%	  a = angle in degrees between lines and x-axis
%	 XX = 0/1 for no/yes cross-hatch
%
/PatternFill {gsave /PFa [ 9 2 roll ] def
  PFa 0 get PFa 2 get 2 div add PFa 1 get PFa 3 get 2 div add translate
  PFa 2 get -2 div PFa 3 get -2 div PFa 2 get PFa 3 get Rec
  TransparentPatterns {} {gsave 1 setgray fill grestore} ifelse
  clip
  currentlinewidth 0.5 mul setlinewidth
  /PFs PFa 2 get dup mul PFa 3 get dup mul add sqrt def
  0 0 M PFa 5 get rotate PFs -2 div dup translate
  0 1 PFs PFa 4 get div 1 add floor cvi
	{PFa 4 get mul 0 M 0 PFs V} for
  0 PFa 6 get ne {
	0 1 PFs PFa 4 get div 1 add floor cvi
	{PFa 4 get mul 0 2 1 roll M PFs 0 V} for
 } if
  stroke grestore} def
%
/languagelevel where
 {pop languagelevel} {1} ifelse
 2 lt
	{/InterpretLevel1 true def}
	{/InterpretLevel1 Level1 def}
 ifelse
%
% PostScript level 2 pattern fill definitions
%
/Level2PatternFill {
/Tile8x8 {/PaintType 2 /PatternType 1 /TilingType 1 /BBox [0 0 8 8] /XStep 8 /YStep 8}
	bind def
/KeepColor {currentrgbcolor [/Pattern /DeviceRGB] setcolorspace} bind def
<< Tile8x8
 /PaintProc {0.5 setlinewidth pop 0 0 M 8 8 L 0 8 M 8 0 L stroke} 
>> matrix makepattern
/Pat1 exch def
<< Tile8x8
 /PaintProc {0.5 setlinewidth pop 0 0 M 8 8 L 0 8 M 8 0 L stroke
	0 4 M 4 8 L 8 4 L 4 0 L 0 4 L stroke}
>> matrix makepattern
/Pat2 exch def
<< Tile8x8
 /PaintProc {0.5 setlinewidth pop 0 0 M 0 8 L
	8 8 L 8 0 L 0 0 L fill}
>> matrix makepattern
/Pat3 exch def
<< Tile8x8
 /PaintProc {0.5 setlinewidth pop -4 8 M 8 -4 L
	0 12 M 12 0 L stroke}
>> matrix makepattern
/Pat4 exch def
<< Tile8x8
 /PaintProc {0.5 setlinewidth pop -4 0 M 8 12 L
	0 -4 M 12 8 L stroke}
>> matrix makepattern
/Pat5 exch def
<< Tile8x8
 /PaintProc {0.5 setlinewidth pop -2 8 M 4 -4 L
	0 12 M 8 -4 L 4 12 M 10 0 L stroke}
>> matrix makepattern
/Pat6 exch def
<< Tile8x8
 /PaintProc {0.5 setlinewidth pop -2 0 M 4 12 L
	0 -4 M 8 12 L 4 -4 M 10 8 L stroke}
>> matrix makepattern
/Pat7 exch def
<< Tile8x8
 /PaintProc {0.5 setlinewidth pop 8 -2 M -4 4 L
	12 0 M -4 8 L 12 4 M 0 10 L stroke}
>> matrix makepattern
/Pat8 exch def
<< Tile8x8
 /PaintProc {0.5 setlinewidth pop 0 -2 M 12 4 L
	-4 0 M 12 8 L -4 4 M 8 10 L stroke}
>> matrix makepattern
/Pat9 exch def
/Pattern1 {PatternBgnd KeepColor Pat1 setpattern} bind def
/Pattern2 {PatternBgnd KeepColor Pat2 setpattern} bind def
/Pattern3 {PatternBgnd KeepColor Pat3 setpattern} bind def
/Pattern4 {PatternBgnd KeepColor Landscape {Pat5} {Pat4} ifelse setpattern} bind def
/Pattern5 {PatternBgnd KeepColor Landscape {Pat4} {Pat5} ifelse setpattern} bind def
/Pattern6 {PatternBgnd KeepColor Landscape {Pat9} {Pat6} ifelse setpattern} bind def
/Pattern7 {PatternBgnd KeepColor Landscape {Pat8} {Pat7} ifelse setpattern} bind def
} def
%
%
%End of PostScript Level 2 code
%
/PatternBgnd {
  TransparentPatterns {} {gsave 1 setgray fill grestore} ifelse
} def
%
% Substitute for Level 2 pattern fill codes with
% grayscale if Level 2 support is not selected.
%
/Level1PatternFill {
/Pattern1 {0.250 Density} bind def
/Pattern2 {0.500 Density} bind def
/Pattern3 {0.750 Density} bind def
/Pattern4 {0.125 Density} bind def
/Pattern5 {0.375 Density} bind def
/Pattern6 {0.625 Density} bind def
/Pattern7 {0.875 Density} bind def
} def
%
% Now test for support of Level 2 code
%
Level1 {Level1PatternFill} {Level2PatternFill} ifelse
%
/Symbol-Oblique /Symbol findfont [1 0 .167 1 0 0] makefont
dup length dict begin {1 index /FID eq {pop pop} {def} ifelse} forall
currentdict end definefont pop
/MFshow {
   { dup 5 get 3 ge
     { 5 get 3 eq {gsave} {grestore} ifelse }
     {dup dup 0 get findfont exch 1 get scalefont setfont
     [ currentpoint ] exch dup 2 get 0 exch R dup 5 get 2 ne {dup dup 6
     get exch 4 get {Gshow} {stringwidth pop 0 R} ifelse }if dup 5 get 0 eq
     {dup 3 get {2 get neg 0 exch R pop} {pop aload pop M} ifelse} {dup 5
     get 1 eq {dup 2 get exch dup 3 get exch 6 get stringwidth pop -2 div
     dup 0 R} {dup 6 get stringwidth pop -2 div 0 R 6 get
     show 2 index {aload pop M neg 3 -1 roll neg R pop pop} {pop pop pop
     pop aload pop M} ifelse }ifelse }ifelse }
     ifelse }
   forall} def
/Gswidth {dup type /stringtype eq {stringwidth} {pop (n) stringwidth} ifelse} def
/MFwidth {0 exch { dup 5 get 3 ge { 5 get 3 eq { 0 } { pop } ifelse }
 {dup 3 get{dup dup 0 get findfont exch 1 get scalefont setfont
     6 get Gswidth pop add} {pop} ifelse} ifelse} forall} def
/MLshow { currentpoint stroke M
  0 exch R
  Blacktext {gsave 0 setgray MFshow grestore} {MFshow} ifelse } bind def
/MRshow { currentpoint stroke M
  exch dup MFwidth neg 3 -1 roll R
  Blacktext {gsave 0 setgray MFshow grestore} {MFshow} ifelse } bind def
/MCshow { currentpoint stroke M
  exch dup MFwidth -2 div 3 -1 roll R
  Blacktext {gsave 0 setgray MFshow grestore} {MFshow} ifelse } bind def
/XYsave    { [( ) 1 2 true false 3 ()] } bind def
/XYrestore { [( ) 1 2 true false 4 ()] } bind def
Level1 SuppressPDFMark or 
{} {
/SDict 10 dict def
systemdict /pdfmark known not {
  userdict /pdfmark systemdict /cleartomark get put
} if
SDict begin [
  /Title (toefl-prec-with-bars.eps)
  /Subject (gnuplot plot)
  /Creator (gnuplot 4.6 patchlevel 1)
  /Author (muntsa)
%  /Producer (gnuplot)
%  /Keywords ()
  /CreationDate (Fri Oct 18 14:29:37 2013)
  /DOCINFO pdfmark
end
} ifelse
end
%%EndProlog
%%Page: 1 1
gnudict begin
gsave
doclip
50 50 translate
0.100 0.100 scale
90 rotate
0 -5040 translate
0 setgray
newpath
(Times) findfont 200 scalefont setfont
BackgroundColor 0 lt 3 1 roll 0 lt exch 0 lt or or not {gsave BackgroundColor C clippath fill grestore} if
1.000 UL
LTb
780 540 M
63 0 V
5996 0 R
-63 0 V
stroke
660 540 M
[ [(Times) 160.0 0.0 true true 0 ( 0)]
] -53.3 MRshow
1.000 UL
LTb
780 1260 M
63 0 V
5996 0 R
-63 0 V
stroke
660 1260 M
[ [(Times) 160.0 0.0 true true 0 ( 0.2)]
] -53.3 MRshow
1.000 UL
LTb
780 1980 M
63 0 V
5996 0 R
-63 0 V
stroke
660 1980 M
[ [(Times) 160.0 0.0 true true 0 ( 0.4)]
] -53.3 MRshow
1.000 UL
LTb
780 2699 M
63 0 V
5996 0 R
-63 0 V
stroke
660 2699 M
[ [(Times) 160.0 0.0 true true 0 ( 0.6)]
] -53.3 MRshow
1.000 UL
LTb
780 3419 M
63 0 V
5996 0 R
-63 0 V
stroke
660 3419 M
[ [(Times) 160.0 0.0 true true 0 ( 0.8)]
] -53.3 MRshow
1.000 UL
LTb
780 4139 M
63 0 V
5996 0 R
-63 0 V
stroke
660 4139 M
[ [(Times) 160.0 0.0 true true 0 ( 1)]
] -53.3 MRshow
1.000 UL
LTb
780 540 M
0 63 V
stroke
780 340 M
[ [(Times) 160.0 0.0 true true 0 ( 10)]
] -53.3 MCshow
1.000 UL
LTb
1692 540 M
0 31 V
533 -31 R
0 31 V
379 -31 R
0 31 V
294 -31 R
0 31 V
239 -31 R
0 31 V
203 -31 R
0 31 V
176 -31 R
0 31 V
155 -31 R
0 31 V
139 -31 R
0 63 V
stroke
3810 340 M
[ [(Times) 160.0 0.0 true true 0 ( 100)]
] -53.3 MCshow
1.000 UL
LTb
4721 540 M
0 31 V
534 -31 R
0 31 V
378 -31 R
0 31 V
294 -31 R
0 31 V
240 -31 R
0 31 V
203 -31 R
0 31 V
175 -31 R
0 31 V
155 -31 R
0 31 V
139 -31 R
0 63 V
stroke
6839 340 M
[ [(Times) 160.0 0.0 true true 0 ( 1000)]
] -53.3 MCshow
1.000 UL
LTb
780 4139 M
0 -63 V
stroke
780 4339 M
[ [(Times) 160.0 0.0 true true 0 ( 1)]
] -53.3 MCshow
1.000 UL
LTb
1854 4139 M
0 -31 V
628 31 R
0 -31 V
445 31 R
0 -31 V
346 31 R
0 -31 V
282 31 R
0 -31 V
239 31 R
0 -31 V
207 31 R
0 -31 V
182 31 R
0 -31 V
163 31 R
0 -63 V
stroke
4346 4339 M
[ [(Times) 160.0 0.0 true true 0 ( 10)]
] -53.3 MCshow
1.000 UL
LTb
5420 4139 M
0 -31 V
628 31 R
0 -31 V
445 31 R
0 -31 V
346 31 R
0 -31 V
stroke
780 4139 N
780 540 L
6059 0 V
0 3599 V
-6059 0 V
Z stroke
LCb setrgbcolor
320 2339 M
currentpoint gsave translate -270 rotate 0 0 moveto
[ [(Times-Italic) 200.0 0.0 true true 0 (precision)]
] -66.7 MCshow
grestore
LTb
LCb setrgbcolor
3809 140 M
[ [(Times-Italic) 200.0 0.0 true true 0 (p)]
[(Times) 200.0 0.0 true true 0 ( )]
] -66.7 MCshow
LTb
3809 4939 M
[ [(Times) 200.0 0.0 true true 0 (WBST task: Precision)]
] -66.7 MCshow
LCb setrgbcolor
3809 4538 M
[ [(Times-Italic) 200.0 0.0 true true 0 (threshold)]
[(Times) 200.0 0.0 true true 0 ( for triples )]
] -66.7 MCshow
LTb
1.200 UP
1.000 UL
LTb
% Begin plot #1
1.200 UP
1.000 UL
LT0
LCb setrgbcolor
5924 2503 M
[ [(Times) 200.0 0.0 true true 0 (s)]
[(Times) 160.0 -60.0 true true 0 (lin)]
[(Times) 200.0 0.0 true true 0 (, sorting by pmi)]
] -46.7 MRshow
LT0
6044 2503 M
555 0 V
-555 31 R
0 -62 V
555 62 R
0 -62 V
-2789 33 R
911 -70 V
1206 45 V
912 158 V
3810 2434 M
0 142 V
-31 -142 R
62 0 V
-62 142 R
62 0 V
880 -193 R
0 103 V
-31 -103 R
62 0 V
-62 103 R
62 0 V
1175 -49 R
0 85 V
-31 -85 R
62 0 V
-62 85 R
62 0 V
881 78 R
0 75 V
-31 -75 R
62 0 V
-62 75 R
62 0 V
3810 2505 Pls
4721 2435 Pls
5927 2480 Pls
6839 2638 Pls
6321 2503 Pls
% End plot #1
% Begin plot #2
1.200 UP
1.000 UL
LT1
LCb setrgbcolor
5924 2303 M
[ [(Times) 200.0 0.0 true true 0 (s)]
[(Times) 160.0 -60.0 true true 0 (lin)]
[(Times) 200.0 0.0 true true 0 (, sorting by lmi)]
] -46.7 MRshow
LT1
6044 2303 M
555 0 V
-555 31 R
0 -62 V
555 62 R
0 -62 V
780 3334 M
912 -150 V
533 -103 V
379 -55 V
3810 2836 L
911 -59 V
1206 13 V
912 0 V
780 3288 M
0 92 V
-31 -92 R
62 0 V
-62 92 R
62 0 V
881 -235 R
0 78 V
-31 -78 R
62 0 V
-62 78 R
62 0 V
502 -179 R
0 74 V
-31 -74 R
62 0 V
-62 74 R
62 0 V
348 -128 R
0 72 V
-31 -72 R
62 0 V
-62 72 R
62 0 V
3810 2802 M
0 68 V
-31 -68 R
62 0 V
-62 68 R
62 0 V
880 -128 R
0 70 V
-31 -70 R
62 0 V
-62 70 R
62 0 V
1175 -56 R
0 68 V
-31 -68 R
62 0 V
-62 68 R
62 0 V
881 -68 R
0 69 V
-31 -69 R
62 0 V
-62 69 R
62 0 V
780 3334 Crs
1692 3184 Crs
2225 3081 Crs
2604 3026 Crs
3810 2836 Crs
4721 2777 Crs
5927 2790 Crs
6839 2790 Crs
6321 2303 Crs
% End plot #2
% Begin plot #3
1.200 UP
1.000 UL
LT2
LCb setrgbcolor
5924 2103 M
[ [(Times) 200.0 0.0 true true 0 (s)]
[(Times) 160.0 -60.0 true true 0 (lin)]
[(Times) 200.0 0.0 true true 0 (, sorting by freq)]
] -46.7 MRshow
LT2
6044 2103 M
555 0 V
-555 31 R
0 -62 V
555 62 R
0 -62 V
780 2809 M
912 -81 V
533 1 V
379 36 V
294 34 V
912 60 V
911 3 V
1206 8 V
912 18 V
780 2764 M
0 90 V
-31 -90 R
62 0 V
-62 90 R
62 0 V
881 -164 R
0 76 V
-31 -76 R
62 0 V
-62 76 R
62 0 V
502 -73 R
0 72 V
-31 -72 R
62 0 V
-62 72 R
62 0 V
348 -35 R
0 70 V
-31 -70 R
62 0 V
-62 70 R
62 0 V
263 -36 R
0 69 V
-31 -69 R
62 0 V
-62 69 R
62 0 V
881 -6 R
0 65 V
-31 -65 R
62 0 V
-62 65 R
62 0 V
880 -63 R
0 66 V
-31 -66 R
62 0 V
-62 66 R
62 0 V
1175 -58 R
0 66 V
-31 -66 R
62 0 V
-62 66 R
62 0 V
881 -48 R
0 65 V
-31 -65 R
62 0 V
-62 65 R
62 0 V
780 2809 Star
1692 2728 Star
2225 2729 Star
2604 2765 Star
2898 2799 Star
3810 2859 Star
4721 2862 Star
5927 2870 Star
6839 2888 Star
6321 2103 Star
% End plot #3
% Begin plot #4
1.200 UP
1.000 UL
LT3
LCb setrgbcolor
5924 1903 M
[ [(Times) 200.0 0.0 true true 0 (s)]
[(Times) 160.0 -60.0 true true 0 (lin)]
[(Times) 200.0 0.0 true true 0 (, sorting by entropy)]
] -46.7 MRshow
LT3
6044 1903 M
555 0 V
-555 31 R
0 -62 V
555 62 R
0 -62 V
780 2195 M
912 260 V
780 2145 M
0 99 V
-31 -99 R
62 0 V
-62 99 R
62 0 V
881 120 R
0 182 V
-31 -182 R
62 0 V
-62 182 R
62 0 V
780 2195 Box
1692 2455 Box
6321 1903 Box
% End plot #4
% Begin plot #5
1.200 UP
1.000 UL
LT4
LCb setrgbcolor
5924 1703 M
[ [(Times) 200.0 0.0 true true 0 (s)]
[(Times) 160.0 -60.0 true true 0 (cosine)]
[(Times) 200.0 0.0 true true 0 (, sorting by pmi)]
] -46.7 MRshow
LT4
6044 1703 M
555 0 V
-555 31 R
0 -62 V
555 62 R
0 -62 V
780 2699 M
0 -929 R
0 1859 V
749 1770 M
62 0 V
749 3629 M
62 0 V
780 2699 BoxF
6321 1703 BoxF
% End plot #5
% Begin plot #6
1.200 UP
1.000 UL
LT5
LCb setrgbcolor
5924 1503 M
[ [(Times) 200.0 0.0 true true 0 (s)]
[(Times) 160.0 -60.0 true true 0 (cosine)]
[(Times) 200.0 0.0 true true 0 (, sorting by lmi)]
] -46.7 MRshow
LT5
6044 1503 M
555 0 V
-555 31 R
0 -62 V
555 62 R
0 -62 V
780 3340 M
0 -46 R
0 92 V
-31 -92 R
62 0 V
-62 92 R
62 0 V
780 3340 Circle
6321 1503 Circle
% End plot #6
% Begin plot #7
1.200 UP
1.000 UL
LT6
LCb setrgbcolor
5924 1303 M
[ [(Times) 200.0 0.0 true true 0 (s)]
[(Times) 160.0 -60.0 true true 0 (cosine)]
[(Times) 200.0 0.0 true true 0 (, sorting by freq)]
] -46.7 MRshow
LT6
6044 1303 M
555 0 V
-555 31 R
0 -62 V
555 62 R
0 -62 V
780 2797 M
5147 118 V
780 2751 M
0 91 V
-31 -91 R
62 0 V
-62 91 R
62 0 V
5116 42 R
0 63 V
-31 -63 R
62 0 V
-62 63 R
62 0 V
780 2797 CircleF
5927 2915 CircleF
6321 1303 CircleF
% End plot #7
% Begin plot #8
1.200 UP
1.000 UL
LT7
% End plot #8
% Begin plot #9
1.200 UP
1.000 UL
LT8
LCb setrgbcolor
5924 1103 M
[ [(Times) 200.0 0.0 true true 0 (s)]
[(Times) 160.0 -60.0 true true 0 (lin)]
[(Times) 200.0 0.0 true true 0 (, filtering triples by counts)]
] -46.7 MRshow
LT8
6044 1103 M
555 0 V
-555 31 R
0 -62 V
555 62 R
0 -62 V
780 2862 M
1074 -5 V
628 31 V
445 7 V
346 32 V
282 37 V
239 2 V
207 17 V
182 9 V
163 16 V
628 81 V
446 112 V
628 69 V
791 27 V
780 2829 M
0 66 V
-31 -66 R
62 0 V
-62 66 R
62 0 V
1043 -72 R
0 68 V
-31 -68 R
62 0 V
-62 68 R
62 0 V
597 -37 R
0 69 V
-31 -69 R
62 0 V
-62 69 R
62 0 V
414 -64 R
0 72 V
-31 -72 R
62 0 V
-62 72 R
62 0 V
315 -41 R
0 75 V
-31 -75 R
62 0 V
-62 75 R
62 0 V
251 -39 R
0 76 V
-31 -76 R
62 0 V
-62 76 R
62 0 V
208 -75 R
0 78 V
-31 -78 R
62 0 V
-62 78 R
62 0 V
176 -62 R
0 81 V
-31 -81 R
62 0 V
-62 81 R
62 0 V
151 -74 R
0 83 V
-31 -83 R
62 0 V
-62 83 R
62 0 V
132 -68 R
0 85 V
-31 -85 R
62 0 V
-62 85 R
62 0 V
597 -8 R
0 94 V
-31 -94 R
62 0 V
-62 94 R
62 0 V
415 15 R
0 99 V
-31 -99 R
62 0 V
-62 99 R
62 0 V
597 -38 R
0 116 V
-31 -116 R
62 0 V
-62 116 R
62 0 V
760 -113 R
0 163 V
-31 -163 R
62 0 V
-62 163 R
62 0 V
780 2862 TriUF
1854 2857 TriUF
2482 2888 TriUF
2927 2895 TriUF
3273 2927 TriUF
3555 2964 TriUF
3794 2966 TriUF
4001 2983 TriUF
4183 2992 TriUF
4346 3008 TriUF
4974 3089 TriUF
5420 3201 TriUF
6048 3270 TriUF
6839 3297 TriUF
6321 1103 TriUF
% End plot #9
% Begin plot #10
1.200 UP
1.000 UL
LT0
LCb setrgbcolor
5924 903 M
[ [(Times) 200.0 0.0 true true 0 (s)]
[(Times) 160.0 -60.0 true true 0 (cosine)]
[(Times) 200.0 0.0 true true 0 (, filtering triples by counts)]
] -46.7 MRshow
LT0
6044 903 M
555 0 V
-555 31 R
0 -62 V
555 62 R
0 -62 V
780 2901 M
1702 4 V
791 26 V
1073 76 V
1074 191 V
628 71 V
791 16 V
780 2869 M
0 64 V
-31 -64 R
62 0 V
-62 64 R
62 0 V
1671 -63 R
0 69 V
-31 -69 R
62 0 V
-62 69 R
62 0 V
760 -45 R
0 75 V
-31 -75 R
62 0 V
-62 75 R
62 0 V
1042 -5 R
0 86 V
-31 -86 R
62 0 V
-62 86 R
62 0 V
1043 99 R
0 99 V
-31 -99 R
62 0 V
-62 99 R
62 0 V
597 -37 R
0 116 V
-31 -116 R
62 0 V
-62 116 R
62 0 V
760 -125 R
0 166 V
-31 -166 R
62 0 V
-62 166 R
62 0 V
780 2901 TriD
2482 2905 TriD
3273 2931 TriD
4346 3007 TriD
5420 3198 TriD
6048 3269 TriD
6839 3285 TriD
6321 903 TriD
% End plot #10
1.000 UL
LTb
780 4139 N
780 540 L
6059 0 V
0 3599 V
-6059 0 V
Z stroke
1.200 UP
1.000 UL
LTb
stroke
grestore
end
showpage
%%Trailer
%%DocumentFonts: Times-Italic Times
%%Pages: 1
