k	found_in_th	precision	cv	recall	cv	tokens-opt	types-opt	precision-opt	cv_optimistic	recall-opt	cv_optimistic	f1	total
10	626	0.370607	0.0520855	0.034924	0.0644966	6195	1698	0.459726	0.0137733	0.428722	0.014163	0.443683	6643
20	228	0.47807	0.0691979	0.0784173	0.0919505	1370	252	0.532117	0.0253341	0.52446	0.0255405	0.528261	1390
