0	0.0
1	0.004
2	0.006
3	0.006
4	0.01
5	0.014
6	0.018
7	0.02
8	0.026
9	0.028
10	0.04
11	0.048
12	0.05
13	0.064
14	0.072
15	0.088
16	0.102
17	0.116
18	0.13
19	0.158
20	0.178
21	0.192
22	0.21
23	0.226
24	0.25
25	0.262
26	0.282
27	0.302
28	0.332
29	0.354
30	0.368
31	0.384
32	0.406
33	0.434
34	0.45
35	0.476
36	0.496
37	0.518
38	0.548
39	0.57
40	0.6
41	0.624
42	0.646
43	0.674
44	0.7
45	0.722
46	0.756
47	0.792
48	0.824
49	0.852
50	0.892
51	0.924
52	0.948
53	0.97
54	0.998
55	1.03
56	1.074
57	1.128
58	1.174
59	1.21
60	1.242
61	1.296
62	1.338
63	1.378
64	1.418
65	1.446
66	1.48
67	1.52
68	1.55
69	1.586
70	1.632
71	1.688
72	1.73
73	1.762
74	1.804
75	1.874
76	1.936
77	1.982
78	2.054
79	2.102
80	2.156
81	2.232
82	2.284
83	2.332
84	2.384
85	2.446
86	2.496
87	2.568
88	2.628
89	2.69
90	2.736
91	2.806
92	2.868
93	2.924
94	3.01
95	3.072
96	3.142
97	3.198
98	3.254
99	3.328
100	3.4
101	3.476
102	3.542
103	3.596
104	3.666
105	3.732
106	3.806
107	3.896
108	3.986
109	4.036
110	4.096
111	4.142
112	4.21
113	4.284
114	4.364
115	4.442
116	4.538
117	4.604
118	4.684
119	4.772
120	4.862
121	4.948
122	5.034
123	5.118
124	5.196
125	5.288
126	5.374
127	5.45
128	5.536
129	5.638
130	5.738
131	5.822
132	5.914
133	5.968
134	6.056
135	6.158
136	6.238
137	6.338
138	6.434
139	6.548
140	6.616
141	6.74
142	6.818
143	6.904
144	7.006
145	7.12
146	7.228
147	7.32
148	7.444
149	7.54
150	7.63
151	7.708
152	7.8
153	7.942
154	8.058
155	8.16
156	8.262
157	8.356
158	8.444
159	8.54
160	8.66
161	8.76
162	8.888
163	8.974
164	9.086
165	9.214
166	9.31
167	9.386
168	9.458
169	9.586
170	9.698
171	9.824
172	9.932
173	10.02
174	10.14
175	10.266
176	10.388
177	10.52
178	10.644
179	10.758
180	10.856
181	10.97
182	11.098
183	11.182
184	11.296
185	11.442
186	11.548
187	11.656
188	11.812
189	11.936
190	12.102
191	12.22
192	12.326
193	12.456
194	12.59
195	12.726
196	12.834
197	12.956
198	13.086
199	13.21
200	13.332
201	13.424
202	13.544
203	13.706
204	13.822
205	13.966
206	14.098
207	14.246
208	14.388
209	14.522
210	14.674
211	14.82
212	14.984
213	15.118
214	15.26
215	15.42
216	15.564
217	15.706
218	15.848
219	16.008
220	16.158
221	16.32
222	16.498
223	16.7
224	16.84
225	17.02
226	17.188
227	17.352
228	17.488
229	17.626
230	17.782
231	17.944
232	18.092
233	18.256
234	18.4
235	18.586
236	18.79
237	18.942
238	19.094
239	19.248
240	19.4
241	19.54
242	19.71
243	19.896
244	20.06
245	20.254
246	20.438
247	20.58
248	20.748
249	20.914
250	21.066
251	21.246
252	21.426
253	21.598
254	21.784
255	21.96
256	22.148
257	22.296
258	22.474
259	22.66
260	22.844
261	23.028
262	23.206
263	23.362
264	23.506
265	23.658
266	23.812
267	24.026
268	24.19
269	24.392
270	24.572
271	24.764
272	24.944
273	25.13
274	25.32
275	25.494
276	25.678
277	25.886
278	26.072
279	26.278
280	26.468
281	26.65
282	26.796
283	26.974
284	27.17
285	27.372
286	27.55
287	27.76
288	27.94
289	28.166
290	28.356
291	28.548
292	28.764
293	28.986
294	29.206
295	29.378
296	29.59
297	29.772
298	29.946
299	30.142
300	30.298
301	30.518
302	30.688
303	30.874
304	31.074
305	31.274
306	31.54
307	31.762
308	31.976
309	32.152
310	32.39
311	32.576
312	32.808
313	33.03
314	33.24
315	33.458
316	33.668
317	33.88
318	34.1
319	34.306
320	34.468
321	34.682
322	34.914
323	35.138
324	35.366
325	35.594
326	35.812
327	36.044
328	36.266
329	36.498
330	36.686
331	36.908
332	37.1
333	37.314
334	37.556
335	37.8
336	38.056
337	38.298
338	38.514
339	38.712
340	38.902
341	39.13
342	39.366
343	39.604
344	39.812
345	40.024
346	40.262
347	40.454
348	40.72
349	40.944
350	41.186
351	41.43
352	41.666
353	41.896
354	42.11
355	42.354
356	42.612
357	42.832
358	43.012
359	43.252
360	43.484
361	43.7
362	43.926
363	44.134
364	44.34
365	44.624
366	44.898
367	45.17
368	45.412
369	45.652
370	45.916
371	46.164
372	46.4
373	46.65
374	46.89
375	47.134
376	47.414
377	47.668
378	47.912
379	48.176
380	48.418
381	48.656
382	48.9
383	49.11
384	49.382
385	49.634
386	49.892
387	50.13
388	50.388
389	50.618
390	50.858
391	51.138
392	51.39
393	51.624
394	51.868
395	52.172
396	52.46
397	52.694
398	52.98
399	53.27
400	53.532
401	53.796
402	54.044
403	54.312
404	54.606
405	54.862
406	55.156
407	55.414
408	55.716
409	55.992
410	56.282
411	56.548
412	56.83
413	57.11
414	57.398
415	57.672
416	57.964
417	58.274
418	58.55
419	58.83
420	59.1
421	59.384
422	59.678
423	59.952
424	60.246
425	60.508
426	60.808
427	61.102
428	61.366
429	61.644
430	61.902
431	62.128
432	62.38
433	62.672
434	62.968
435	63.274
436	63.574
437	63.916
438	64.234
439	64.518
440	64.778
441	65.04
442	65.32
443	65.596
444	65.888
445	66.158
446	66.454
447	66.746
448	67.084
449	67.394
450	67.68
451	67.976
452	68.28
453	68.534
454	68.848
455	69.136
456	69.462
457	69.778
458	70.072
459	70.366
460	70.668
461	70.99
462	71.294
463	71.564
464	71.882
465	72.194
466	72.486
467	72.798
468	73.122
469	73.44
470	73.738
471	74.054
472	74.366
473	74.7
474	75.068
475	75.402
476	75.724
477	76.046
478	76.354
479	76.638
480	77.026
481	77.318
482	77.63
483	77.92
484	78.276
485	78.626
486	78.956
487	79.256
488	79.608
489	79.914
490	80.27
491	80.592
492	80.95
493	81.314
494	81.588
495	81.908
496	82.216
497	82.574
498	82.894
499	83.21
500	83.552
501	83.89
502	84.192
503	84.53
504	84.922
505	85.264
506	85.628
507	85.986
508	86.332
509	86.66
510	87.018
511	87.398
512	87.736
513	88.036
514	88.37
515	88.712
516	89.054
517	89.398
518	89.726
519	90.05
520	90.46
521	90.828
522	91.172
523	91.542
524	91.896
525	92.262
526	92.604
527	92.964
528	93.316
529	93.704
530	94.038
531	94.43
532	94.774
533	95.076
534	95.43
535	95.822
536	96.186
537	96.518
538	96.898
539	97.268
540	97.646
541	97.97
542	98.292
543	98.666
544	99.03
545	99.37
546	99.796
547	100.168
548	100.552
549	100.904
550	101.25
551	101.64
552	102.044
553	102.44
554	102.828
555	103.188
556	103.58
557	103.968
558	104.34
559	104.746
560	105.146
561	105.506
562	105.878
563	106.312
564	106.664
565	107.03
566	107.432
567	107.81
568	108.218
569	108.562
570	108.926
571	109.316
572	109.728
573	110.064
574	110.466
575	110.856
576	111.25
577	111.644
578	112.022
579	112.38
580	112.768
581	113.154
582	113.524
583	113.938
584	114.328
585	114.688
586	115.122
587	115.49
588	115.9
589	116.306
590	116.744
591	117.136
592	117.53
593	117.888
594	118.352
595	118.732
596	119.114
597	119.504
598	119.866
599	120.278
600	120.682
601	121.072
602	121.422
603	121.818
604	122.198
605	122.61
606	123.058
607	123.436
608	123.834
609	124.25
610	124.658
611	125.108
612	125.55
613	125.976
614	126.4
615	126.82
616	127.23
617	127.618
618	128.038
619	128.46
620	128.832
621	129.24
622	129.674
623	130.054
624	130.484
625	130.914
626	131.344
627	131.766
628	132.168
629	132.562
630	132.986
631	133.38
632	133.818
633	134.238
634	134.632
635	135.048
636	135.474
637	135.88
638	136.32
639	136.756
640	137.16
641	137.58
642	138.014
643	138.428
644	138.852
645	139.326
646	139.722
647	140.148
648	140.61
649	141.058
650	141.478
651	141.904
652	142.356
653	142.78
654	143.236
655	143.66
656	144.11
657	144.574
658	144.976
659	145.392
660	145.81
661	146.23
662	146.662
663	147.054
664	147.5
665	147.946
666	148.4
667	148.814
668	149.302
669	149.75
670	150.18
671	150.616
672	151.05
673	151.508
674	151.938
675	152.376
676	152.79
677	153.27
678	153.724
679	154.192
680	154.662
681	155.11
682	155.524
683	156.028
684	156.494
685	156.96
686	157.442
687	157.94
688	158.39
689	158.838
690	159.308
691	159.81
692	160.266
693	160.71
694	161.208
695	161.652
696	162.124
697	162.586
698	163.044
699	163.51
700	163.942
701	164.418
702	164.91
703	165.406
704	165.866
705	166.362
706	166.844
707	167.306
708	167.8
709	168.278
710	168.744
711	169.222
712	169.764
713	170.208
714	170.722
715	171.156
716	171.66
717	172.156
718	172.662
719	173.14
720	173.564
721	174.048
722	174.538
723	174.988
724	175.446
725	175.906
726	176.392
727	176.87
728	177.39
729	177.89
730	178.4
731	178.902
732	179.364
733	179.846
734	180.366
735	180.87
736	181.324
737	181.842
738	182.354
739	182.85
740	183.344
741	183.826
742	184.324
743	184.85
744	185.37
745	185.864
746	186.39
747	186.86
748	187.338
749	187.822
750	188.326
751	188.81
752	189.308
753	189.86
754	190.404
755	190.894
756	191.332
757	191.914
758	192.404
759	192.92
760	193.414
761	193.926
762	194.488
763	194.986
764	195.502
765	195.984
766	196.52
767	196.976
768	197.464
769	197.966
770	198.478
771	199.04
772	199.604
773	200.11
774	200.636
775	201.206
776	201.724
777	202.248
778	202.742
779	203.292
780	203.844
781	204.33
782	204.84
783	205.296
784	205.828
785	206.362
786	206.848
787	207.388
788	207.902
789	208.38
790	208.898
791	209.392
792	209.904
793	210.436
794	210.97
795	211.528
796	212.028
797	212.574
798	213.078
799	213.604
800	214.13
801	214.658
802	215.22
803	215.782
804	216.316
805	216.82
806	217.428
807	217.962
808	218.532
809	219.058
810	219.618
811	220.126
812	220.694
813	221.202
814	221.712
815	222.22
816	222.776
817	223.328
818	223.86
819	224.43
820	224.972
821	225.524
822	226.034
823	226.566
824	227.088
825	227.656
826	228.196
827	228.708
828	229.258
829	229.836
830	230.346
831	230.884
832	231.428
833	231.932
834	232.494
835	233.058
836	233.602
837	234.186
838	234.792
839	235.32
840	235.924
841	236.448
842	237.04
843	237.552
844	238.126
845	238.66
846	239.25
847	239.784
848	240.33
849	240.906
850	241.476
851	242.026
852	242.588
853	243.2
854	243.792
855	244.4
856	245.0
857	245.628
858	246.198
859	246.772
860	247.37
861	247.958
862	248.512
863	249.094
864	249.706
865	250.314
866	250.908
867	251.506
868	252.106
869	252.672
870	253.208
871	253.814
872	254.372
873	254.93
874	255.57
875	256.2
876	256.802
877	257.42
878	257.95
879	258.584
880	259.154
881	259.698
882	260.282
883	260.87
884	261.42
885	261.968
886	262.53
887	263.182
888	263.758
889	264.32
890	264.91
891	265.502
892	266.088
893	266.644
894	267.224
895	267.83
896	268.43
897	269.016
898	269.562
899	270.186
900	270.76
901	271.39
902	271.998
903	272.644
904	273.258
905	273.88
906	274.462
907	275.084
908	275.722
909	276.368
910	276.992
911	277.588
912	278.192
913	278.812
914	279.414
915	279.994
916	280.58
917	281.186
918	281.792
919	282.376
920	282.974
921	283.59
922	284.236
923	284.886
924	285.474
925	286.086
926	286.684
927	287.308
928	287.958
929	288.594
930	289.218
931	289.802
932	290.41
933	291.086
934	291.716
935	292.326
936	292.928
937	293.524
938	294.142
939	294.782
940	295.454
941	296.01
942	296.65
943	297.29
944	297.94
945	298.544
946	299.156
947	299.818
948	300.442
949	301.09
950	301.722
951	302.38
952	302.99
953	303.624
954	304.23
955	304.886
956	305.502
957	306.178
958	306.772
959	307.408
960	308.024
961	308.66
962	309.256
963	309.932
964	310.556
965	311.154
966	311.794
967	312.498
968	313.154
969	313.814
970	314.494
971	315.192
972	315.838
973	316.528
974	317.188
975	317.852
976	318.492
977	319.108
978	319.74
979	320.366
980	321.042
981	321.68
982	322.33
983	322.982
984	323.56
985	324.194
986	324.89
987	325.578
988	326.22
989	326.896
990	327.582
991	328.238
992	328.944
993	329.6
994	330.276
995	330.942
996	331.648
997	332.268
998	332.872
999	333.528
1000	334.164
1001	334.868
1002	335.556
1003	336.216
1004	336.888
1005	337.532
1006	338.158
1007	338.83
1008	339.486
1009	340.182
1010	340.882
1011	341.574
1012	342.28
1013	342.992
1014	343.612
1015	344.216
1016	344.86
1017	345.55
1018	346.224
1019	346.874
1020	347.572
1021	348.234
1022	348.918
1023	349.612
1024	350.286
1025	350.966
1026	351.584
1027	352.292
1028	352.984
1029	353.634
1030	354.334
1031	354.98
1032	355.632
1033	356.288
1034	356.908
1035	357.606
1036	358.27
1037	358.95
1038	359.664
1039	360.338
1040	361.076
1041	361.786
1042	362.478
1043	363.18
1044	363.874
1045	364.542
1046	365.226
1047	365.898
1048	366.578
1049	367.214
1050	367.872
1051	368.546
1052	369.238
1053	369.968
1054	370.672
1055	371.402
1056	372.086
1057	372.796
1058	373.502
1059	374.242
1060	374.9
1061	375.608
1062	376.308
1063	376.998
1064	377.732
1065	378.454
1066	379.194
1067	379.904
1068	380.648
1069	381.362
1070	382.05
1071	382.788
1072	383.548
1073	384.282
1074	384.998
1075	385.744
1076	386.454
1077	387.234
1078	387.956
1079	388.674
1080	389.416
1081	390.166
1082	390.904
1083	391.636
1084	392.384
1085	393.044
1086	393.766
1087	394.476
1088	395.246
1089	396.028
1090	396.788
1091	397.536
1092	398.28
1093	399.014
1094	399.75
1095	400.546
1096	401.23
1097	401.988
1098	402.716
1099	403.456
1100	404.208
1101	405.004
1102	405.75
1103	406.464
1104	407.206
1105	407.908
1106	408.626
1107	409.304
1108	410.07
1109	410.804
1110	411.524
1111	412.296
1112	413.1
1113	413.82
1114	414.562
1115	415.346
1116	416.094
1117	416.86
1118	417.646
1119	418.398
1120	419.154
1121	419.906
1122	420.696
1123	421.436
1124	422.17
1125	422.94
1126	423.696
1127	424.458
1128	425.228
1129	425.988
1130	426.746
1131	427.514
1132	428.254
1133	429.012
1134	429.862
1135	430.61
1136	431.412
1137	432.194
1138	432.91
1139	433.654
1140	434.43
1141	435.194
1142	435.962
1143	436.738
1144	437.492
1145	438.278
1146	439.06
1147	439.79
1148	440.596
1149	441.344
1150	442.086
1151	442.868
1152	443.636
1153	444.362
1154	445.164
1155	445.898
1156	446.704
1157	447.466
1158	448.214
1159	449.018
1160	449.822
1161	450.582
1162	451.276
1163	452.06
1164	452.844
1165	453.628
1166	454.458
1167	455.242
1168	456.06
1169	456.86
1170	457.694
1171	458.462
1172	459.252
1173	460.064
1174	460.85
1175	461.618
1176	462.434
1177	463.19
1178	463.95
1179	464.736
1180	465.526
1181	466.304
1182	467.102
1183	467.828
1184	468.576
1185	469.322
1186	470.104
1187	470.922
1188	471.696
1189	472.494
1190	473.242
1191	474.022
1192	474.768
1193	475.588
1194	476.396
1195	477.246
1196	478.056
1197	478.866
1198	479.638
1199	480.498
1200	481.344
1201	482.122
1202	482.892
1203	483.728
1204	484.518
1205	485.294
1206	486.038
1207	486.878
1208	487.74
1209	488.57
1210	489.358
1211	490.18
1212	490.962
1213	491.788
1214	492.602
1215	493.39
1216	494.26
1217	495.088
1218	495.91
1219	496.75
1220	497.576
1221	498.398
1222	499.196
1223	500.046
1224	500.886
1225	501.724
1226	502.552
1227	503.38
1228	504.152
1229	504.998
1230	505.874
1231	506.692
1232	507.502
1233	508.33
1234	509.156
1235	509.934
1236	510.776
1237	511.62
1238	512.436
1239	513.256
1240	514.136
1241	514.942
1242	515.776
1243	516.608
1244	517.454
1245	518.276
1246	519.066
1247	519.948
1248	520.822
1249	521.634
1250	522.494
1251	523.28
1252	524.17
1253	525.034
1254	525.874
1255	526.734
1256	527.548
1257	528.396
1258	529.202
1259	530.07
1260	530.882
1261	531.73
1262	532.558
1263	533.388
1264	534.19
1265	535.052
1266	535.796
1267	536.62
1268	537.524
1269	538.372
1270	539.222
1271	540.092
1272	540.918
1273	541.752
1274	542.612
1275	543.464
1276	544.308
1277	545.118
1278	545.958
1279	546.81
1280	547.706
1281	548.55
1282	549.37
1283	550.23
1284	551.094
1285	551.96
1286	552.756
1287	553.69
1288	554.518
1289	555.384
1290	556.244
1291	557.088
1292	557.93
1293	558.776
1294	559.64
1295	560.57
1296	561.476
1297	562.332
1298	563.254
1299	564.166
1300	565.054
1301	565.942
1302	566.832
1303	567.734
1304	568.62
1305	569.476
1306	570.378
1307	571.278
1308	572.176
1309	573.026
1310	573.902
1311	574.766
1312	575.618
1313	576.476
1314	577.362
1315	578.214
1316	579.114
1317	580.042
1318	580.868
1319	581.746
1320	582.624
1321	583.508
1322	584.334
1323	585.206
1324	586.072
1325	586.936
1326	587.826
1327	588.752
1328	589.636
1329	590.516
1330	591.406
1331	592.284
1332	593.182
1333	594.036
1334	594.874
1335	595.754
1336	596.59
1337	597.51
1338	598.386
1339	599.338
1340	600.262
1341	601.154
1342	602.038
1343	602.928
1344	603.828
1345	604.708
1346	605.54
1347	606.448
1348	607.344
1349	608.228
1350	609.106
1351	610.022
1352	610.864
1353	611.822
1354	612.778
1355	613.664
1356	614.594
1357	615.492
1358	616.426
1359	617.292
1360	618.19
1361	619.126
1362	620.03
1363	620.974
1364	621.912
1365	622.802
1366	623.77
1367	624.712
1368	625.664
1369	626.58
1370	627.436
1371	628.314
1372	629.222
1373	630.096
1374	630.976
1375	631.96
1376	632.846
1377	633.77
1378	634.66
1379	635.592
1380	636.56
1381	637.47
1382	638.43
1383	639.358
1384	640.304
1385	641.24
1386	642.17
1387	643.104
1388	644.024
1389	644.922
1390	645.82
1391	646.794
1392	647.73
1393	648.688
1394	649.63
1395	650.58
1396	651.488
1397	652.402
1398	653.36
1399	654.28
1400	655.2
1401	656.132
1402	657.078
1403	658.026
1404	659.006
1405	659.954
1406	660.876
1407	661.822
1408	662.77
1409	663.74
1410	664.68
1411	665.652
1412	666.62
1413	667.496
1414	668.424
1415	669.366
1416	670.304
1417	671.274
1418	672.278
1419	673.142
1420	674.1
1421	675.04
1422	675.976
1423	676.956
1424	677.908
1425	678.888
1426	679.862
1427	680.83
1428	681.78
1429	682.752
1430	683.692
1431	684.596
1432	685.506
1433	686.452
1434	687.374
1435	688.34
1436	689.294
1437	690.26
1438	691.274
1439	692.234
1440	693.216
1441	694.18
1442	695.182
1443	696.194
1444	697.162
1445	698.124
1446	699.034
1447	699.992
1448	700.968
1449	701.92
1450	702.908
1451	703.868
1452	704.81
1453	705.736
1454	706.688
1455	707.684
1456	708.684
1457	709.648
1458	710.632
1459	711.546
1460	712.498
1461	713.43
1462	714.468
1463	715.442
1464	716.438
1465	717.382
1466	718.43
1467	719.446
1468	720.448
1469	721.462
1470	722.422
1471	723.43
1472	724.458
1473	725.444
1474	726.42
1475	727.348
1476	728.262
1477	729.256
1478	730.224
1479	731.18
1480	732.148
1481	733.18
1482	734.182
1483	735.136
1484	736.154
1485	737.106
1486	738.164
1487	739.144
1488	740.084
1489	741.07
1490	742.078
1491	743.094
1492	744.144
1493	745.166
1494	746.162
1495	747.118
1496	748.058
1497	748.982
1498	749.97
1499	750.93
1500	751.954
1501	753.018
1502	753.968
1503	754.994
1504	755.954
1505	756.918
1506	757.966
1507	758.964
1508	759.96
1509	760.98
1510	762.018
1511	763.008
1512	764.016
1513	765.004
1514	766.0
1515	767.022
1516	768.044
1517	769.018
1518	770.03
1519	771.056
1520	772.068
1521	773.074
1522	774.06
1523	775.068
1524	776.112
1525	777.134
1526	778.136
1527	779.17
1528	780.21
1529	781.254
1530	782.298
1531	783.34
1532	784.328
1533	785.37
1534	786.378
1535	787.382
1536	788.344
1537	789.348
1538	790.394
1539	791.434
1540	792.446
1541	793.442
1542	794.518
1543	795.528
1544	796.626
1545	797.604
1546	798.632
1547	799.64
1548	800.674
1549	801.696
1550	802.646
1551	803.698
1552	804.708
1553	805.77
1554	806.79
1555	807.828
1556	808.894
1557	810.016
1558	811.048
1559	812.006
1560	813.072
1561	814.136
1562	815.154
1563	816.17
1564	817.186
1565	818.288
1566	819.332
1567	820.36
1568	821.382
1569	822.45
1570	823.514
1571	824.562
1572	825.684
1573	826.728
1574	827.8
1575	828.876
1576	829.916
1577	831.006
1578	832.036
1579	833.096
1580	834.19
1581	835.25
1582	836.33
1583	837.372
1584	838.452
1585	839.456
1586	840.538
1587	841.61
1588	842.672
1589	843.786
1590	844.852
1591	845.952
1592	846.998
1593	848.05
1594	849.128
1595	850.176
1596	851.234
1597	852.294
1598	853.426
1599	854.554
1600	855.658
1601	856.754
1602	857.782
1603	858.844
1604	859.862
1605	860.886
1606	861.97
1607	863.03
1608	864.054
1609	865.15
1610	866.224
1611	867.266
1612	868.374
1613	869.46
1614	870.524
1615	871.556
1616	872.59
1617	873.67
1618	874.71
1619	875.804
1620	876.894
1621	877.962
1622	878.976
1623	880.112
1624	881.168
1625	882.252
1626	883.334
1627	884.39
1628	885.49
1629	886.568
1630	887.66
1631	888.738
1632	889.782
1633	890.912
1634	891.99
1635	893.07
1636	894.138
1637	895.252
1638	896.366
1639	897.488
1640	898.586
1641	899.704
1642	900.798
1643	901.928
1644	903.076
1645	904.162
1646	905.236
1647	906.354
1648	907.39
1649	908.514
1650	909.578
1651	910.718
1652	911.814
1653	912.918
1654	914.086
1655	915.206
1656	916.272
1657	917.384
1658	918.452
1659	919.562
1660	920.644
1661	921.74
1662	922.872
1663	923.932
1664	925.028
1665	926.142
1666	927.272
1667	928.396
1668	929.522
1669	930.632
1670	931.718
1671	932.776
1672	933.884
1673	935.006
1674	936.088
1675	937.254
1676	938.382
1677	939.548
1678	940.702
1679	941.848
1680	942.974
1681	944.05
1682	945.162
1683	946.274
1684	947.432
1685	948.496
1686	949.538
1687	950.648
1688	951.748
1689	952.876
1690	953.96
1691	955.05
1692	956.228
1693	957.37
1694	958.488
1695	959.6
1696	960.758
1697	961.892
1698	963.008
1699	964.136
1700	965.272
1701	966.404
1702	967.542
1703	968.63
1704	969.786
1705	970.848
1706	971.984
1707	973.064
1708	974.198
1709	975.35
1710	976.476
1711	977.636
1712	978.77
1713	979.902
1714	981.044
1715	982.192
1716	983.356
1717	984.498
1718	985.712
1719	986.828
1720	987.988
1721	989.102
1722	990.276
1723	991.47
1724	992.578
1725	993.752
1726	994.872
1727	996.004
1728	997.192
1729	998.364
1730	999.542
1731	1000.658
1732	1001.85
1733	1002.972
1734	1004.086
1735	1005.236
1736	1006.394
1737	1007.594
1738	1008.746
1739	1009.9
1740	1011.012
1741	1012.168
1742	1013.338
1743	1014.508
1744	1015.668
1745	1016.866
1746	1018.074
1747	1019.262
1748	1020.44
1749	1021.562
1750	1022.712
1751	1023.876
1752	1024.972
1753	1026.172
1754	1027.334
1755	1028.484
1756	1029.638
1757	1030.856
1758	1032.056
1759	1033.236
1760	1034.318
1761	1035.48
1762	1036.62
1763	1037.812
1764	1039.024
1765	1040.172
1766	1041.366
1767	1042.584
1768	1043.778
1769	1044.95
1770	1046.096
1771	1047.252
1772	1048.472
1773	1049.63
1774	1050.832
1775	1051.978
1776	1053.192
1777	1054.338
1778	1055.544
1779	1056.716
1780	1057.848
1781	1059.04
1782	1060.248
1783	1061.442
1784	1062.646
1785	1063.834
1786	1064.994
1787	1066.172
1788	1067.358
1789	1068.574
1790	1069.724
1791	1070.866
1792	1072.114
1793	1073.356
1794	1074.622
1795	1075.786
1796	1076.994
1797	1078.17
1798	1079.372
1799	1080.528
1800	1081.72
1801	1082.906
1802	1084.088
1803	1085.3
1804	1086.498
1805	1087.68
1806	1088.854
1807	1090.048
1808	1091.226
1809	1092.374
1810	1093.586
1811	1094.78
1812	1096.018
1813	1097.254
1814	1098.452
1815	1099.624
1816	1100.852
1817	1102.082
1818	1103.286
1819	1104.462
1820	1105.678
1821	1106.866
1822	1108.096
1823	1109.342
1824	1110.638
1825	1111.862
1826	1113.104
1827	1114.274
1828	1115.516
1829	1116.742
1830	1117.974
1831	1119.22
1832	1120.43
1833	1121.598
1834	1122.792
1835	1124.016
1836	1125.258
1837	1126.462
1838	1127.72
1839	1128.942
1840	1130.204
1841	1131.464
1842	1132.658
1843	1133.9
1844	1135.068
1845	1136.288
1846	1137.512
1847	1138.756
1848	1139.994
1849	1141.194
1850	1142.432
1851	1143.626
1852	1144.89
1853	1146.124
1854	1147.4
1855	1148.572
1856	1149.788
1857	1150.988
1858	1152.234
1859	1153.468
1860	1154.682
1861	1155.906
1862	1157.166
1863	1158.378
1864	1159.59
1865	1160.844
1866	1162.11
1867	1163.314
1868	1164.574
1869	1165.86
1870	1167.09
1871	1168.352
1872	1169.572
1873	1170.824
1874	1172.022
1875	1173.246
1876	1174.444
1877	1175.706
1878	1176.902
1879	1178.162
1880	1179.424
1881	1180.714
1882	1181.922
1883	1183.18
1884	1184.44
1885	1185.684
1886	1186.986
1887	1188.246
1888	1189.534
1889	1190.796
1890	1192.108
1891	1193.388
1892	1194.63
1893	1195.898
1894	1197.216
1895	1198.462
1896	1199.706
1897	1200.956
1898	1202.204
1899	1203.48
1900	1204.726
1901	1205.976
1902	1207.204
1903	1208.472
1904	1209.764
1905	1210.996
1906	1212.256
1907	1213.54
1908	1214.796
1909	1216.084
1910	1217.36
1911	1218.654
1912	1219.946
1913	1221.212
1914	1222.466
1915	1223.732
1916	1224.998
1917	1226.262
1918	1227.538
1919	1228.784
1920	1230.084
1921	1231.362
1922	1232.616
1923	1233.862
1924	1235.18
1925	1236.514
1926	1237.694
1927	1239.002
1928	1240.28
1929	1241.6
1930	1242.866
1931	1244.14
1932	1245.37
1933	1246.636
1934	1247.92
1935	1249.192
1936	1250.482
1937	1251.814
1938	1253.12
1939	1254.418
1940	1255.688
1941	1256.996
1942	1258.25
1943	1259.526
1944	1260.808
1945	1262.092
1946	1263.414
1947	1264.722
1948	1266.004
1949	1267.31
1950	1268.626
1951	1269.968
1952	1271.304
1953	1272.588
1954	1273.898
1955	1275.158
1956	1276.464
1957	1277.744
1958	1279.056
1959	1280.35
1960	1281.644
1961	1282.994
1962	1284.286
1963	1285.586
1964	1286.9
1965	1288.228
1966	1289.568
1967	1290.834
1968	1292.124
1969	1293.432
1970	1294.75
1971	1296.06
1972	1297.364
1973	1298.686
1974	1300.028
1975	1301.344
1976	1302.686
1977	1304.028
1978	1305.326
1979	1306.628
1980	1307.934
1981	1309.228
1982	1310.558
1983	1311.852
1984	1313.184
1985	1314.562
1986	1315.84
1987	1317.198
1988	1318.508
1989	1319.81
1990	1321.114
1991	1322.412
1992	1323.762
1993	1325.114
1994	1326.424
1995	1327.794
1996	1329.132
1997	1330.478
1998	1331.852
1999	1333.152
2000	1334.456
2001	1335.786
2002	1337.124
2003	1338.456
2004	1339.78
2005	1341.126
2006	1342.456
2007	1343.802
2008	1345.15
2009	1346.464
2010	1347.762
2011	1349.112
2012	1350.442
2013	1351.794
2014	1353.132
2015	1354.502
2016	1355.774
2017	1357.08
2018	1358.392
2019	1359.738
2020	1361.068
2021	1362.434
2022	1363.782
2023	1365.172
2024	1366.498
2025	1367.916
2026	1369.268
2027	1370.616
2028	1371.924
2029	1373.25
2030	1374.584
2031	1375.89
2032	1377.268
2033	1378.642
2034	1380.002
2035	1381.358
2036	1382.744
2037	1384.112
2038	1385.464
2039	1386.832
2040	1388.164
2041	1389.552
2042	1390.996
2043	1392.336
2044	1393.692
2045	1395.07
2046	1396.412
2047	1397.748
2048	1399.098
2049	1400.518
2050	1401.878
2051	1403.266
2052	1404.608
2053	1405.996
2054	1407.354
2055	1408.652
2056	1409.988
2057	1411.354
2058	1412.722
2059	1414.114
2060	1415.474
2061	1416.896
2062	1418.308
2063	1419.654
2064	1421.004
2065	1422.348
2066	1423.714
2067	1425.104
2068	1426.474
2069	1427.856
2070	1429.246
2071	1430.586
2072	1432.016
2073	1433.404
2074	1434.758
2075	1436.168
2076	1437.578
2077	1438.95
2078	1440.294
2079	1441.7
2080	1443.042
2081	1444.406
2082	1445.784
2083	1447.204
2084	1448.612
2085	1450.01
2086	1451.418
2087	1452.826
2088	1454.22
2089	1455.632
2090	1456.946
2091	1458.342
2092	1459.744
2093	1461.15
2094	1462.52
2095	1463.912
2096	1465.286
2097	1466.64
2098	1468.036
2099	1469.42
2100	1470.826
2101	1472.212
2102	1473.594
2103	1474.982
2104	1476.348
2105	1477.76
2106	1479.188
2107	1480.59
2108	1481.99
2109	1483.338
2110	1484.78
2111	1486.152
2112	1487.604
2113	1489.014
2114	1490.388
2115	1491.83
2116	1493.244
2117	1494.63
2118	1496.042
2119	1497.448
2120	1498.84
2121	1500.266
2122	1501.716
2123	1503.162
2124	1504.566
2125	1505.986
2126	1507.366
2127	1508.802
2128	1510.222
2129	1511.67
2130	1513.108
2131	1514.506
2132	1515.904
2133	1517.284
2134	1518.7
2135	1520.13
2136	1521.572
2137	1523.03
2138	1524.47
2139	1525.854
2140	1527.276
2141	1528.712
2142	1530.17
2143	1531.582
2144	1533.044
2145	1534.508
2146	1536.012
2147	1537.468
2148	1538.91
2149	1540.388
2150	1541.852
2151	1543.3
2152	1544.75
2153	1546.118
2154	1547.54
2155	1549.0
2156	1550.432
2157	1551.854
2158	1553.276
2159	1554.71
2160	1556.138
2161	1557.604
2162	1559.042
2163	1560.498
2164	1561.96
2165	1563.398
2166	1564.882
2167	1566.304
2168	1567.734
2169	1569.188
2170	1570.63
2171	1572.086
2172	1573.514
2173	1574.92
2174	1576.364
2175	1577.83
2176	1579.312
2177	1580.77
2178	1582.254
2179	1583.712
2180	1585.134
2181	1586.6
2182	1588.07
2183	1589.554
2184	1591.02
2185	1592.498
2186	1593.99
2187	1595.412
2188	1596.932
2189	1598.436
2190	1599.882
2191	1601.354
2192	1602.876
2193	1604.342
2194	1605.818
2195	1607.29
2196	1608.746
2197	1610.208
2198	1611.682
2199	1613.12
2200	1614.604
2201	1616.092
2202	1617.526
2203	1618.958
2204	1620.394
2205	1621.882
2206	1623.318
2207	1624.818
2208	1626.306
2209	1627.772
2210	1629.228
2211	1630.704
2212	1632.216
2213	1633.72
2214	1635.184
2215	1636.674
2216	1638.19
2217	1639.726
2218	1641.218
2219	1642.678
2220	1644.156
2221	1645.582
2222	1647.02
2223	1648.53
2224	1649.998
2225	1651.464
2226	1652.91
2227	1654.386
2228	1655.824
2229	1657.296
2230	1658.778
2231	1660.276
2232	1661.794
2233	1663.286
2234	1664.794
2235	1666.272
2236	1667.748
2237	1669.192
2238	1670.728
2239	1672.224
2240	1673.744
2241	1675.224
2242	1676.734
2243	1678.226
2244	1679.7
2245	1681.21
2246	1682.72
2247	1684.208
2248	1685.702
2249	1687.194
2250	1688.756
2251	1690.246
2252	1691.786
2253	1693.288
2254	1694.79
2255	1696.262
2256	1697.794
2257	1699.328
2258	1700.808
2259	1702.356
2260	1703.848
2261	1705.358
2262	1706.868
2263	1708.41
2264	1709.91
2265	1711.414
2266	1712.92
2267	1714.418
2268	1715.918
2269	1717.43
2270	1718.908
2271	1720.424
2272	1721.96
2273	1723.468
2274	1725.012
2275	1726.462
2276	1727.998
2277	1729.492
2278	1731.072
2279	1732.588
2280	1734.098
2281	1735.606
2282	1737.118
2283	1738.648
2284	1740.194
2285	1741.704
2286	1743.24
2287	1744.79
2288	1746.296
2289	1747.824
2290	1749.356
2291	1750.872
2292	1752.408
2293	1753.948
2294	1755.47
2295	1756.986
2296	1758.53
2297	1760.082
2298	1761.626
2299	1763.144
2300	1764.672
2301	1766.176
2302	1767.704
2303	1769.27
2304	1770.742
2305	1772.282
2306	1773.8
2307	1775.334
2308	1776.866
2309	1778.386
2310	1779.952
2311	1781.538
2312	1783.052
2313	1784.524
2314	1786.072
2315	1787.61
2316	1789.19
2317	1790.736
2318	1792.238
2319	1793.786
2320	1795.33
2321	1796.91
2322	1798.49
2323	1800.026
2324	1801.556
2325	1803.128
2326	1804.714
2327	1806.268
2328	1807.796
2329	1809.306
2330	1810.854
2331	1812.442
2332	1814.002
2333	1815.53
2334	1817.068
2335	1818.6
2336	1820.198
2337	1821.752
2338	1823.314
2339	1824.848
2340	1826.446
2341	1828.04
2342	1829.644
2343	1831.196
2344	1832.79
2345	1834.38
2346	1835.928
2347	1837.488
2348	1839.028
2349	1840.574
2350	1842.16
2351	1843.724
2352	1845.294
2353	1846.892
2354	1848.486
2355	1850.026
2356	1851.594
2357	1853.204
2358	1854.778
2359	1856.316
2360	1857.914
2361	1859.506
2362	1861.074
2363	1862.664
2364	1864.258
2365	1865.766
2366	1867.336
2367	1868.98
2368	1870.568
2369	1872.204
2370	1873.814
2371	1875.4
2372	1876.952
2373	1878.536
2374	1880.124
2375	1881.732
2376	1883.324
2377	1884.9
2378	1886.54
2379	1888.126
2380	1889.716
2381	1891.302
2382	1892.9
2383	1894.484
2384	1896.074
2385	1897.674
2386	1899.3
2387	1900.884
2388	1902.482
2389	1904.108
2390	1905.686
2391	1907.272
2392	1908.906
2393	1910.466
2394	1912.06
2395	1913.68
2396	1915.268
2397	1916.858
2398	1918.456
2399	1920.08
2400	1921.698
2401	1923.288
2402	1924.922
2403	1926.58
2404	1928.208
2405	1929.824
2406	1931.422
2407	1933.026
2408	1934.594
2409	1936.17
2410	1937.764
2411	1939.388
2412	1941.0
2413	1942.6
2414	1944.204
2415	1945.854
2416	1947.444
2417	1949.06
2418	1950.654
2419	1952.292
2420	1953.88
2421	1955.478
2422	1957.138
2423	1958.754
2424	1960.422
2425	1962.028
2426	1963.616
2427	1965.21
2428	1966.822
2429	1968.494
2430	1970.094
2431	1971.712
2432	1973.29
2433	1974.898
2434	1976.514
2435	1978.128
2436	1979.776
2437	1981.386
2438	1983.028
2439	1984.664
2440	1986.276
2441	1987.904
2442	1989.5
2443	1991.108
2444	1992.724
2445	1994.322
2446	1995.962
2447	1997.566
2448	1999.206
2449	2000.848
2450	2002.502
2451	2004.094
2452	2005.712
2453	2007.314
2454	2008.948
2455	2010.576
2456	2012.22
2457	2013.868
2458	2015.484
2459	2017.136
2460	2018.768
2461	2020.392
2462	2022.018
2463	2023.612
2464	2025.246
2465	2026.904
2466	2028.556
2467	2030.212
2468	2031.816
2469	2033.428
2470	2035.044
2471	2036.704
2472	2038.346
2473	2040.008
2474	2041.632
2475	2043.234
2476	2044.884
2477	2046.57
2478	2048.248
2479	2049.924
2480	2051.596
2481	2053.28
2482	2054.906
2483	2056.546
2484	2058.202
2485	2059.854
2486	2061.532
2487	2063.194
2488	2064.878
2489	2066.548
2490	2068.21
2491	2069.854
2492	2071.496
2493	2073.178
2494	2074.886
2495	2076.534
2496	2078.2
2497	2079.884
2498	2081.536
2499	2083.216
2500	2084.916
2501	2086.608
2502	2088.286
2503	2089.962
2504	2091.658
2505	2093.312
2506	2095.014
2507	2096.666
2508	2098.296
2509	2099.962
2510	2101.596
2511	2103.296
2512	2104.992
2513	2106.66
2514	2108.344
2515	2110.01
2516	2111.706
2517	2113.406
2518	2115.08
2519	2116.758
2520	2118.424
2521	2120.126
2522	2121.828
2523	2123.512
2524	2125.216
2525	2126.914
2526	2128.602
2527	2130.314
2528	2131.996
2529	2133.686
2530	2135.378
2531	2137.102
2532	2138.818
2533	2140.474
2534	2142.144
2535	2143.814
2536	2145.49
2537	2147.204
2538	2148.91
2539	2150.57
2540	2152.254
2541	2153.95
2542	2155.678
2543	2157.358
2544	2159.066
2545	2160.768
2546	2162.452
2547	2164.158
2548	2165.848
2549	2167.52
2550	2169.23
2551	2170.862
2552	2172.566
2553	2174.274
2554	2175.998
2555	2177.694
2556	2179.454
2557	2181.174
2558	2182.876
2559	2184.626
2560	2186.322
2561	2188.006
2562	2189.73
2563	2191.394
2564	2193.106
2565	2194.858
2566	2196.586
2567	2198.29
2568	2199.998
2569	2201.73
2570	2203.424
2571	2205.15
2572	2206.89
2573	2208.61
2574	2210.34
2575	2212.106
2576	2213.846
2577	2215.61
2578	2217.314
2579	2219.022
2580	2220.75
2581	2222.466
2582	2224.196
2583	2225.87
2584	2227.598
2585	2229.33
2586	2231.086
2587	2232.842
2588	2234.528
2589	2236.226
2590	2237.96
2591	2239.682
2592	2241.398
2593	2243.132
2594	2244.9
2595	2246.656
2596	2248.394
2597	2250.104
2598	2251.844
2599	2253.56
2600	2255.282
2601	2257.026
2602	2258.764
2603	2260.502
2604	2262.264
2605	2263.944
2606	2265.696
2607	2267.428
2608	2269.182
2609	2270.926
2610	2272.688
2611	2274.42
2612	2276.138
2613	2277.868
2614	2279.616
2615	2281.356
2616	2283.112
2617	2284.846
2618	2286.592
2619	2288.378
2620	2290.136
2621	2291.868
2622	2293.58
2623	2295.358
2624	2297.142
2625	2298.92
2626	2300.648
2627	2302.416
2628	2304.146
2629	2305.902
2630	2307.66
2631	2309.418
2632	2311.19
2633	2312.912
2634	2314.688
2635	2316.446
2636	2318.228
2637	2320.002
2638	2321.748
2639	2323.532
2640	2325.28
2641	2327.046
2642	2328.804
2643	2330.55
2644	2332.354
2645	2334.128
2646	2335.878
2647	2337.65
2648	2339.438
2649	2341.188
2650	2342.95
2651	2344.704
2652	2346.472
2653	2348.258
2654	2349.984
2655	2351.766
2656	2353.552
2657	2355.33
2658	2357.084
2659	2358.888
2660	2360.654
2661	2362.41
2662	2364.204
2663	2365.954
2664	2367.704
2665	2369.49
2666	2371.288
2667	2373.084
2668	2374.852
2669	2376.604
2670	2378.382
2671	2380.14
2672	2381.948
2673	2383.664
2674	2385.434
2675	2387.212
2676	2389.032
2677	2390.758
2678	2392.506
2679	2394.314
2680	2396.09
2681	2397.87
2682	2399.654
2683	2401.416
2684	2403.222
2685	2405.05
2686	2406.876
2687	2408.648
2688	2410.42
2689	2412.23
2690	2414.05
2691	2415.866
2692	2417.638
2693	2419.414
2694	2421.216
2695	2423.026
2696	2424.816
2697	2426.614
2698	2428.4
2699	2430.188
2700	2431.988
2701	2433.78
2702	2435.576
2703	2437.366
2704	2439.158
2705	2440.964
2706	2442.768
2707	2444.54
2708	2446.322
2709	2448.124
2710	2449.904
2711	2451.7
2712	2453.558
2713	2455.382
2714	2457.196
2715	2458.972
2716	2460.764
2717	2462.574
2718	2464.404
2719	2466.194
2720	2468.03
2721	2469.838
2722	2471.65
2723	2473.426
2724	2475.246
2725	2477.054
2726	2478.872
2727	2480.672
2728	2482.526
2729	2484.348
2730	2486.148
2731	2487.964
2732	2489.788
2733	2491.61
2734	2493.422
2735	2495.23
2736	2497.018
2737	2498.842
2738	2500.67
2739	2502.508
2740	2504.318
2741	2506.156
2742	2508.02
2743	2509.852
2744	2511.698
2745	2513.532
2746	2515.364
2747	2517.186
2748	2519.058
2749	2520.884
2750	2522.734
2751	2524.59
2752	2526.424
2753	2528.246
2754	2530.076
2755	2531.93
2756	2533.756
2757	2535.572
2758	2537.428
2759	2539.274
2760	2541.092
2761	2542.938
2762	2544.78
2763	2546.654
2764	2548.476
2765	2550.298
2766	2552.15
2767	2553.996
2768	2555.846
2769	2557.696
2770	2559.526
2771	2561.372
2772	2563.236
2773	2565.08
2774	2566.964
2775	2568.804
2776	2570.674
2777	2572.528
2778	2574.4
2779	2576.224
2780	2578.088
2781	2579.954
2782	2581.798
2783	2583.63
2784	2585.51
2785	2587.36
2786	2589.226
2787	2591.096
2788	2592.914
2789	2594.78
2790	2596.618
2791	2598.482
2792	2600.334
2793	2602.194
2794	2604.058
2795	2605.932
2796	2607.78
2797	2609.62
2798	2611.448
2799	2613.312
2800	2615.162
2801	2617.018
2802	2618.888
2803	2620.786
2804	2622.674
2805	2624.548
2806	2626.392
2807	2628.262
2808	2630.144
2809	2632.01
2810	2633.874
2811	2635.74
2812	2637.62
2813	2639.51
2814	2641.386
2815	2643.268
2816	2645.144
2817	2647.026
2818	2648.916
2819	2650.816
2820	2652.686
2821	2654.556
2822	2656.432
2823	2658.312
2824	2660.182
2825	2662.08
2826	2664.01
2827	2665.892
2828	2667.782
2829	2669.628
2830	2671.51
2831	2673.404
2832	2675.29
2833	2677.16
2834	2679.046
2835	2680.918
2836	2682.826
2837	2684.722
2838	2686.588
2839	2688.474
2840	2690.372
2841	2692.25
2842	2694.138
2843	2696.046
2844	2697.942
2845	2699.852
2846	2701.738
2847	2703.652
2848	2705.542
2849	2707.43
2850	2709.322
2851	2711.198
2852	2713.106
2853	2715.014
2854	2716.918
2855	2718.814
2856	2720.722
2857	2722.63
2858	2724.54
2859	2726.466
2860	2728.348
2861	2730.282
2862	2732.182
2863	2734.116
2864	2736.02
2865	2737.918
2866	2739.818
2867	2741.74
2868	2743.644
2869	2745.56
2870	2747.474
2871	2749.402
2872	2751.34
2873	2753.266
2874	2755.156
2875	2757.096
2876	2759.032
2877	2760.936
2878	2762.846
2879	2764.778
2880	2766.708
2881	2768.63
2882	2770.558
2883	2772.478
2884	2774.412
2885	2776.344
2886	2778.272
2887	2780.22
2888	2782.158
2889	2784.09
2890	2786.01
2891	2787.94
2892	2789.868
2893	2791.792
2894	2793.724
2895	2795.62
2896	2797.564
2897	2799.5
2898	2801.432
2899	2803.366
2900	2805.308
2901	2807.24
2902	2809.172
2903	2811.112
2904	2813.044
2905	2814.972
2906	2816.902
2907	2818.85
2908	2820.764
2909	2822.698
2910	2824.642
2911	2826.58
2912	2828.532
2913	2830.486
2914	2832.438
2915	2834.388
2916	2836.322
2917	2838.254
2918	2840.2
2919	2842.134
2920	2844.09
2921	2846.042
2922	2847.992
2923	2849.952
2924	2851.89
2925	2853.832
2926	2855.774
2927	2857.722
2928	2859.682
2929	2861.634
2930	2863.584
2931	2865.538
2932	2867.492
2933	2869.45
2934	2871.402
2935	2873.362
2936	2875.298
2937	2877.256
2938	2879.212
2939	2881.172
2940	2883.146
2941	2885.102
2942	2887.068
2943	2889.03
2944	2890.994
2945	2892.964
2946	2894.926
2947	2896.892
2948	2898.87
2949	2900.84
2950	2902.796
2951	2904.768
2952	2906.738
2953	2908.714
2954	2910.684
2955	2912.658
2956	2914.634
2957	2916.608
2958	2918.584
2959	2920.548
2960	2922.524
2961	2924.504
2962	2926.478
2963	2928.44
2964	2930.42
2965	2932.394
2966	2934.37
2967	2936.35
2968	2938.334
2969	2940.318
2970	2942.29
2971	2944.268
2972	2946.246
2973	2948.228
2974	2950.208
2975	2952.19
2976	2954.174
2977	2956.154
2978	2958.134
2979	2960.12
2980	2962.102
2981	2964.084
2982	2966.076
2983	2968.066
2984	2970.058
2985	2972.058
2986	2974.048
2987	2976.042
2988	2978.038
2989	2980.026
2990	2982.024
2991	2984.018
2992	2986.012
2993	2988.008
2994	2990.008
2995	2992.004
2996	2994.004
2997	2996.002
2998	2998.0
2999	3000.0
